<?xml version="1.0" encoding="UTF-8" standalone="no"?>
<svg
   xmlns:dc="http://purl.org/dc/elements/1.1/"
   xmlns:cc="http://creativecommons.org/ns#"
   xmlns:rdf="http://www.w3.org/1999/02/22-rdf-syntax-ns#"
   xmlns:svg="http://www.w3.org/2000/svg"
   xmlns="http://www.w3.org/2000/svg"
   xmlns:sodipodi="http://sodipodi.sourceforge.net/DTD/sodipodi-0.dtd"
   xmlns:inkscape="http://www.inkscape.org/namespaces/inkscape"
   style="fill-opacity:1; color-rendering:auto; color-interpolation:auto; text-rendering:auto; stroke:black; stroke-linecap:square; stroke-miterlimit:10; shape-rendering:auto; stroke-opacity:1; fill:black; stroke-dasharray:none; font-weight:normal; stroke-width:1; font-family:'Dialog'; font-style:normal; stroke-linejoin:miter; font-size:12px; stroke-dashoffset:0; image-rendering:auto;"
   width="1920"
   height="970"
   version="1.1"
   id="svg191"
   sodipodi:docname="noslipdisp.svg"
   inkscape:version="0.92.2 (unknown)">
  <metadata
     id="metadata195">
    <rdf:RDF>
      <cc:Work
         rdf:about="">
        <dc:format>image/svg+xml</dc:format>
        <dc:type
           rdf:resource="http://purl.org/dc/dcmitype/StillImage" />
      </cc:Work>
    </rdf:RDF>
  </metadata>
  <sodipodi:namedview
     pagecolor="#ffffff"
     bordercolor="#666666"
     borderopacity="1"
     objecttolerance="10"
     gridtolerance="10"
     guidetolerance="10"
     inkscape:pageopacity="0"
     inkscape:pageshadow="2"
     inkscape:window-width="1920"
     inkscape:window-height="1025"
     id="namedview193"
     showgrid="false"
     inkscape:zoom="0.75104167"
     inkscape:cx="1028.0415"
     inkscape:cy="407.84241"
     inkscape:window-x="-2"
     inkscape:window-y="-3"
     inkscape:window-maximized="1"
     inkscape:current-layer="svg191" />
  <!--Generated by the Batik Graphics2D SVG Generator-->
  <defs
     id="genericDefs">
    <defs
       id="defs1">
      <clipPath
         id="clipPath1"
         clipPathUnits="userSpaceOnUse">
        <path
           id="path3"
           d="M0 0 L1920 0 L1920 970 L0 970 L0 0 Z" />
      </clipPath>
    </defs>
  </defs>
  <g
     id="g41"
     style="color-interpolation:linearRGB;fill:#262626;stroke:#262626;stroke-width:4;stroke-linejoin:round;color-rendering:optimizeQuality;image-rendering:optimizeQuality;text-rendering:geometricPrecision">
    <line
       id="line17"
       y1="856"
       x2="1385.5"
       x1="602.5"
       style="fill:none;stroke-width:4"
       y2="856" />
    <line
       id="line19"
       y1="73"
       x2="1385.5"
       x1="602.5"
       style="fill:none;stroke-width:4"
       y2="73" />
    <line
       id="line21"
       y1="856"
       x2="602.5"
       x1="602.5"
       style="fill:none;stroke-width:4"
       y2="848.17999" />
    <line
       id="line23"
       y1="856"
       x2="798.25"
       x1="798.25"
       style="fill:none;stroke-width:4"
       y2="848.17999" />
    <line
       id="line25"
       y1="856"
       x2="994"
       x1="994"
       style="fill:none;stroke-width:4"
       y2="848.17999" />
    <line
       id="line27"
       y1="856"
       x2="1189.75"
       x1="1189.75"
       style="fill:none;stroke-width:4"
       y2="848.17999" />
    <line
       id="line29"
       y1="856"
       x2="1385.5"
       x1="1385.5"
       style="fill:none;stroke-width:4"
       y2="848.17999" />
    <line
       id="line31"
       y1="73"
       x2="602.5"
       x1="602.5"
       style="fill:none;stroke-width:4"
       y2="80.82" />
    <line
       id="line33"
       y1="73"
       x2="798.25"
       x1="798.25"
       style="fill:none;stroke-width:4"
       y2="80.82" />
    <line
       id="line35"
       y1="73"
       x2="994"
       x1="994"
       style="fill:none;stroke-width:4"
       y2="80.82" />
    <line
       id="line37"
       y1="73"
       x2="1189.75"
       x1="1189.75"
       style="fill:none;stroke-width:4"
       y2="80.82" />
    <line
       id="line39"
       y1="73"
       x2="1385.5"
       x1="1385.5"
       style="fill:none;stroke-width:4"
       y2="80.82" />
  </g>
  <g
     id="g45"
     style="font-size:42.66669846px;font-family:SansSerif;color-interpolation:linearRGB;fill:#262626;stroke:#262626;color-rendering:optimizeQuality;image-rendering:optimizeQuality;text-rendering:geometricPrecision"
     transform="translate(602.5,867.2)">
    <path
       inkscape:connector-curvature="0"
       id="path43"
       d="m -32.9062,26.5 h 11.3281 v 3.4375 h -11.3281 z m 18.017,12.8438 v -3.8594 q 1.5938,0.75 3.2344,1.1562 1.6406,0.4063 3.2187,0.4063 4.2032,0 6.4141,-2.8281 2.2109,-2.8282 2.5234,-8.5782 -1.2187,1.7969 -3.0859,2.7656 -1.8672,0.9688 -4.1328,0.9688 -4.7031,0 -7.4453,-2.8438 -2.7422,-2.8437 -2.7422,-7.7812 0,-4.8281 2.8594,-7.75 2.8593,-2.9219 7.6093,-2.9219 5.4375,0 8.2969,4.1719 2.8594,4.1719 2.8594,12.1094 0,7.4062 -3.5156,11.8281 -3.5157,4.4219 -9.4532,4.4219 -1.5937,0 -3.2343,-0.3125 -1.6407,-0.3125 -3.4063,-0.9531 z m 8.4531,-13.2813 q 2.8438,0 4.5157,-1.9531 1.6718,-1.9532 1.6718,-5.3594 0,-3.375 -1.6718,-5.3438 -1.6719,-1.9687 -4.5157,-1.9687 -2.8593,0 -4.5312,1.9687 -1.6719,1.9688 -1.6719,5.3438 0,3.4062 1.6719,5.3594 1.6719,1.9531 4.5312,1.9531 z m 27.6393,-14.625 q -3.2813,0 -4.9297,3.2266 -1.6485,3.2265 -1.6485,9.6953 0,6.4375 1.6485,9.664 1.6484,3.2266 4.9297,3.2266 3.2968,0 4.9453,-3.2266 1.6484,-3.2265 1.6484,-9.664 0,-6.4688 -1.6484,-9.6953 Q 24.5,11.4375 21.2032,11.4375 Z m 0,-3.3594 q 5.2656,0 8.0468,4.1719 2.7813,4.1719 2.7813,12.1094 0,7.9062 -2.7813,12.0781 -2.7812,4.1719 -8.0468,4.1719 -5.2657,0 -8.0547,-4.1719 -2.7891,-4.1719 -2.7891,-12.0781 0,-7.9375 2.7891,-12.1094 2.789,-4.1719 8.0547,-4.1719 z"
       style="stroke:none" />
  </g>
  <g
     id="g49"
     style="font-size:42.66669846px;font-family:SansSerif;color-interpolation:linearRGB;fill:#262626;stroke:#262626;color-rendering:optimizeQuality;image-rendering:optimizeQuality;text-rendering:geometricPrecision"
     transform="translate(798.25,867.2)">
    <path
       inkscape:connector-curvature="0"
       id="path47"
       d="m -32.9062,26.5 h 11.3281 v 3.4375 H -32.9062 Z M -3.3579,12.3438 -14.0611,29.0781 H -3.3579 Z M -4.4673,8.6562 h 5.3281 v 20.4219 h 4.4688 v 3.5313 H 0.8608 V 40 h -4.2187 v -7.3906 h -14.1563 v -4.0938 z m 16.6392,0 h 16.6563 v 3.5626 H 16.0625 v 7.6874 q 0.9219,-0.3124 1.8438,-0.4687 0.9219,-0.1563 1.8437,-0.1563 5.25,0 8.3125,2.875 3.0625,2.875 3.0625,7.7813 0,5.0625 -3.1484,7.8672 -3.1484,2.8047 -8.8828,2.8047 -1.9688,0 -4.0156,-0.336 -2.0469,-0.3359 -4.2344,-1.0078 V 35 q 1.8906,1.0312 3.9062,1.5391 2.0157,0.5078 4.2657,0.5078 3.6406,0 5.7578,-1.9141 2.1172,-1.914 2.1172,-5.1953 0,-3.2656 -2.1172,-5.1797 -2.1172,-1.914 -5.7578,-1.914 -1.7032,0 -3.3907,0.3828 -1.6875,0.3828 -3.4531,1.1796 z"
       style="stroke:none" />
  </g>
  <g
     id="g53"
     style="font-size:42.66669846px;font-family:SansSerif;color-interpolation:linearRGB;fill:#262626;stroke:#262626;color-rendering:optimizeQuality;image-rendering:optimizeQuality;text-rendering:geometricPrecision"
     transform="translate(994,867.2)">
    <path
       inkscape:connector-curvature="0"
       id="path51"
       d="m -0.3281,11.4375 q -3.2813,0 -4.9297,3.2266 -1.6484,3.2265 -1.6484,9.6953 0,6.4375 1.6484,9.664 1.6484,3.2266 4.9297,3.2266 3.2969,0 4.9453,-3.2266 1.6484,-3.2265 1.6484,-9.664 0,-6.4688 -1.6484,-9.6953 -1.6484,-3.2266 -4.9453,-3.2266 z m 0,-3.3594 q 5.2656,0 8.0469,4.1719 2.7812,4.1719 2.7812,12.1094 0,7.9062 -2.7812,12.0781 -2.7813,4.1719 -8.0469,4.1719 -5.2657,0 -8.0547,-4.1719 -2.7891,-4.1719 -2.7891,-12.0781 0,-7.9375 2.7891,-12.1094 2.789,-4.1719 8.0547,-4.1719 z"
       style="stroke:none" />
  </g>
  <g
     id="g57"
     style="font-size:42.66669846px;font-family:SansSerif;color-interpolation:linearRGB;fill:#262626;stroke:#262626;color-rendering:optimizeQuality;image-rendering:optimizeQuality;text-rendering:geometricPrecision"
     transform="translate(1189.75,867.2)">
    <path
       inkscape:connector-curvature="0"
       id="path55"
       d="M -11.25,12.3438 -21.9531,29.0781 H -11.25 Z m -1.1094,-3.6876 h 5.3282 v 20.4219 h 4.4687 v 3.5313 H -7.0312 V 40 H -11.25 v -7.3906 h -14.1562 v -4.0938 z m 16.6392,0 h 16.6563 v 3.5626 H 8.1705 v 7.6874 q 0.9218,-0.3124 1.8437,-0.4687 0.9219,-0.1563 1.8438,-0.1563 5.25,0 8.3125,2.875 3.0625,2.875 3.0625,7.7813 0,5.0625 -3.1485,7.8672 -3.1484,2.8047 -8.8828,2.8047 -1.9687,0 -4.0156,-0.336 Q 5.1392,39.9375 2.9517,39.2656 V 35 q 1.8906,1.0312 3.9063,1.5391 2.0156,0.5078 4.2656,0.5078 3.6406,0 5.7578,-1.9141 2.1172,-1.914 2.1172,-5.1953 0,-3.2656 -2.1172,-5.1797 -2.1172,-1.914 -5.7578,-1.914 -1.7031,0 -3.3906,0.3828 -1.6875,0.3828 -3.4532,1.1796 z"
       style="stroke:none" />
  </g>
  <g
     id="g61"
     style="font-size:42.66669846px;font-family:SansSerif;color-interpolation:linearRGB;fill:#262626;stroke:#262626;color-rendering:optimizeQuality;image-rendering:optimizeQuality;text-rendering:geometricPrecision"
     transform="translate(1385.5,867.2)">
    <path
       inkscape:connector-curvature="0"
       id="path59"
       d="m -22.7812,39.3438 v -3.8594 q 1.5937,0.75 3.2343,1.1562 1.6407,0.4063 3.2188,0.4063 4.2031,0 6.414,-2.8281 2.211,-2.8282 2.5235,-8.5782 -1.2188,1.7969 -3.086,2.7656 -1.8672,0.9688 -4.1328,0.9688 -4.7031,0 -7.4453,-2.8438 -2.7422,-2.8437 -2.7422,-7.7812 0,-4.8281 2.8594,-7.75 2.8594,-2.9219 7.6094,-2.9219 5.4375,0 8.2969,4.1719 2.8593,4.1719 2.8593,12.1094 0,7.4062 -3.5156,11.8281 -3.5156,4.4219 -9.4531,4.4219 -1.5938,0 -3.2344,-0.3125 -1.6406,-0.3125 -3.4062,-0.9531 z m 8.4531,-13.2813 q 2.8437,0 4.5156,-1.9531 1.6719,-1.9532 1.6719,-5.3594 0,-3.375 -1.6719,-5.3438 -1.6719,-1.9687 -4.5156,-1.9687 -2.8594,0 -4.5313,1.9687 -1.6718,1.9688 -1.6718,5.3438 0,3.4062 1.6718,5.3594 1.6719,1.9531 4.5313,1.9531 z m 27.6392,-14.625 q -3.2813,0 -4.9297,3.2266 -1.6484,3.2265 -1.6484,9.6953 0,6.4375 1.6484,9.664 1.6484,3.2266 4.9297,3.2266 3.2969,0 4.9453,-3.2266 1.6484,-3.2265 1.6484,-9.664 0,-6.4688 -1.6484,-9.6953 -1.6484,-3.2266 -4.9453,-3.2266 z m 0,-3.3594 q 5.2656,0 8.0469,4.1719 2.7812,4.1719 2.7812,12.1094 0,7.9062 -2.7812,12.0781 -2.7813,4.1719 -8.0469,4.1719 -5.2656,0 -8.0547,-4.1719 -2.7891,-4.1719 -2.7891,-12.0781 0,-7.9375 2.7891,-12.1094 2.7891,-4.1719 8.0547,-4.1719 z"
       style="stroke:none" />
  </g>
  <g
     id="g65"
     style="font-size:42.66669846px;font-family:mwb_cmmi10;color-interpolation:linearRGB;fill:#262626;stroke:#262626;color-rendering:optimizeQuality;image-rendering:optimizeQuality;text-rendering:geometricPrecision"
     transform="translate(994.0004,918.5333)">
    <path
       inkscape:connector-curvature="0"
       id="path63"
       d="m -3.6855,36.3242 q -1.9532,0 -3.125,-1.4297 -1.1719,-1.4297 -1.625,-3.4453 -0.4532,-2.0156 -0.4532,-3.9844 V 27.418 q 0,-2.1407 0.4141,-4.4532 0.4141,-2.3125 1.1875,-4.6093 0.7734,-2.2969 1.6797,-4.0938 0.625,-1.2656 1.625,-2.8203 1,-1.5547 2.2265,-2.9062 Q -0.5293,7.1836 0.8848,6.3555 2.2988,5.5273 3.752,5.5273 h 0.0468 q 1.5469,0 2.586,0.8594 1.039,0.8594 1.6172,2.2031 0.5781,1.3438 0.8125,2.875 0.2343,1.5313 0.2343,2.9219 0,3.25 -0.8828,6.6406 -0.8828,3.3907 -2.4453,6.5625 -0.5781,1.1875 -1.6172,2.8047 -1.039,1.6172 -2.2031,2.8985 -1.1641,1.2812 -2.6172,2.1562 -1.4531,0.875 -2.9219,0.875 z m 0.0937,-1.1406 q 1.4219,0 2.7344,-1.5234 1.3125,-1.5235 2.2969,-3.6954 0.9843,-2.1718 1.7343,-4.4453 0.75,-2.2734 1.1094,-3.8672 H -4.498 q -0.6719,2.7032 -1.0469,4.6641 -0.375,1.9609 -0.375,3.8516 0,5.0156 2.3281,5.0156 z M -4.1543,20.1367 h 8.8125 q 0.4531,-1.8906 0.7266,-3.164 0.2734,-1.2735 0.4687,-2.6797 0.1953,-1.4063 0.1953,-2.625 0,-5.0313 -2.2968,-5.0313 -2.7344,0 -4.7188,4.3985 -1.9844,4.3984 -3.1875,9.1015 z"
       style="stroke:none" />
  </g>
  <g
     id="g95"
     style="color-interpolation:linearRGB;fill:#262626;stroke:#262626;stroke-width:4;stroke-linejoin:round;color-rendering:optimizeQuality;image-rendering:optimizeQuality;text-rendering:geometricPrecision">
    <line
       id="line67"
       y1="856"
       x2="602.5"
       x1="602.5"
       style="fill:none;stroke-width:4"
       y2="73" />
    <line
       id="line69"
       y1="856"
       x2="1385.5"
       x1="1385.5"
       style="fill:none;stroke-width:4"
       y2="73" />
    <line
       id="line71"
       y1="731.82318"
       x2="610.32001"
       x1="602.5"
       style="fill:none;stroke-width:4"
       y2="731.82318" />
    <line
       id="line73"
       y1="607.62872"
       x2="610.32001"
       x1="602.5"
       style="fill:none;stroke-width:4"
       y2="607.62872" />
    <line
       id="line75"
       y1="483.4342"
       x2="610.32001"
       x1="602.5"
       style="fill:none;stroke-width:4"
       y2="483.4342" />
    <line
       id="line77"
       y1="359.23969"
       x2="610.32001"
       x1="602.5"
       style="fill:none;stroke-width:4"
       y2="359.23969" />
    <line
       id="line79"
       y1="235.0452"
       x2="610.32001"
       x1="602.5"
       style="fill:none;stroke-width:4"
       y2="235.0452" />
    <line
       id="line81"
       y1="110.8506"
       x2="610.32001"
       x1="602.5"
       style="fill:none;stroke-width:4"
       y2="110.8506" />
    <line
       id="line83"
       y1="731.82318"
       x2="1377.6801"
       x1="1385.5"
       style="fill:none;stroke-width:4"
       y2="731.82318" />
    <line
       id="line85"
       y1="607.62872"
       x2="1377.6801"
       x1="1385.5"
       style="fill:none;stroke-width:4"
       y2="607.62872" />
    <line
       id="line87"
       y1="483.4342"
       x2="1377.6801"
       x1="1385.5"
       style="fill:none;stroke-width:4"
       y2="483.4342" />
    <line
       id="line89"
       y1="359.23969"
       x2="1377.6801"
       x1="1385.5"
       style="fill:none;stroke-width:4"
       y2="359.23969" />
    <line
       id="line91"
       y1="235.0452"
       x2="1377.6801"
       x1="1385.5"
       style="fill:none;stroke-width:4"
       y2="235.0452" />
    <line
       id="line93"
       y1="110.8506"
       x2="1377.6801"
       x1="1385.5"
       style="fill:none;stroke-width:4"
       y2="110.8506" />
  </g>
  <g
     id="g99"
     style="font-size:42.66669846px;font-family:SansSerif;color-interpolation:linearRGB;fill:#262626;stroke:#262626;color-rendering:optimizeQuality;image-rendering:optimizeQuality;text-rendering:geometricPrecision"
     transform="translate(591.3,731.8232)">
    <path
       inkscape:connector-curvature="0"
       id="path97"
       d="m -54.3281,-14.0625 q -3.2813,0 -4.9297,3.2266 -1.6484,3.2265 -1.6484,9.6953 0,6.4375 1.6484,9.664 1.6484,3.2266 4.9297,3.2266 3.2969,0 4.9453,-3.2266 1.6484,-3.2265 1.6484,-9.664 0,-6.4688 -1.6484,-9.6953 -1.6484,-3.2266 -4.9453,-3.2266 z m 0,-3.3594 q 5.2656,0 8.0469,4.1719 2.7812,4.1719 2.7812,12.1094 0,7.9062 -2.7812,12.0781 -2.7813,4.1719 -8.0469,4.1719 -5.2657,0 -8.0547,-4.1719 -2.7891,-4.1719 -2.7891,-12.0781 0,-7.9375 2.7891,-12.1094 2.789,-4.1719 8.0547,-4.1719 z M -36.267,9.1719 h 4.4375 V 14.5 h -4.4375 z m 14.2935,1.7656 h 6.9375 v -23.9219 l -7.5469,1.5156 v -3.8593 l 7.5,-1.5157 h 4.25 V 10.9375 H -3.911 V 14.5 h -18.0625 z"
       style="stroke:none" />
  </g>
  <g
     id="g103"
     style="font-size:42.66669846px;font-family:SansSerif;color-interpolation:linearRGB;fill:#262626;stroke:#262626;color-rendering:optimizeQuality;image-rendering:optimizeQuality;text-rendering:geometricPrecision"
     transform="translate(591.3,607.6287)">
    <path
       inkscape:connector-curvature="0"
       id="path101"
       d="m -54.3281,-14.0625 q -3.2813,0 -4.9297,3.2266 -1.6484,3.2265 -1.6484,9.6953 0,6.4375 1.6484,9.664 1.6484,3.2266 4.9297,3.2266 3.2969,0 4.9453,-3.2266 1.6484,-3.2265 1.6484,-9.664 0,-6.4688 -1.6484,-9.6953 -1.6484,-3.2266 -4.9453,-3.2266 z m 0,-3.3594 q 5.2656,0 8.0469,4.1719 2.7812,4.1719 2.7812,12.1094 0,7.9062 -2.7812,12.0781 -2.7813,4.1719 -8.0469,4.1719 -5.2657,0 -8.0547,-4.1719 -2.7891,-4.1719 -2.7891,-12.0781 0,-7.9375 2.7891,-12.1094 2.789,-4.1719 8.0547,-4.1719 z M -36.267,9.1719 h 4.4375 V 14.5 h -4.4375 z m 17.2154,1.7656 H -4.2547 V 14.5 h -19.8907 v -3.5625 q 2.4063,-2.5 6.5782,-6.7109 4.1718,-4.211 5.2343,-5.4297 2.0313,-2.2969 2.8438,-3.8828 0.8125,-1.586 0.8125,-3.1172 0,-2.5 -1.75,-4.0703 -1.75,-1.5704 -4.5781,-1.5704 -1.9844,0 -4.2032,0.6954 -2.2187,0.6953 -4.7343,2.1015 v -4.2812 q 2.5625,-1.0313 4.789,-1.5625 2.2266,-0.5313 4.0703,-0.5313 4.875,0 7.7735,2.4375 2.8984,2.4375 2.8984,6.5156 0,1.9376 -0.7265,3.6641 -0.7266,1.7266 -2.6329,4.0859 -0.5312,0.6094 -3.3437,3.5157 -2.8125,2.9062 -7.9375,8.1406 z"
       style="stroke:none" />
  </g>
  <g
     id="g107"
     style="font-size:42.66669846px;font-family:SansSerif;color-interpolation:linearRGB;fill:#262626;stroke:#262626;color-rendering:optimizeQuality;image-rendering:optimizeQuality;text-rendering:geometricPrecision"
     transform="translate(591.3,483.4342)">
    <path
       inkscape:connector-curvature="0"
       id="path105"
       d="m -54.3281,-14.0625 q -3.2813,0 -4.9297,3.2266 -1.6484,3.2265 -1.6484,9.6953 0,6.4375 1.6484,9.664 1.6484,3.2266 4.9297,3.2266 3.2969,0 4.9453,-3.2266 1.6484,-3.2265 1.6484,-9.664 0,-6.4688 -1.6484,-9.6953 -1.6484,-3.2266 -4.9453,-3.2266 z m 0,-3.3594 q 5.2656,0 8.0469,4.1719 2.7812,4.1719 2.7812,12.1094 0,7.9062 -2.7812,12.0781 -2.7813,4.1719 -8.0469,4.1719 -5.2657,0 -8.0547,-4.1719 -2.7891,-4.1719 -2.7891,-12.0781 0,-7.9375 2.7891,-12.1094 2.789,-4.1719 8.0547,-4.1719 z M -36.267,9.1719 h 4.4375 V 14.5 H -36.267 Z M -9.8485,-2.4062 q 3.0469,0.6562 4.7578,2.7109 1.711,2.0547 1.711,5.0859 0,4.6406 -3.1953,7.1797 -3.1954,2.5391 -9.0704,2.5391 -1.9843,0 -4.0703,-0.3906 -2.0859,-0.3907 -4.3047,-1.1563 V 9.4531 q 1.7657,1.0313 3.8594,1.5625 2.0938,0.5313 4.3906,0.5313 3.9844,0 6.0704,-1.5781 2.0859,-1.5782 2.0859,-4.5782 0,-2.7812 -1.9375,-4.3437 -1.9375,-1.5625 -5.4063,-1.5625 h -3.6562 V -4 h 3.8281 q 3.125,0 4.7813,-1.25 1.6562,-1.25 1.6562,-3.5938 0,-2.4218 -1.7109,-3.7109 -1.711,-1.2891 -4.8985,-1.2891 -1.7343,0 -3.7343,0.375 -2,0.375 -4.3907,1.1719 v -3.7812 q 2.4219,-0.6719 4.5313,-1.0078 2.1094,-0.336 3.9687,-0.336 4.8282,0 7.6485,2.1953 2.8203,2.1954 2.8203,5.9454 0,2.5937 -1.4922,4.3906 -1.4922,1.7968 -4.2422,2.4844 z"
       style="stroke:none" />
  </g>
  <g
     id="g111"
     style="font-size:42.66669846px;font-family:SansSerif;color-interpolation:linearRGB;fill:#262626;stroke:#262626;color-rendering:optimizeQuality;image-rendering:optimizeQuality;text-rendering:geometricPrecision"
     transform="translate(591.3,359.2397)">
    <path
       inkscape:connector-curvature="0"
       id="path109"
       d="m -54.3281,-14.0625 q -3.2813,0 -4.9297,3.2266 -1.6484,3.2265 -1.6484,9.6953 0,6.4375 1.6484,9.664 1.6484,3.2266 4.9297,3.2266 3.2969,0 4.9453,-3.2266 1.6484,-3.2265 1.6484,-9.664 0,-6.4688 -1.6484,-9.6953 -1.6484,-3.2266 -4.9453,-3.2266 z m 0,-3.3594 q 5.2656,0 8.0469,4.1719 2.7812,4.1719 2.7812,12.1094 0,7.9062 -2.7812,12.0781 -2.7813,4.1719 -8.0469,4.1719 -5.2657,0 -8.0547,-4.1719 -2.7891,-4.1719 -2.7891,-12.0781 0,-7.9375 2.7891,-12.1094 2.789,-4.1719 8.0547,-4.1719 z M -36.267,9.1719 h 4.4375 V 14.5 h -4.4375 z m 25.2154,-22.3281 -10.7031,16.7343 h 10.7031 z m -1.1094,-3.6876 h 5.3281 V 3.5781 h 4.4688 V 7.1094 H -6.8329 V 14.5 h -4.2187 V 7.1094 H -25.2079 V 3.0156 Z"
       style="stroke:none" />
  </g>
  <g
     id="g115"
     style="font-size:42.66669846px;font-family:SansSerif;color-interpolation:linearRGB;fill:#262626;stroke:#262626;color-rendering:optimizeQuality;image-rendering:optimizeQuality;text-rendering:geometricPrecision"
     transform="translate(591.3,235.0452)">
    <path
       inkscape:connector-curvature="0"
       id="path113"
       d="m -54.3281,-14.0625 q -3.2813,0 -4.9297,3.2266 -1.6484,3.2265 -1.6484,9.6953 0,6.4375 1.6484,9.664 1.6484,3.2266 4.9297,3.2266 3.2969,0 4.9453,-3.2266 1.6484,-3.2265 1.6484,-9.664 0,-6.4688 -1.6484,-9.6953 -1.6484,-3.2266 -4.9453,-3.2266 z m 0,-3.3594 q 5.2656,0 8.0469,4.1719 2.7812,4.1719 2.7812,12.1094 0,7.9062 -2.7812,12.0781 -2.7813,4.1719 -8.0469,4.1719 -5.2657,0 -8.0547,-4.1719 -2.7891,-4.1719 -2.7891,-12.0781 0,-7.9375 2.7891,-12.1094 2.789,-4.1719 8.0547,-4.1719 z M -36.267,9.1719 h 4.4375 V 14.5 h -4.4375 z m 13.606,-26.0157 h 16.6563 v 3.5626 h -12.7657 v 7.6874 q 0.9219,-0.3124 1.8438,-0.4687 0.9219,-0.1563 1.8437,-0.1563 5.25,0 8.3125,2.875 3.0625,2.875 3.0625,7.7813 0,5.0625 -3.1484,7.8672 -3.1484,2.8047 -8.8828,2.8047 -1.9688,0 -4.0156,-0.336 -2.0469,-0.3359 -4.2344,-1.0078 V 9.5 q 1.8906,1.0312 3.9062,1.5391 2.0157,0.5078 4.2657,0.5078 3.6406,0 5.7578,-1.9141 2.1172,-1.914 2.1172,-5.1953 0,-3.2656 -2.1172,-5.1797 -2.1172,-1.914 -5.7578,-1.914 -1.7032,0 -3.3907,0.3828 -1.6875,0.3828 -3.4531,1.1796 z"
       style="stroke:none" />
  </g>
  <g
     id="g119"
     style="font-size:42.66669846px;font-family:SansSerif;color-interpolation:linearRGB;fill:#262626;stroke:#262626;color-rendering:optimizeQuality;image-rendering:optimizeQuality;text-rendering:geometricPrecision"
     transform="translate(591.3,110.8506)">
    <path
       inkscape:connector-curvature="0"
       id="path117"
       d="m -54.3281,-14.0625 q -3.2813,0 -4.9297,3.2266 -1.6484,3.2265 -1.6484,9.6953 0,6.4375 1.6484,9.664 1.6484,3.2266 4.9297,3.2266 3.2969,0 4.9453,-3.2266 1.6484,-3.2265 1.6484,-9.664 0,-6.4688 -1.6484,-9.6953 -1.6484,-3.2266 -4.9453,-3.2266 z m 0,-3.3594 q 5.2656,0 8.0469,4.1719 2.7812,4.1719 2.7812,12.1094 0,7.9062 -2.7812,12.0781 -2.7813,4.1719 -8.0469,4.1719 -5.2657,0 -8.0547,-4.1719 -2.7891,-4.1719 -2.7891,-12.0781 0,-7.9375 2.7891,-12.1094 2.789,-4.1719 8.0547,-4.1719 z M -36.267,9.1719 h 4.4375 V 14.5 h -4.4375 z m 23.1529,-12.0313 q -2.8438,0 -4.5156,1.9532 -1.6719,1.9531 -1.6719,5.3437 0,3.3906 1.6719,5.3516 1.6718,1.9609 4.5156,1.9609 2.8594,0 4.5312,-1.9609 1.6719,-1.961 1.6719,-5.3516 0,-3.3906 -1.6719,-5.3437 -1.6718,-1.9532 -4.5312,-1.9532 z m 8.4219,-13.2968 v 3.8593 q -1.5938,-0.75 -3.2188,-1.1484 -1.625,-0.3985 -3.2187,-0.3985 -4.2032,0 -6.4219,2.836 -2.2188,2.8359 -2.5313,8.5703 1.25,-1.8281 3.1172,-2.8047 1.8672,-0.9766 4.1172,-0.9766 4.7188,0 7.461,2.8672 2.7421,2.8672 2.7421,7.7891 0,4.8281 -2.8593,7.75 -2.8594,2.9219 -7.6094,2.9219 -5.4375,0 -8.3125,-4.1719 -2.875,-4.1719 -2.875,-12.0781 0,-7.4375 3.5312,-11.8594 3.5313,-4.4219 9.4688,-4.4219 1.5937,0 3.2187,0.3203 1.625,0.3204 3.3907,0.9454 z"
       style="stroke:none" />
  </g>
  <g
     id="g127"
     style="font-size:42.66669846px;font-family:mwa_cmr10;color-interpolation:linearRGB;fill:#262626;stroke:#262626;color-rendering:optimizeQuality;image-rendering:optimizeQuality;text-rendering:geometricPrecision"
     transform="translate(476.94788,490.6102)">
    <path
       inkscape:connector-curvature="0"
       id="path121"
       d="m -25.0286,-4.6102 v -43 h 5.875 v 1.7188 h -4.1562 v 39.5625 h 4.1562 v 1.7187 z"
       style="stroke:none" />
    <path
       inkscape:connector-curvature="0"
       id="path123"
       d="m -16.1611,-15.3602 q -0.4062,0 -0.4062,-0.5625 0.0156,-0.1093 0.0781,-0.375 0.0625,-0.2656 0.1797,-0.4218 0.1172,-0.1563 0.2734,-0.1563 2.625,0 3.6875,-0.2969 0.5469,-0.1875 0.7969,-1.1406 l 5.8906,-23.625 q 0.0938,-0.4219 0.0938,-0.5937 0,-0.4532 -0.5156,-0.5157 -0.8125,-0.1718 -3.0938,-0.1718 -0.4219,0 -0.4219,-0.5625 0.0157,-0.1094 0.0782,-0.375 0.0625,-0.2657 0.1796,-0.4219 0.1172,-0.1563 0.2891,-0.1563 H 6.4014 q 3,0 5.2422,1.461 2.2422,1.4609 3.4375,3.9297 1.1953,2.4687 1.1953,5.4375 0,3.2968 -1.3593,6.5937 -1.3594,3.2969 -3.8204,6.0313 -2.4609,2.7343 -5.6093,4.3281 -3.1485,1.5937 -6.461,1.5937 z m 8.0469,-1.8437 q 0,0.3281 1.4688,0.3281 h 5 q 2.3906,0 4.6171,-0.9844 2.2266,-0.9843 3.9766,-2.7031 1.6094,-1.625 2.8516,-4.25 1.2422,-2.625 1.9218,-5.4765 0.6797,-2.8516 0.6797,-5.2422 0,-1.75 -0.5156,-3.1563 -0.5156,-1.4062 -1.4531,-2.414 -0.9375,-1.0079 -2.3438,-1.5625 -1.4062,-0.5547 -3.1562,-0.5547 H 0.1983 q -1.1719,0 -1.5469,0.1953 -0.375,0.1953 -0.7031,1.2734 l -5.875,23.5938 q -0.1875,0.5312 -0.1875,0.9531 z"
       style="stroke:none" />
    <path
       inkscape:connector-curvature="0"
       id="path125"
       d="m 19.1923,-4.6102 v -1.7187 h 4.1875 v -39.5625 h -4.1875 v -1.7188 h 5.9063 v 43 z"
       style="stroke:none" />
  </g>
  <g
     id="g139"
     style="color-interpolation:linearRGB;fill:#0072bd;stroke:#0072bd;stroke-width:6;stroke-linecap:butt;stroke-linejoin:round;color-rendering:optimizeQuality;image-rendering:optimizeQuality;text-rendering:geometricPrecision">
    <path
       inkscape:connector-curvature="0"
       id="path129"
       style="fill:none;fill-rule:evenodd;stroke-width:6"
       d="m 602.5,855.5754 3.0706,0.0116 3.0706,0.0346 3.0705,0.0578 3.0706,0.0809 3.0707,0.1038 3.0705,0.1269 3.0706,-0.0963 3.0706,-0.1726 3.0706,-0.1953 3.0706,-0.218 3.0706,-0.2406 3.0705,-0.263 3.0707,-0.2852 3.0705,-0.3073 3.0706,-0.3293 3.0707,-0.351 3.0705,-0.3726 3.0706,-0.394 3.0706,-0.4152 3.0705,-0.436 3.0707,-0.4568 3.0705,-0.4773 3.0706,-0.4974 3.0706,-0.5173 3.0706,-0.5371 3.0706,-0.5564 3.0706,-0.5755 3.0706,-0.5942 3.0706,-0.6126 3.0705,-0.6307 3.0706,-0.6484 3.0706,-0.6659 3.0706,-0.6828 3.0706,-0.6995 3.0706,-0.7158 3.0706,-0.7315 3.0706,-0.7471 3.0706,-0.762 3.0705,-0.7767 3.0706,-0.7908 3.0706,-0.8046 3.0706,-0.8179 3.0706,-0.8306 3.0706,-0.843 3.0706,-0.8548 3.0706,-0.8663 3.0705,-0.8771 3.0706,-0.8874 3.0706,-0.8973 3.0706,-0.9067 3.0706,-0.9155 3.0706,-0.9238 3.0706,-0.9315 3.0706,-0.9388 3.0705,-0.9453 3.0706,-0.9516 3.0707,-0.957 3.0705,-0.962 3.0706,-0.9665 3.0706,-0.9702 3.0706,-0.9735 3.0706,-0.9762 3.0706,-0.9783 3.0705,-0.9797 3.0707,-0.9806 3.0705,-0.9809 3.0706,-0.9807 3.0706,-0.9798 3.0706,-0.9783 3.0706,-0.9761 3.0706,-0.9735 3.0705,-0.9702 3.0707,-0.9663 3.0705,-0.9618 3.0706,-0.9566 3.0706,-0.951 3.0706,-0.9447 3.0706,-0.9378 3.0706,-0.9303 3.0705,-0.9223 3.0707,-0.9135 3.0706,-0.9043 3.0705,-0.8946 3.0706,-0.8841 3.0706,-0.8731 3.0706,-0.8617 3.0706,-0.8495 3.0706,-0.8369 3.0705,-0.8238 3.0707,-0.81 3.0705,-0.7957 3.0706,-0.781 3.0706,-0.7657 3.0706,-0.75 3.0706,-0.7337 3.0706,-0.7168 3.0705,-0.6997 3.0707,-0.682 3.0705,-0.6637 3.0706,-0.6452 3.0706,-0.6263 3.0706,-0.6066 3.0706,-0.587 3.0706,-0.5666 3.0705,-0.5459 3.0707,-0.525 3.0705,-0.5036 3.0706,-0.482 3.0706,-0.4599 3.0706,-0.4375 3.0706,-0.4149 3.0706,-0.392 3.0705,-0.3689 3.0707,-0.3453 3.0706,-0.3218 3.0705,-0.2978 3.0707,-0.2737 3.0705,-0.2494 3.0706,-0.2251 3.0706,-0.2004 3.0706,-0.1756 3.0706,-0.1508 3.0706,-0.1258 3.0705,-0.1007 3.0706,-0.0757 3.0706,-0.0504 3.0706,-0.0252 h 3.0706 l 3.0706,0.0252 3.0706,0.0504 3.0706,0.0757 3.0705,0.1007 3.0706,0.1258 3.0706,0.1508 3.0706,0.1756 3.0706,0.2004 3.0706,0.2251 3.0706,0.2494 3.0706,0.2737 3.0705,0.2978 3.0706,0.3218 3.0707,0.3453 3.0705,0.3689 3.0706,0.392 3.0707,0.4149 3.0705,0.4375 3.0706,0.4599 3.0705,0.482 3.0707,0.5036 3.0706,0.525 3.0705,0.5459 3.0706,0.5666 3.0706,0.587 3.0706,0.6066 3.0706,0.6263 3.0705,0.6452 3.0707,0.6637 3.0706,0.682 3.0705,0.6997 3.0706,0.7168 3.0706,0.7337 3.0706,0.75 3.0706,0.7657 3.0705,0.781 3.0707,0.7957 3.0706,0.81 3.0705,0.8238 3.0707,0.8369 3.0705,0.8495 3.0706,0.8617 3.0706,0.8731 3.0705,0.8841 3.0707,0.8946 3.0705,0.9043 3.0706,0.9135 3.0707,0.9223 3.0705,0.9303 3.0706,0.9378 3.0706,0.9447 3.0706,0.951 3.0706,0.9566 3.0705,0.9618 3.0706,0.9663 3.0707,0.9702 3.0705,0.9735 3.0706,0.9761 3.0706,0.9783 3.0706,0.9798 3.0706,0.9807 3.0705,0.9809 3.0706,0.9806 3.0707,0.9797 3.0705,0.9783 3.0706,0.9762 3.0707,0.9735 3.0705,0.9702 3.0706,0.9665 3.0705,0.962 3.0707,0.957 3.0706,0.9516 3.0705,0.9453 3.0706,0.9388 3.0707,0.9315 3.0705,0.9238 3.0706,0.9155 3.0705,0.9067 3.0707,0.8973 3.0706,0.8874 3.0705,0.8771 3.0706,0.8663 3.0707,0.8548 3.0705,0.843 3.0706,0.8306 3.0705,0.8179 3.0707,0.8046 3.0706,0.7908 3.0705,0.7767 3.0706,0.762 3.0707,0.7471 3.0705,0.7315 3.0706,0.7158 3.0705,0.6995 3.0707,0.6828 3.0706,0.6659 3.0705,0.6484 3.0706,0.6307 3.0707,0.6126 3.0705,0.5942 3.0706,0.5755 3.0707,0.5564 3.0705,0.5371 3.0706,0.5173 3.0705,0.4974 3.0706,0.4773 3.0707,0.4568 3.0705,0.436 3.0706,0.4152 3.0706,0.394 3.0706,0.3726 3.0706,0.351 3.0705,0.3293 3.0707,0.3073 3.0706,0.2852 3.0705,0.263 3.0706,0.2406 3.0706,0.218 3.0706,0.1953 3.0706,0.1726 3.0706,0.0963 3.0706,-0.1269 3.0706,-0.1038 3.0705,-0.0809 3.0706,-0.0578 3.0706,-0.0346 3.0706,-0.0116" />
    <path
       inkscape:connector-curvature="0"
       id="path131"
       style="fill:none;fill-rule:evenodd;stroke:#d95319;stroke-width:6"
       d="m 602.5,855.1921 3.0706,0.0292 3.0706,0.0877 3.0705,0.1462 3.0706,0.2045 3.0707,0.263 3.0705,-0.131 3.0706,-0.3793 3.0706,-0.4372 3.0706,-0.4951 3.0706,-0.5527 3.0706,-0.61 3.0705,-0.6672 3.0707,-0.7241 3.0705,-0.7805 3.0706,-0.8368 3.0707,-0.8926 3.0705,-0.9481 3.0706,-1.0031 3.0706,-1.0577 3.0705,-1.1119 3.0707,-1.1656 3.0705,-1.2188 3.0706,-1.2715 3.0706,-1.3236 3.0706,-1.3752 3.0706,-1.4262 3.0706,-1.4765 3.0706,-1.5262 3.0706,-1.5752 3.0705,-1.6235 3.0706,-1.671 3.0706,-1.7178 3.0706,-1.7638 3.0706,-1.809 3.0706,-1.8533 3.0706,-1.8969 3.0706,-1.9394 3.0706,-1.9812 3.0705,-2.0219 3.0706,-2.0617 3.0706,-2.1005 3.0706,-2.1381 3.0706,-2.175 3.0706,-2.2106 3.0706,-2.2451 3.0706,-2.2785 3.0705,-2.3107 3.0706,-2.3418 3.0706,-2.3716 3.0706,-2.4002 3.0706,-2.4276 3.0706,-2.4537 3.0706,-2.4784 3.0706,-2.5019 3.0705,-2.524 3.0706,-2.5447 3.0707,-2.5639 3.0705,-2.5818 3.0706,-2.5983 3.0706,-2.6132 3.0706,-2.6265 3.0706,-2.6386 3.0706,-2.6489 3.0705,-2.6577 3.0707,-2.665 3.0705,-2.6707 3.0706,-2.6747 3.0706,-2.6771 3.0706,-2.6779 3.0706,-2.6772 3.0706,-2.6745 3.0705,-2.6703 3.0707,-2.6644 3.0705,-2.6567 3.0706,-2.6474 3.0706,-2.6364 3.0706,-2.6235 3.0706,-2.609 3.0706,-2.5927 3.0705,-2.5747 3.0707,-2.5549 3.0706,-2.5335 3.0705,-2.5101 3.0706,-2.4852 3.0706,-2.4584 3.0706,-2.4299 3.0706,-2.3998 3.0706,-2.3679 3.0705,-2.3343 3.0707,-2.2989 3.0705,-2.262 3.0706,-2.2233 3.0706,-2.183 3.0706,-2.1412 3.0706,-2.0976 3.0706,-2.0526 3.0705,-2.0059 3.0707,-1.9577 3.0705,-1.9081 3.0706,-1.857 3.0706,-1.8043 3.0706,-1.7504 3.0706,-1.695 3.0706,-1.6384 3.0705,-1.5804 3.0707,-1.5211 3.0705,-1.4607 3.0706,-1.3991 3.0706,-1.3364 3.0706,-1.2725 3.0706,-1.2077 3.0706,-1.1419 3.0705,-1.0752 3.0707,-1.0075 3.0706,-0.9392 3.0705,-0.8699 3.0707,-0.7999 3.0705,-0.7294 3.0706,-0.6581 3.0706,-0.5864 3.0706,-0.5142 3.0706,-0.4415 3.0706,-0.3685 3.0705,-0.2952 3.0706,-0.2215 3.0706,-0.1478 3.0706,-0.074 h 3.0706 l 3.0706,0.074 3.0706,0.1478 3.0706,0.2215 3.0705,0.2952 3.0706,0.3685 3.0706,0.4415 3.0706,0.5142 3.0706,0.5864 3.0706,0.6581 3.0706,0.7294 3.0706,0.7999 3.0705,0.8699 3.0706,0.9392 3.0707,1.0075 3.0705,1.0752 3.0706,1.1419 3.0707,1.2077 3.0705,1.2725 3.0706,1.3364 3.0705,1.3991 3.0707,1.4607 3.0706,1.5211 3.0705,1.5804 3.0706,1.6384 3.0706,1.695 3.0706,1.7504 3.0706,1.8043 3.0705,1.857 3.0707,1.9081 3.0706,1.9577 3.0705,2.0059 3.0706,2.0526 3.0706,2.0976 3.0706,2.1412 3.0706,2.183 3.0705,2.2233 3.0707,2.262 3.0706,2.2989 3.0705,2.3343 3.0707,2.3679 3.0705,2.3998 3.0706,2.4299 3.0706,2.4584 3.0705,2.4852 3.0707,2.5101 3.0705,2.5335 3.0706,2.5549 3.0707,2.5747 3.0705,2.5927 3.0706,2.609 3.0706,2.6235 3.0706,2.6364 3.0706,2.6474 3.0705,2.6567 3.0706,2.6644 3.0707,2.6703 3.0705,2.6745 3.0706,2.6772 3.0706,2.6779 3.0706,2.6771 3.0706,2.6747 3.0705,2.6707 3.0706,2.665 3.0707,2.6577 3.0705,2.6489 3.0706,2.6386 3.0707,2.6265 3.0705,2.6132 3.0706,2.5983 3.0705,2.5818 3.0707,2.5639 3.0706,2.5447 3.0705,2.524 3.0706,2.5019 3.0707,2.4784 3.0705,2.4537 3.0706,2.4276 3.0705,2.4002 3.0707,2.3716 3.0706,2.3418 3.0705,2.3107 3.0706,2.2785 3.0707,2.2451 3.0705,2.2106 3.0706,2.175 3.0705,2.1381 3.0707,2.1005 3.0706,2.0617 3.0705,2.0219 3.0706,1.9812 3.0707,1.9394 3.0705,1.8969 3.0706,1.8533 3.0705,1.809 3.0707,1.7638 3.0706,1.7178 3.0705,1.671 3.0706,1.6235 3.0707,1.5752 3.0705,1.5262 3.0706,1.4765 3.0707,1.4262 3.0705,1.3752 3.0706,1.3236 3.0705,1.2715 3.0706,1.2188 3.0707,1.1656 3.0705,1.1119 3.0706,1.0577 3.0706,1.0031 3.0706,0.9481 3.0706,0.8926 3.0705,0.8368 3.0707,0.7805 3.0706,0.7241 3.0705,0.6672 3.0706,0.61 3.0706,0.5527 3.0706,0.4951 3.0706,0.4372 3.0706,0.3793 3.0706,0.131 3.0706,-0.263 3.0705,-0.2045 3.0706,-0.1462 3.0706,-0.0877 3.0706,-0.0292" />
    <path
       inkscape:connector-curvature="0"
       id="path133"
       style="fill:none;fill-rule:evenodd;stroke:#edb120;stroke-width:6"
       d="m 602.5,855.24 3.0706,0.0475 3.0706,0.1426 3.0705,0.2374 3.0706,0.3325 3.0707,-0.3918 3.0705,-0.5221 3.0706,-0.6166 3.0706,-0.7111 3.0706,-0.8053 3.0706,-0.8994 3.0706,-0.9931 3.0705,-1.0867 3.0707,-1.1797 3.0705,-1.2726 3.0706,-1.365 3.0707,-1.4571 3.0705,-1.5486 3.0706,-1.6398 3.0706,-1.7304 3.0705,-1.8205 3.0707,-1.9101 3.0705,-1.9991 3.0706,-2.0874 3.0706,-2.1751 3.0706,-2.2623 3.0706,-2.3485 3.0706,-2.434 3.0706,-2.5188 3.0706,-2.6028 3.0705,-2.6857 3.0706,-2.7679 3.0706,-2.8491 3.0706,-2.9293 3.0706,-3.0084 3.0706,-3.0865 3.0706,-3.1635 3.0706,-3.2394 3.0706,-3.3139 3.0705,-3.3874 3.0706,-3.4594 3.0706,-3.5301 3.0706,-3.5996 3.0706,-3.6675 3.0706,-3.7338 3.0706,-3.7988 3.0706,-3.8621 3.0705,-3.9237 3.0706,-3.9837 3.0706,-4.042 3.0706,-4.0984 3.0706,-4.153 3.0706,-4.2057 3.0706,-4.2564 3.0706,-4.3051 3.0705,-4.3517 3.0706,-4.3962 3.0707,-4.4386 3.0705,-4.4786 3.0706,-4.5164 3.0706,-4.5518 3.0706,-4.5849 3.0706,-4.6153 3.0706,-4.6433 3.0705,-4.6687 3.0707,-4.6915 3.0705,-4.7116 3.0706,-4.7289 3.0706,-4.7434 3.0706,-4.7551 3.0706,-4.7638 3.0706,-4.7697 3.0705,-4.7724 3.0707,-4.7722 3.0705,-4.7688 3.0706,-4.7623 3.0706,-4.7525 3.0706,-4.7396 3.0706,-4.7235 3.0706,-4.704 3.0705,-4.6811 3.0707,-4.6549 3.0706,-4.6254 3.0705,-4.5924 3.0706,-4.556 3.0706,-4.516 3.0706,-4.4728 3.0706,-4.426 3.0706,-4.3756 3.0705,-4.3219 3.0707,-4.2647 3.0705,-4.204 3.0706,-4.1397 3.0706,-4.0722 3.0706,-4.0011 3.0706,-3.9266 3.0706,-3.8488 3.0705,-3.7676 3.0707,-3.6832 3.0705,-3.5955 3.0706,-3.5045 3.0706,-3.4105 3.0706,-3.3133 3.0706,-3.2131 3.0706,-3.11 3.0705,-3.0038 3.0707,-2.895 3.0705,-2.7833 3.0706,-2.6692 3.0706,-2.5523 3.0706,-2.4331 3.0706,-2.3114 3.0706,-2.1877 3.0705,-2.0616 3.0707,-1.9336 3.0706,-1.8038 3.0705,-1.672 3.0707,-1.5387 3.0705,-1.4037 3.0706,-1.2675 3.0706,-1.1299 3.0706,-0.9911 3.0706,-0.8514 3.0706,-0.7109 3.0705,-0.5695 3.0706,-0.4277 3.0706,-0.2853 3.0706,-0.1428 h 3.0706 l 3.0706,0.1428 3.0706,0.2853 3.0706,0.4277 3.0705,0.5695 3.0706,0.7109 3.0706,0.8514 3.0706,0.9911 3.0706,1.1299 3.0706,1.2675 3.0706,1.4037 3.0706,1.5387 3.0705,1.672 3.0706,1.8038 3.0707,1.9336 3.0705,2.0616 3.0706,2.1877 3.0707,2.3114 3.0705,2.4331 3.0706,2.5523 3.0705,2.6692 3.0707,2.7833 3.0706,2.895 3.0705,3.0038 3.0706,3.11 3.0706,3.2131 3.0706,3.3133 3.0706,3.4105 3.0705,3.5045 3.0707,3.5955 3.0706,3.6832 3.0705,3.7676 3.0706,3.8488 3.0706,3.9266 3.0706,4.0011 3.0706,4.0722 3.0705,4.1397 3.0707,4.204 3.0706,4.2647 3.0705,4.3219 3.0707,4.3756 3.0705,4.426 3.0706,4.4728 3.0706,4.516 3.0705,4.556 3.0707,4.5924 3.0705,4.6254 3.0706,4.6549 3.0707,4.6811 3.0705,4.704 3.0706,4.7235 3.0706,4.7396 3.0706,4.7525 3.0706,4.7623 3.0705,4.7688 3.0706,4.7722 3.0707,4.7724 3.0705,4.7697 3.0706,4.7638 3.0706,4.7551 3.0706,4.7434 3.0706,4.7289 3.0705,4.7116 3.0706,4.6915 3.0707,4.6687 3.0705,4.6433 3.0706,4.6153 3.0707,4.5849 3.0705,4.5518 3.0706,4.5164 3.0705,4.4786 3.0707,4.4386 3.0706,4.3962 3.0705,4.3517 3.0706,4.3051 3.0707,4.2564 3.0705,4.2057 3.0706,4.153 3.0705,4.0984 3.0707,4.042 3.0706,3.9837 3.0705,3.9237 3.0706,3.8621 3.0707,3.7988 3.0705,3.7338 3.0706,3.6675 3.0705,3.5996 3.0707,3.5301 3.0706,3.4594 3.0705,3.3874 3.0706,3.3139 3.0707,3.2394 3.0705,3.1635 3.0706,3.0865 3.0705,3.0084 3.0707,2.9293 3.0706,2.8491 3.0705,2.7679 3.0706,2.6857 3.0707,2.6028 3.0705,2.5188 3.0706,2.434 3.0707,2.3485 3.0705,2.2623 3.0706,2.1751 3.0705,2.0874 3.0706,1.9991 3.0707,1.9101 3.0705,1.8205 3.0706,1.7304 3.0706,1.6398 3.0706,1.5486 3.0706,1.4571 3.0705,1.365 3.0707,1.2726 3.0706,1.1797 3.0705,1.0867 3.0706,0.9931 3.0706,0.8994 3.0706,0.8053 3.0706,0.7111 3.0706,0.6166 3.0706,0.5221 3.0706,0.3918 3.0705,-0.3325 3.0706,-0.2374 3.0706,-0.1426 3.0706,-0.0475" />
    <path
       inkscape:connector-curvature="0"
       id="path135"
       style="fill:none;fill-rule:evenodd;stroke:#7e2f8e;stroke-width:6"
       d="m 602.5,855.9048 3.0706,0.0666 3.0706,-0.1072 3.0705,-0.333 3.0706,-0.4662 3.0707,-0.5992 3.0705,-0.7323 3.0706,-0.8652 3.0706,-0.9979 3.0706,-1.1306 3.0706,-1.2631 3.0706,-1.3953 3.0705,-1.5275 3.0707,-1.6594 3.0705,-1.791 3.0706,-1.9224 3.0707,-2.0535 3.0705,-2.1842 3.0706,-2.3147 3.0706,-2.4447 3.0705,-2.5745 3.0707,-2.7037 3.0705,-2.8324 3.0706,-2.9609 3.0706,-3.0885 3.0706,-3.2159 3.0706,-3.3425 3.0706,-3.4686 3.0706,-3.5939 3.0706,-3.7187 3.0705,-3.8426 3.0706,-3.9658 3.0706,-4.088 3.0706,-4.2096 3.0706,-4.3301 3.0706,-4.4497 3.0706,-4.5681 3.0706,-4.6856 3.0706,-4.8019 3.0705,-4.917 3.0706,-5.0308 3.0706,-5.1432 3.0706,-5.2544 3.0706,-5.3639 3.0706,-5.4719 3.0706,-5.5785 3.0706,-5.6831 3.0705,-5.7861 3.0706,-5.8871 3.0706,-5.9863 3.0706,-6.0833 3.0706,-6.1783 3.0706,-6.2709 3.0706,-6.3614 3.0706,-6.4493 3.0705,-6.5346 3.0706,-6.6175 3.0707,-6.6974 3.0705,-6.7746 3.0706,-6.8488 3.0706,-6.9198 3.0706,-6.9877 3.0706,-7.0522 3.0706,-7.1134 3.0705,-7.1709 3.0707,-7.2246 3.0705,-7.2746 3.0706,-7.3207 3.0706,-7.3626 3.0706,-7.4004 3.0706,-7.4338 3.0706,-7.4627 3.0705,-7.4871 3.0707,-7.5067 3.0705,-7.5215 3.0706,-7.5312 3.0706,-7.536 3.0706,-7.5355 3.0706,-7.5297 3.0706,-7.5184 3.0705,-7.5016 3.0707,-7.4792 3.0706,-7.4509 3.0705,-7.4169 3.0706,-7.3768 3.0706,-7.3307 3.0706,-7.2786 3.0706,-7.2203 3.0706,-7.1557 3.0705,-7.0849 3.0707,-7.0076 3.0705,-6.9241 3.0706,-6.8341 3.0706,-6.7377 3.0706,-6.6348 3.0706,-6.5256 3.0706,-6.4099 3.0705,-6.2878 3.0707,-6.1595 3.0705,-6.0246 3.0706,-5.8837 3.0706,-5.7365 3.0706,-5.5832 3.0706,-5.4239 3.0706,-5.2588 3.0705,-5.0878 3.0707,-4.9111 3.0705,-4.7291 3.0706,-4.5416 3.0706,-4.3489 3.0706,-4.1513 3.0706,-3.9488 3.0706,-3.7417 3.0705,-3.5302 3.0707,-3.3146 3.0706,-3.0949 3.0705,-2.8716 3.0707,-2.6448 3.0705,-2.4148 3.0706,-2.1818 3.0706,-1.9462 3.0706,-1.7083 3.0706,-1.4681 3.0706,-1.2262 3.0705,-0.9829 3.0706,-0.7382 3.0706,-0.4926 3.0706,-0.2465 h 3.0706 l 3.0706,0.2465 3.0706,0.4926 3.0706,0.7382 3.0705,0.9829 3.0706,1.2262 3.0706,1.4681 3.0706,1.7083 3.0706,1.9462 3.0706,2.1818 3.0706,2.4148 3.0706,2.6448 3.0705,2.8716 3.0706,3.0949 3.0707,3.3146 3.0705,3.5302 3.0706,3.7417 3.0707,3.9488 3.0705,4.1513 3.0706,4.3489 3.0705,4.5416 3.0707,4.7291 3.0706,4.9111 3.0705,5.0878 3.0706,5.2588 3.0706,5.4239 3.0706,5.5832 3.0706,5.7365 3.0705,5.8837 3.0707,6.0246 3.0706,6.1595 3.0705,6.2878 3.0706,6.4099 3.0706,6.5256 3.0706,6.6348 3.0706,6.7377 3.0705,6.8341 3.0707,6.9241 3.0706,7.0076 3.0705,7.0849 3.0707,7.1557 3.0705,7.2203 3.0706,7.2786 3.0706,7.3307 3.0705,7.3768 3.0707,7.4169 3.0705,7.4509 3.0706,7.4792 3.0707,7.5016 3.0705,7.5184 3.0706,7.5297 3.0706,7.5355 3.0706,7.536 3.0706,7.5312 3.0705,7.5215 3.0706,7.5067 3.0707,7.4871 3.0705,7.4627 3.0706,7.4338 3.0706,7.4004 3.0706,7.3626 3.0706,7.3207 3.0705,7.2746 3.0706,7.2246 3.0707,7.1709 3.0705,7.1134 3.0706,7.0522 3.0707,6.9877 3.0705,6.9198 3.0706,6.8488 3.0705,6.7746 3.0707,6.6974 3.0706,6.6175 3.0705,6.5346 3.0706,6.4493 3.0707,6.3614 3.0705,6.2709 3.0706,6.1783 3.0705,6.0833 3.0707,5.9863 3.0706,5.8871 3.0705,5.7861 3.0706,5.6831 3.0707,5.5785 3.0705,5.4719 3.0706,5.3639 3.0705,5.2544 3.0707,5.1432 3.0706,5.0308 3.0705,4.917 3.0706,4.8019 3.0707,4.6856 3.0705,4.5681 3.0706,4.4497 3.0705,4.3301 3.0707,4.2096 3.0706,4.088 3.0705,3.9658 3.0706,3.8426 3.0707,3.7187 3.0705,3.5939 3.0706,3.4686 3.0707,3.3425 3.0705,3.2159 3.0706,3.0885 3.0705,2.9609 3.0706,2.8324 3.0707,2.7037 3.0705,2.5745 3.0706,2.4447 3.0706,2.3147 3.0706,2.1842 3.0706,2.0535 3.0705,1.9224 3.0707,1.791 3.0706,1.6594 3.0705,1.5275 3.0706,1.3953 3.0706,1.2631 3.0706,1.1306 3.0706,0.9979 3.0706,0.8652 3.0706,0.7323 3.0706,0.5992 3.0705,0.4662 3.0706,0.333 3.0706,0.1072 3.0706,-0.0666" />
    <path
       inkscape:connector-curvature="0"
       id="path137"
       style="fill:none;fill-rule:evenodd;stroke:#77ac30;stroke-width:6"
       d="m 602.5,855.1726 3.0706,-0.08 3.0706,-0.2401 3.0705,-0.4 3.0706,-0.56 3.0707,-0.7201 3.0705,-0.88 3.0706,-1.04 3.0706,-1.1998 3.0706,-1.3599 3.0706,-1.5195 3.0706,-1.6794 3.0705,-1.8391 3.0707,-1.9987 3.0705,-2.1583 3.0706,-2.3178 3.0707,-2.4772 3.0705,-2.6365 3.0706,-2.7956 3.0706,-2.9547 3.0705,-3.1135 3.0707,-3.2722 3.0705,-3.4307 3.0706,-3.589 3.0706,-3.747 3.0706,-3.9048 3.0706,-4.0623 3.0706,-4.2196 3.0706,-4.3764 3.0706,-4.5328 3.0705,-4.6889 3.0706,-4.8445 3.0706,-4.9997 3.0706,-5.1542 3.0706,-5.3082 3.0706,-5.4616 3.0706,-5.6143 3.0706,-5.7662 3.0706,-5.9173 3.0705,-6.0676 3.0706,-6.217 3.0706,-6.3653 3.0706,-6.5124 3.0706,-6.6586 3.0706,-6.8034 3.0706,-6.9469 3.0706,-7.089 3.0705,-7.2294 3.0706,-7.3683 3.0706,-7.5054 3.0706,-7.6406 3.0706,-7.774 3.0706,-7.905 3.0706,-8.0339 3.0706,-8.1604 3.0705,-8.2844 3.0706,-8.4056 3.0707,-8.5241 3.0705,-8.6395 3.0706,-8.7517 3.0706,-8.8606 3.0706,-8.966 3.0706,-9.0678 3.0706,-9.1654 3.0705,-9.2592 3.0707,-9.3486 3.0705,-9.4334 3.0706,-9.5138 3.0706,-9.5889 3.0706,-9.6592 3.0706,-9.7239 3.0706,-9.7832 3.0705,-9.8367 3.0707,-9.8841 3.0705,-9.9253 3.0706,-9.9601 3.0706,-9.9881 3.0706,-10.0091 3.0706,-10.0233 3.0706,-10.0299 3.0705,-10.029 3.0707,-10.0202 3.0706,-10.0037 3.0705,-9.9788 3.0706,-9.9457 3.0706,-9.9039 3.0706,-9.8534 3.0706,-9.7941 3.0706,-9.7258 3.0705,-9.6483 3.0707,-9.5615 3.0705,-9.4653 3.0706,-9.3597 3.0706,-9.2443 3.0706,-9.1196 3.0706,-8.9849 3.0706,-8.8407 3.0705,-8.6868 3.0707,-8.5231 3.0705,-8.3497 3.0706,-8.1669 3.0706,-7.9743 3.0706,-7.7723 3.0706,-7.5612 3.0706,-7.3406 3.0705,-7.1112 3.0707,-6.8728 3.0705,-6.6258 3.0706,-6.3704 3.0706,-6.1067 3.0706,-5.8352 3.0706,-5.5559 3.0706,-5.2695 3.0705,-4.9759 3.0707,-4.6757 3.0706,-4.3692 3.0705,-4.0567 3.0707,-3.7389 3.0705,-3.4156 3.0706,-3.0877 3.0706,-2.7557 3.0706,-2.4198 3.0706,-2.0804 3.0706,-1.7381 3.0705,-1.3935 3.0706,-1.0468 3.0706,-0.6987 L 992.4647,73 h 3.0706 l 3.0706,0.3496 3.0706,0.6987 3.0706,1.0468 3.0705,1.3935 3.0706,1.7381 3.0706,2.0804 3.0706,2.4198 3.0706,2.7557 3.0706,3.0877 3.0706,3.4156 3.0706,3.7389 3.0705,4.0567 3.0706,4.3692 3.0707,4.6757 3.0705,4.9759 3.0706,5.2695 3.0707,5.5559 3.0705,5.8352 3.0706,6.1067 3.0705,6.3704 3.0707,6.6258 3.0706,6.8728 3.0705,7.1112 3.0706,7.3406 3.0706,7.5612 3.0706,7.7723 3.0706,7.9743 3.0705,8.1669 3.0707,8.3497 3.0706,8.5231 3.0705,8.6868 3.0706,8.8407 3.0706,8.9849 3.0706,9.1196 3.0706,9.2443 3.0705,9.3597 3.0707,9.4653 3.0706,9.5615 3.0705,9.6483 3.0707,9.7258 3.0705,9.7941 3.0706,9.8534 3.0706,9.9039 3.0705,9.9457 3.0707,9.9788 3.0705,10.0037 3.0706,10.0202 3.0707,10.029 3.0705,10.0299 3.0706,10.0233 3.0706,10.0091 3.0706,9.9881 3.0706,9.9601 3.0705,9.9253 3.0706,9.8841 3.0707,9.8367 3.0705,9.7832 3.0706,9.7239 3.0706,9.6592 3.0706,9.5889 3.0706,9.5138 3.0705,9.4334 3.0706,9.3486 3.0707,9.2592 3.0705,9.1654 3.0706,9.0678 3.0707,8.966 3.0705,8.8606 3.0706,8.7517 3.0705,8.6395 3.0707,8.5241 3.0706,8.4056 3.0705,8.2844 3.0706,8.1604 3.0707,8.0339 3.0705,7.905 3.0706,7.774 3.0705,7.6406 3.0707,7.5054 3.0706,7.3683 3.0705,7.2294 3.0706,7.089 3.0707,6.9469 3.0705,6.8034 3.0706,6.6586 3.0705,6.5124 3.0707,6.3653 3.0706,6.217 3.0705,6.0676 3.0706,5.9173 3.0707,5.7662 3.0705,5.6143 3.0706,5.4616 3.0705,5.3082 3.0707,5.1542 3.0706,4.9997 3.0705,4.8445 3.0706,4.6889 3.0707,4.5328 3.0705,4.3764 3.0706,4.2196 3.0707,4.0623 3.0705,3.9048 3.0706,3.747 3.0705,3.589 3.0706,3.4307 3.0707,3.2722 3.0705,3.1135 3.0706,2.9547 3.0706,2.7956 3.0706,2.6365 3.0706,2.4772 3.0705,2.3178 3.0707,2.1583 3.0706,1.9987 3.0705,1.8391 3.0706,1.6794 3.0706,1.5195 3.0706,1.3599 3.0706,1.1998 3.0706,1.04 3.0706,0.88 3.0706,0.7201 3.0705,0.56 3.0706,0.4 3.0706,0.2401 3.0706,0.08" />
  </g>
  <g
     transform="translate(13.412951,-6.0182183)"
     style="font-style:normal;font-weight:normal;font-size:12px;font-family:Dialog;color-interpolation:auto;fill:#000000;fill-opacity:1;stroke:#000000;stroke-width:1;stroke-linecap:square;stroke-linejoin:miter;stroke-miterlimit:10;stroke-dasharray:none;stroke-dashoffset:0;stroke-opacity:1;color-rendering:auto;image-rendering:auto;shape-rendering:auto;text-rendering:auto"
     id="g1392">
    <g
       id="g163"
       style="color-interpolation:linearRGB;fill:#0072bd;stroke:#0072bd;stroke-width:6;stroke-linecap:butt;stroke-linejoin:round;color-rendering:optimizeQuality;image-rendering:optimizeQuality;text-rendering:geometricPrecision"
       transform="translate(65.905095,62.724075)">
      <line
         id="line161"
         y1="111"
         x2="1279"
         x1="1239"
         style="fill:none;stroke-width:6"
         y2="111" />
    </g>
    <g
       id="g171"
       style="color-interpolation:linearRGB;fill:#d95319;stroke:#d95319;stroke-width:6;stroke-linecap:butt;stroke-linejoin:round;color-rendering:optimizeQuality;image-rendering:optimizeQuality;text-rendering:geometricPrecision"
       transform="translate(65.905095,62.724075)">
      <line
         id="line169"
         y1="157.5"
         x2="1279"
         x1="1239"
         style="fill:none;stroke-width:6"
         y2="157.5" />
    </g>
    <g
       id="g179"
       style="color-interpolation:linearRGB;fill:#edb120;stroke:#edb120;stroke-width:6;stroke-linecap:butt;stroke-linejoin:round;color-rendering:optimizeQuality;image-rendering:optimizeQuality;text-rendering:geometricPrecision"
       transform="translate(65.905095,62.724075)">
      <line
         id="line177"
         y1="204"
         x2="1279"
         x1="1239"
         style="fill:none;stroke-width:6"
         y2="204" />
    </g>
    <g
       id="g187"
       style="color-interpolation:linearRGB;fill:#7e2f8e;stroke:#7e2f8e;stroke-width:6;stroke-linecap:butt;stroke-linejoin:round;color-rendering:optimizeQuality;image-rendering:optimizeQuality;text-rendering:geometricPrecision"
       transform="translate(65.905095,62.724075)">
      <line
         id="line185"
         y1="250.5"
         x2="1279"
         x1="1239"
         style="fill:none;stroke-width:6"
         y2="250.5" />
    </g>
    <g
       transform="translate(-344.3058,-96.974644)"
       id="g1363">
      <g
         transform="translate(1553.1524,270.69872)"
         style="font-size:38.40000153px;font-family:SansSerif;color-interpolation:linearRGB;color-rendering:optimizeQuality;image-rendering:optimizeQuality;text-rendering:geometricPrecision"
         id="g159">
        <path
           style="stroke:none"
           d="m 12.0781,-12.2344 q -2.8906,0 -4.3515,2.8516 -1.461,2.8516 -1.461,8.5547 0,5.7031 1.461,8.5469 1.4609,2.8437 4.3515,2.8437 2.9219,0 4.375,-2.8437 1.4531,-2.8438 1.4531,-8.5469 0,-5.7031 -1.4531,-8.5547 -1.4531,-2.8516 -4.375,-2.8516 z m 0,-2.9687 q 4.6563,0 7.1172,3.6797 2.4609,3.6796 2.4609,10.6953 0,7 -2.4609,10.6797 -2.4609,3.6796 -7.1172,3.6796 -4.6562,0 -7.1172,-3.6796 Q 2.5,6.1719 2.5,-0.8281 q 0,-7.0157 2.4609,-10.6953 2.461,-3.6797 7.1172,-3.6797 z M 28.4778,8.2812 h 3.9219 V 13 h -3.9219 z m 20.214,-20.5156 q -2.8907,0 -4.3516,2.8516 -1.4609,2.8516 -1.4609,8.5547 0,5.7031 1.4609,8.5469 1.4609,2.8437 4.3516,2.8437 2.9218,0 4.375,-2.8437 1.4531,-2.8438 1.4531,-8.5469 0,-5.7031 -1.4531,-8.5547 -1.4532,-2.8516 -4.375,-2.8516 z m 0,-2.9687 q 4.6562,0 7.1172,3.6797 2.4609,3.6796 2.4609,10.6953 0,7 -2.4609,10.6797 -2.461,3.6796 -7.1172,3.6796 -4.6563,0 -7.1172,-3.6796 -2.461,-3.6797 -2.461,-10.6797 0,-7.0157 2.461,-10.6953 2.4609,-3.6797 7.1172,-3.6797 z M 68.3259,9.8438 H 81.404 V 13 H 63.8102 V 9.8438 q 2.1407,-2.2032 5.8204,-5.9219 3.6796,-3.7188 4.6328,-4.7969 1.7968,-2.0312 2.5078,-3.4297 0.7109,-1.3984 0.7109,-2.7578 0,-2.2031 -1.5469,-3.5937 -1.5468,-1.3907 -4.0312,-1.3907 -1.7656,0 -3.7188,0.6094 -1.9531,0.6094 -4.1875,1.8594 v -3.7813 q 2.2657,-0.9218 4.2344,-1.3828 1.9688,-0.4609 3.5938,-0.4609 4.3125,0 6.8672,2.1484 2.5546,2.1485 2.5546,5.7578 0,1.7031 -0.6406,3.2344 -0.6406,1.5313 -2.3281,3.6094 -0.4531,0.5312 -2.9453,3.1015 -2.4922,2.5704 -7.0078,7.1954 z"
           id="path157"
           inkscape:connector-curvature="0" />
      </g>
      <g
         transform="translate(1553.1524,317.19872)"
         style="font-size:38.40000153px;font-family:SansSerif;color-interpolation:linearRGB;color-rendering:optimizeQuality;image-rendering:optimizeQuality;text-rendering:geometricPrecision"
         id="g167">
        <path
           style="stroke:none"
           d="m 12.0781,-12.2344 q -2.8906,0 -4.3515,2.8516 -1.461,2.8516 -1.461,8.5547 0,5.7031 1.461,8.5469 1.4609,2.8437 4.3515,2.8437 2.9219,0 4.375,-2.8437 1.4531,-2.8438 1.4531,-8.5469 0,-5.7031 -1.4531,-8.5547 -1.4531,-2.8516 -4.375,-2.8516 z m 0,-2.9687 q 4.6563,0 7.1172,3.6797 2.4609,3.6796 2.4609,10.6953 0,7 -2.4609,10.6797 -2.4609,3.6796 -7.1172,3.6796 -4.6562,0 -7.1172,-3.6796 Q 2.5,6.1719 2.5,-0.8281 q 0,-7.0157 2.4609,-10.6953 2.461,-3.6797 7.1172,-3.6797 z M 28.4778,8.2812 h 3.9219 V 13 h -3.9219 z m 20.214,-20.5156 q -2.8907,0 -4.3516,2.8516 -1.4609,2.8516 -1.4609,8.5547 0,5.7031 1.4609,8.5469 1.4609,2.8437 4.3516,2.8437 2.9218,0 4.375,-2.8437 1.4531,-2.8438 1.4531,-8.5469 0,-5.7031 -1.4531,-8.5547 -1.4532,-2.8516 -4.375,-2.8516 z m 0,-2.9687 q 4.6562,0 7.1172,3.6797 2.4609,3.6796 2.4609,10.6953 0,7 -2.4609,10.6797 -2.461,3.6796 -7.1172,3.6796 -4.6563,0 -7.1172,-3.6796 -2.461,-3.6797 -2.461,-10.6797 0,-7.0157 2.461,-10.6953 2.4609,-3.6797 7.1172,-3.6797 z m 16.4309,0.5 h 14.7188 v 3.1562 H 68.5602 V -4.75 q 0.8125,-0.2812 1.6329,-0.4219 0.8203,-0.1406 1.6328,-0.1406 4.6406,0 7.3515,2.5391 2.711,2.539 2.711,6.8828 0,4.4687 -2.7813,6.9453 -2.7812,2.4765 -7.8594,2.4765 -1.7343,0 -3.5468,-0.2968 -1.8125,-0.2969 -3.7344,-0.8906 V 8.5781 q 1.6719,0.9219 3.4531,1.3672 1.7813,0.4453 3.7656,0.4453 3.2032,0 5.0782,-1.6953 1.875,-1.6953 1.875,-4.5859 0,-2.8906 -1.875,-4.5782 -1.875,-1.6874 -5.0782,-1.6874 -1.5156,0 -3.0078,0.3359 -1.4922,0.3359 -3.0547,1.0391 z"
           id="path165"
           inkscape:connector-curvature="0" />
      </g>
      <g
         transform="translate(1553.1524,363.69872)"
         style="font-size:38.40000153px;font-family:SansSerif;color-interpolation:linearRGB;color-rendering:optimizeQuality;image-rendering:optimizeQuality;text-rendering:geometricPrecision"
         id="g175">
        <path
           style="stroke:none"
           d="m 12.0781,-12.2344 q -2.8906,0 -4.3515,2.8516 -1.461,2.8516 -1.461,8.5547 0,5.7031 1.461,8.5469 1.4609,2.8437 4.3515,2.8437 2.9219,0 4.375,-2.8437 1.4531,-2.8438 1.4531,-8.5469 0,-5.7031 -1.4531,-8.5547 -1.4531,-2.8516 -4.375,-2.8516 z m 0,-2.9687 q 4.6563,0 7.1172,3.6797 2.4609,3.6796 2.4609,10.6953 0,7 -2.4609,10.6797 -2.4609,3.6796 -7.1172,3.6796 -4.6562,0 -7.1172,-3.6796 Q 2.5,6.1719 2.5,-0.8281 q 0,-7.0157 2.4609,-10.6953 2.461,-3.6797 7.1172,-3.6797 z M 28.4778,8.2812 h 3.9219 V 13 h -3.9219 z m 20.214,-20.5156 q -2.8907,0 -4.3516,2.8516 -1.4609,2.8516 -1.4609,8.5547 0,5.7031 1.4609,8.5469 1.4609,2.8437 4.3516,2.8437 2.9218,0 4.375,-2.8437 1.4531,-2.8438 1.4531,-8.5469 0,-5.7031 -1.4531,-8.5547 -1.4532,-2.8516 -4.375,-2.8516 z m 0,-2.9687 q 4.6562,0 7.1172,3.6797 2.4609,3.6796 2.4609,10.6953 0,7 -2.4609,10.6797 -2.461,3.6796 -7.1172,3.6796 -4.6563,0 -7.1172,-3.6796 -2.461,-3.6797 -2.461,-10.6797 0,-7.0157 2.461,-10.6953 2.4609,-3.6797 7.1172,-3.6797 z m 24.4153,15.0469 q -2.6719,0 -4.2031,1.4296 -1.5313,1.4297 -1.5313,3.9297 0,2.5157 1.5313,3.9375 1.5312,1.4219 4.2031,1.4219 2.6719,0 4.211,-1.4375 1.539,-1.4375 1.539,-3.9219 0,-2.5 -1.5312,-3.9297 -1.5313,-1.4296 -4.2188,-1.4296 z m -3.75,-1.5938 q -2.4062,-0.5938 -3.75,-2.2422 -1.3437,-1.6484 -1.3437,-4.0234 0,-3.3282 2.3593,-5.2578 2.3594,-1.9297 6.4844,-1.9297 4.1406,0 6.5,1.9297 2.3594,1.9296 2.3594,5.2578 0,2.375 -1.3516,4.0234 -1.3515,1.6484 -3.7422,2.2422 2.7188,0.625 4.2266,2.4609 1.5078,1.836 1.5078,4.4922 0,4.0313 -2.4609,6.1797 -2.461,2.1484 -7.0391,2.1484 -4.5781,0 -7.039,-2.1484 -2.461,-2.1484 -2.461,-6.1797 0,-2.6562 1.5235,-4.4922 1.5234,-1.8359 4.2265,-2.4609 z m -1.375,-5.9219 q 0,2.1563 1.3516,3.3594 1.3515,1.2031 3.7734,1.2031 2.4063,0 3.7735,-1.2031 1.3671,-1.2031 1.3671,-3.3594 0,-2.1562 -1.3671,-3.3593 -1.3672,-1.2032 -3.7735,-1.2032 -2.4219,0 -3.7734,1.2032 -1.3516,1.2031 -1.3516,3.3593 z"
           id="path173"
           inkscape:connector-curvature="0" />
      </g>
      <g
         transform="translate(1553.1524,410.19872)"
         style="font-size:38.40000153px;font-family:SansSerif;color-interpolation:linearRGB;color-rendering:optimizeQuality;image-rendering:optimizeQuality;text-rendering:geometricPrecision"
         id="g183">
        <path
           style="stroke:none"
           d="m 12.0781,-12.2344 q -2.8906,0 -4.3515,2.8516 -1.461,2.8516 -1.461,8.5547 0,5.7031 1.461,8.5469 1.4609,2.8437 4.3515,2.8437 2.9219,0 4.375,-2.8437 1.4531,-2.8438 1.4531,-8.5469 0,-5.7031 -1.4531,-8.5547 -1.4531,-2.8516 -4.375,-2.8516 z m 0,-2.9687 q 4.6563,0 7.1172,3.6797 2.4609,3.6796 2.4609,10.6953 0,7 -2.4609,10.6797 -2.4609,3.6796 -7.1172,3.6796 -4.6562,0 -7.1172,-3.6796 Q 2.5,6.1719 2.5,-0.8281 q 0,-7.0157 2.4609,-10.6953 2.461,-3.6797 7.1172,-3.6797 z M 28.4778,8.2812 h 3.9219 V 13 h -3.9219 z m 12.8546,1.5626 h 6.125 v -21.125 l -6.6719,1.3281 v -3.4063 l 6.625,-1.3437 h 3.75 V 9.8438 h 6.125 V 13 H 41.3324 Z m 24.4153,0 h 6.125 v -21.125 l -6.6718,1.3281 v -3.4063 l 6.625,-1.3437 h 3.75 V 9.8438 h 6.125 V 13 H 65.7477 Z"
           id="path181"
           inkscape:connector-curvature="0" />
      </g>
      <g
         transform="translate(1553.1524,456.69872)"
         style="font-size:38.40000153px;font-family:SansSerif;color-interpolation:linearRGB;color-rendering:optimizeQuality;image-rendering:optimizeQuality;text-rendering:geometricPrecision"
         id="g191">
        <path
           style="stroke:none"
           d="m 12.0781,-12.2344 q -2.8906,0 -4.3515,2.8516 -1.461,2.8516 -1.461,8.5547 0,5.7031 1.461,8.5469 1.4609,2.8437 4.3515,2.8437 2.9219,0 4.375,-2.8437 1.4531,-2.8438 1.4531,-8.5469 0,-5.7031 -1.4531,-8.5547 -1.4531,-2.8516 -4.375,-2.8516 z m 0,-2.9687 q 4.6563,0 7.1172,3.6797 2.4609,3.6796 2.4609,10.6953 0,7 -2.4609,10.6797 -2.4609,3.6796 -7.1172,3.6796 -4.6562,0 -7.1172,-3.6796 Q 2.5,6.1719 2.5,-0.8281 q 0,-7.0157 2.4609,-10.6953 2.461,-3.6797 7.1172,-3.6797 z M 28.4778,8.2812 h 3.9219 V 13 h -3.9219 z m 12.8546,1.5626 h 6.125 v -21.125 l -6.6719,1.3281 v -3.4063 l 6.625,-1.3437 h 3.75 V 9.8438 h 6.125 V 13 H 41.3324 Z M 76.4509,-1.9375 q 2.6875,0.5781 4.2031,2.3984 1.5156,1.8203 1.5156,4.4922 0,4.0938 -2.8203,6.336 -2.8203,2.2421 -8.0234,2.2421 -1.75,0 -3.5938,-0.3437 -1.8437,-0.3437 -3.8125,-1.0156 v -3.625 q 1.5625,0.9062 3.4219,1.375 1.8594,0.4687 3.875,0.4687 3.5312,0 5.375,-1.3984 1.8437,-1.3984 1.8437,-4.0391 0,-2.4531 -1.7187,-3.8359 -1.7188,-1.3828 -4.7813,-1.3828 h -3.2187 v -3.0782 h 3.375 q 2.7656,0 4.2266,-1.1093 1.4609,-1.1094 1.4609,-3.1875 0,-2.125 -1.5078,-3.2656 -1.5078,-1.1407 -4.336,-1.1407 -1.5312,0 -3.2968,0.336 -1.7657,0.3359 -3.875,1.039 v -3.3437 q 2.125,-0.5938 3.9922,-0.8906 1.8671,-0.2969 3.5234,-0.2969 4.2656,0 6.75,1.9375 2.4844,1.9375 2.4844,5.25 0,2.2968 -1.3203,3.8828 -1.3204,1.5859 -3.7422,2.1953 z"
           id="path189"
           inkscape:connector-curvature="0" />
      </g>
    </g>
    <g
       id="g195"
       style="color-interpolation:linearRGB;fill:#77ac30;stroke:#77ac30;stroke-width:6;stroke-linecap:butt;stroke-linejoin:round;color-rendering:optimizeQuality;image-rendering:optimizeQuality;text-rendering:geometricPrecision"
       transform="translate(65.905095,62.724075)">
      <line
         id="line193"
         y1="297"
         x2="1279"
         x1="1239"
         style="fill:none;stroke-width:6"
         y2="297" />
    </g>
    <g
       id="g199"
       style="color-interpolation:linearRGB;fill:#262626;stroke:#262626;stroke-width:3.56672883;stroke-linecap:butt;color-rendering:optimizeQuality;image-rendering:optimizeQuality;text-rendering:geometricPrecision"
       transform="matrix(1.0662965,0,0,1.2219458,-111.79091,-13.563857)">
      <path
         inkscape:connector-curvature="0"
         id="path197"
         style="fill:none;fill-rule:evenodd;stroke-width:3.56672883"
         d="M 1235,322 V 86 h 137 v 236 z" />
    </g>
    <g
       transform="matrix(0.60931115,0,0,0.60931115,972.49427,-403.3358)"
       id="g1248">
      <g
         style="font-style:normal;font-variant:normal;font-weight:normal;font-stretch:normal;letter-spacing:normal;word-spacing:normal;text-anchor:start;fill:none;fill-opacity:1;fill-rule:evenodd;stroke:#000000;stroke-linecap:butt;stroke-linejoin:miter;stroke-miterlimit:10.43299961;stroke-dasharray:none;stroke-dashoffset:0;stroke-opacity:1"
         id="content"
         transform="matrix(1.3857143,0,0,-1.3857143,-242.5,1440)"
         xml:space="preserve"
         stroke-miterlimit="10.433"
         font-style="normal"
         font-variant="normal"
         font-weight="normal"
         font-stretch="normal"
         font-size-adjust="none"
         letter-spacing="normal"
         word-spacing="normal"><path
           style="fill:#000000;stroke-width:0"
           inkscape:connector-curvature="0"
           d="m 474.05,422.43 0.02,0.03 0.02,0.02 0.02,0.02 0.02,0.02 0.02,0.03 0.02,0.02 0.01,0.02 0.02,0.02 0.02,0.02 0.01,0.02 0.03,0.04 0.03,0.03 0.02,0.04 0.03,0.03 0.02,0.03 0.02,0.03 0.01,0.03 0.02,0.03 0.01,0.03 0.02,0.02 0.01,0.02 0.01,0.03 0.01,0.02 v 0.02 l 0.01,0.02 0.01,0.02 v 0.01 0.02 l 0.01,0.02 v 0.01 0.01 0.02 0.01 0.01 0.01 0.01 0.01 c 0,0.25 -0.2,0.5 -0.34,0.7 l -10.22,14.75 h 11.5 c 8.42,0 10.92,-1.79 11.97,-9.67 h 1.23 l -1.39,11.22 H 459.6 c -1.19,0 -1.28,0 -1.28,-1.16 l 12.4,-18.03 -11.86,-13.5 c -0.5,-0.54 -0.5,-0.64 -0.5,-0.79 0,-0.55 0.5,-0.55 1.24,-0.55 h 27.65 l 1.39,11.76 h -1.23 c -0.91,-8.32 -4.3,-9.67 -12.11,-9.67 h -13.75 z"
           id="path1243" /><path
           style="fill:#000000;stroke-width:0"
           inkscape:connector-curvature="0"
           d="m 511.66,408.31 -0.17,0.2 -0.16,0.19 -0.16,0.18 -0.15,0.17 -0.14,0.16 -0.14,0.16 -0.13,0.15 -0.12,0.14 -0.13,0.14 -0.12,0.13 -0.11,0.13 -0.11,0.12 -0.11,0.11 -0.11,0.11 -0.1,0.11 -0.1,0.1 -0.2,0.19 -0.2,0.19 -0.19,0.17 -0.2,0.17 -0.2,0.16 -0.22,0.17 -0.11,0.08 -0.11,0.08 -0.12,0.09 -0.12,0.09 c -2.13,1.54 -4.35,2.12 -6.27,2.12 -4.33,0 -7.45,-3.69 -7.45,-7.87 h 0.97 c 0,3.36 2.71,5.96 5.92,5.96 3.25,0 5.47,-2.65 8.81,-6.68 v 0 c -1.39,-2.27 -4.42,-5.8 -8.67,-5.8 -3.6,0 -6.06,3.17 -6.06,6.52 h -0.97 c 0,-4.07 2.98,-7.83 7.34,-7.83 4.84,0 8.24,3.97 9.49,5.81 1.84,-2.16 2.4,-2.75 3.71,-3.69 2.13,-1.53 4.36,-2.12 6.28,-2.12 4.32,0 7.46,3.69 7.46,7.87 h -0.97 c 0,-3.34 -2.72,-5.97 -5.92,-5.97 -3.25,0 -5.49,2.66 -8.83,6.71 v 0 c 1.41,2.25 4.44,5.78 8.69,5.78 3.57,0 6.06,-3.17 6.06,-6.52 h 0.97 c 0,4.08 -3,7.83 -7.34,7.83 -4.85,0 -8.24,-3.97 -9.49,-5.81 z"
           id="path1245" /></g>    </g>
  </g>
</svg>
