%!PS-Adobe-3.0 EPSF-3.0
%%Creator: cairo 1.13.1 (http://cairographics.org)
%%CreationDate: Sun Mar  4 17:08:38 2018
%%Pages: 1
%%DocumentData: Clean7Bit
%%LanguageLevel: 2
%%BoundingBox: 0 -1 719 664
%%EndComments
%%BeginProlog
save
50 dict begin
/q { gsave } bind def
/Q { grestore } bind def
/cm { 6 array astore concat } bind def
/w { setlinewidth } bind def
/J { setlinecap } bind def
/j { setlinejoin } bind def
/M { setmiterlimit } bind def
/d { setdash } bind def
/m { moveto } bind def
/l { lineto } bind def
/c { curveto } bind def
/h { closepath } bind def
/re { exch dup neg 3 1 roll 5 3 roll moveto 0 rlineto
      0 exch rlineto 0 rlineto closepath } bind def
/S { stroke } bind def
/f { fill } bind def
/f* { eofill } bind def
/n { newpath } bind def
/W { clip } bind def
/W* { eoclip } bind def
/BT { } bind def
/ET { } bind def
/pdfmark where { pop globaldict /?pdfmark /exec load put }
    { globaldict begin /?pdfmark /pop load def /pdfmark
    /cleartomark load def end } ifelse
/BDC { mark 3 1 roll /BDC pdfmark } bind def
/EMC { mark /EMC pdfmark } bind def
/cairo_store_point { /cairo_point_y exch def /cairo_point_x exch def } def
/Tj { show currentpoint cairo_store_point } bind def
/TJ {
  {
    dup
    type /stringtype eq
    { show } { -0.001 mul 0 cairo_font_matrix dtransform rmoveto } ifelse
  } forall
  currentpoint cairo_store_point
} bind def
/cairo_selectfont { cairo_font_matrix aload pop pop pop 0 0 6 array astore
    cairo_font exch selectfont cairo_point_x cairo_point_y moveto } bind def
/Tf { pop /cairo_font exch def /cairo_font_matrix where
      { pop cairo_selectfont } if } bind def
/Td { matrix translate cairo_font_matrix matrix concatmatrix dup
      /cairo_font_matrix exch def dup 4 get exch 5 get cairo_store_point
      /cairo_font where { pop cairo_selectfont } if } bind def
/Tm { 2 copy 8 2 roll 6 array astore /cairo_font_matrix exch def
      cairo_store_point /cairo_font where { pop cairo_selectfont } if } bind def
/g { setgray } bind def
/rg { setrgbcolor } bind def
/d1 { setcachedevice } bind def
%%EndProlog
%%BeginSetup
%%EndSetup
%%Page: 1 1
%%BeginPageSetup
%%PageBoundingBox: 0 -1 719 664
%%EndPageSetup
q 0 -1 719 665 rectclip q
0.14902 g
3 w
2 J
1 j
[] 0.0 d
10 M q 1 0 0 -1 0 663.643127 cm
112.934 589.5 m 700.184 589.5 l S Q
q 1 0 0 -1 0 663.643127 cm
112.934 2.25 m 700.184 2.25 l S Q
q 1 0 0 -1 0 663.643127 cm
112.934 589.5 m 112.934 583.637 l S Q
q 1 0 0 -1 0 663.643127 cm
259.746 589.5 m 259.746 583.637 l S Q
q 1 0 0 -1 0 663.643127 cm
406.559 589.5 m 406.559 583.637 l S Q
q 1 0 0 -1 0 663.643127 cm
553.371 589.5 m 553.371 583.637 l S Q
q 1 0 0 -1 0 663.643127 cm
700.184 589.5 m 700.184 583.637 l S Q
q 1 0 0 -1 0 663.643127 cm
112.934 2.25 m 112.934 8.113 l S Q
q 1 0 0 -1 0 663.643127 cm
259.746 2.25 m 259.746 8.113 l S Q
q 1 0 0 -1 0 663.643127 cm
406.559 2.25 m 406.559 8.113 l S Q
q 1 0 0 -1 0 663.643127 cm
553.371 2.25 m 553.371 8.113 l S Q
q 1 0 0 -1 0 663.643127 cm
700.184 2.25 m 700.184 8.113 l S Q
88.258 45.87 m 96.754 45.87 l 96.754 43.292 l 88.258 43.292 l h
101.77 36.237 m 101.77 39.131 l 102.566 38.756 103.375 38.467 104.195 38.264
 c 105.016 38.061 105.82 37.96 106.609 37.96 c 108.711 37.96 110.312 38.667
 111.418 40.081 c 112.523 41.495 113.156 43.639 113.312 46.514 c 112.703
 45.616 111.93 44.924 110.996 44.44 c 110.062 43.956 109.031 43.713 107.898
 43.713 c 105.547 43.713 103.684 44.424 102.312 45.846 c 100.941 47.268 
100.258 49.213 100.258 51.682 c 100.258 54.096 100.973 56.034 102.402 57.495
 c 103.832 58.956 105.734 59.686 108.109 59.686 c 110.828 59.686 112.902
 58.643 114.332 56.557 c 115.762 54.471 116.477 51.444 116.477 47.475 c 
116.477 43.772 115.598 40.815 113.84 38.604 c 112.082 36.393 109.719 35.288
 106.75 35.288 c 105.953 35.288 105.145 35.366 104.324 35.522 c 103.504 
35.678 102.652 35.917 101.77 36.237 c h
108.109 46.198 m 109.531 46.198 110.66 46.686 111.496 47.663 c 112.332 
48.639 112.75 49.979 112.75 51.682 c 112.75 53.37 112.332 54.706 111.496
 55.69 c 110.66 56.674 109.531 57.167 108.109 57.167 c 106.68 57.167 105.547
 56.674 104.711 55.69 c 103.875 54.706 103.457 53.37 103.457 51.682 c 103.457
 49.979 103.875 48.639 104.711 47.663 c 105.547 46.686 106.68 46.198 108.109
 46.198 c h
128.84 57.167 m 127.199 57.167 125.965 56.358 125.141 54.745 c 124.316 
53.131 123.902 50.71 123.902 47.475 c 123.902 44.256 124.316 41.838 125.141
 40.225 c 125.965 38.612 127.199 37.807 128.84 37.807 c 130.488 37.807 131.723
 38.612 132.547 40.225 c 133.371 41.838 133.785 44.256 133.785 47.475 c 
133.785 50.71 133.371 53.131 132.547 54.745 c 131.723 56.358 130.488 57.167
 128.84 57.167 c h
128.84 59.686 m 131.473 59.686 133.484 58.643 134.871 56.557 c 136.266 
54.471 136.961 51.444 136.961 47.475 c 136.961 43.522 136.266 40.503 134.871
 38.417 c 133.484 36.331 131.473 35.288 128.84 35.288 c 126.207 35.288 124.191
 36.331 122.797 38.417 c 121.402 40.503 120.707 43.522 120.707 47.475 c 
120.707 51.444 121.402 54.471 122.797 56.557 c 124.191 58.643 126.207 59.686
 128.84 59.686 c h
128.84 59.686 m f
235.07 45.87 m 243.566 45.87 l 243.566 43.292 l 235.07 43.292 l h
257.23 56.487 m 249.203 43.936 l 257.23 43.936 l h
256.398 59.253 m 260.395 59.253 l 260.395 43.936 l 263.746 43.936 l 263.746
 41.288 l 260.395 41.288 l 260.395 35.745 l 257.23 35.745 l 257.23 41.288
 l 246.613 41.288 l 246.613 44.358 l h
268.879 59.253 m 281.371 59.253 l 281.371 56.581 l 271.793 56.581 l 271.793
 50.815 l 272.258 50.971 272.719 51.088 273.18 51.167 c 273.641 51.245 274.102
 51.284 274.559 51.284 c 277.184 51.284 279.262 50.565 280.793 49.128 c 
282.324 47.69 283.09 45.745 283.09 43.292 c 283.09 40.76 282.305 38.792 
280.73 37.389 c 279.156 35.987 276.938 35.288 274.07 35.288 c 273.086 35.288
 272.082 35.37 271.059 35.538 c 270.035 35.706 268.977 35.96 267.883 36.295
 c 267.883 39.495 l 268.828 38.979 269.805 38.592 270.809 38.338 c 271.82
 38.085 272.887 37.96 274.012 37.96 c 275.832 37.96 277.27 38.436 278.328
 39.393 c 279.387 40.35 279.918 41.651 279.918 43.292 c 279.918 44.924 279.387
 46.217 278.328 47.174 c 277.27 48.131 275.832 48.612 274.012 48.612 c 273.16
 48.612 272.309 48.514 271.465 48.323 c 270.621 48.131 269.758 47.838 268.879
 47.44 c h
268.879 59.253 m f
406.316 57.167 m 404.672 57.167 403.441 56.358 402.617 54.745 c 401.793
 53.131 401.383 50.71 401.383 47.475 c 401.383 44.256 401.793 41.838 402.617
 40.225 c 403.441 38.612 404.672 37.807 406.316 37.807 c 407.965 37.807 
409.199 38.612 410.023 40.225 c 410.848 41.838 411.258 44.256 411.258 47.475
 c 411.258 50.71 410.848 53.131 410.023 54.745 c 409.199 56.358 407.965 
57.167 406.316 57.167 c h
406.316 59.686 m 408.945 59.686 410.961 58.643 412.352 56.557 c 413.742
 54.471 414.434 51.444 414.434 47.475 c 414.434 43.522 413.742 40.503 412.352
 38.417 c 410.961 36.331 408.945 35.288 406.316 35.288 c 403.68 35.288 401.668
 36.331 400.273 38.417 c 398.879 40.503 398.18 43.522 398.18 47.475 c 398.18
 51.444 398.879 54.471 400.273 56.557 c 401.668 58.643 403.68 59.686 406.316
 59.686 c h
406.316 59.686 m f
544.934 56.487 m 536.91 43.936 l 544.934 43.936 l h
544.102 59.253 m 548.102 59.253 l 548.102 43.936 l 551.449 43.936 l 551.449
 41.288 l 548.102 41.288 l 548.102 35.745 l 544.934 35.745 l 544.934 41.288
 l 534.32 41.288 l 534.32 44.358 l h
556.582 59.253 m 569.074 59.253 l 569.074 56.581 l 559.5 56.581 l 559.5
 50.815 l 559.961 50.971 560.422 51.088 560.883 51.167 c 561.344 51.245 
561.805 51.284 562.266 51.284 c 564.891 51.284 566.969 50.565 568.5 49.128
 c 570.031 47.69 570.797 45.745 570.797 43.292 c 570.797 40.76 570.012 38.792
 568.438 37.389 c 566.863 35.987 564.641 35.288 561.773 35.288 c 560.789
 35.288 559.785 35.37 558.762 35.538 c 557.738 35.706 556.68 35.96 555.586
 36.295 c 555.586 39.495 l 556.531 38.979 557.508 38.592 558.516 38.338 
c 559.523 38.085 560.59 37.96 561.715 37.96 c 563.535 37.96 564.977 38.436
 566.035 39.393 c 567.094 40.35 567.621 41.651 567.621 43.292 c 567.621 
44.924 567.094 46.217 566.035 47.174 c 564.977 48.131 563.535 48.612 561.715
 48.612 c 560.863 48.612 560.016 48.514 559.172 48.323 c 558.328 48.131 
557.465 47.838 556.582 47.44 c h
556.582 59.253 m f
683.102 36.237 m 683.102 39.131 l 683.898 38.756 684.703 38.467 685.523
 38.264 c 686.348 38.061 687.152 37.96 687.941 37.96 c 690.039 37.96 691.645
 38.667 692.75 40.081 c 693.855 41.495 694.488 43.639 694.645 46.514 c 694.031
 45.616 693.262 44.924 692.328 44.44 c 691.395 43.956 690.359 43.713 689.227
 43.713 c 686.875 43.713 685.016 44.424 683.645 45.846 c 682.273 47.268 
681.586 49.213 681.586 51.682 c 681.586 54.096 682.301 56.034 683.73 57.495
 c 685.164 58.956 687.066 59.686 689.441 59.686 c 692.16 59.686 694.234 
58.643 695.664 56.557 c 697.09 54.471 697.805 51.444 697.805 47.475 c 697.805
 43.772 696.926 40.815 695.168 38.604 c 693.414 36.393 691.051 35.288 688.082
 35.288 c 687.281 35.288 686.473 35.366 685.652 35.522 c 684.836 35.678 
683.984 35.917 683.102 36.237 c h
689.441 46.198 m 690.859 46.198 691.988 46.686 692.824 47.663 c 693.664
 48.639 694.082 49.979 694.082 51.682 c 694.082 53.37 693.664 54.706 692.824
 55.69 c 691.988 56.674 690.859 57.167 689.441 57.167 c 688.008 57.167 686.875
 56.674 686.039 55.69 c 685.207 54.706 684.789 53.37 684.789 51.682 c 684.789
 49.979 685.207 48.639 686.039 47.663 c 686.875 46.686 688.008 46.198 689.441
 46.198 c h
710.168 57.167 m 708.527 57.167 707.297 56.358 706.473 54.745 c 705.648
 53.131 705.234 50.71 705.234 47.475 c 705.234 44.256 705.648 41.838 706.473
 40.225 c 707.297 38.612 708.527 37.807 710.168 37.807 c 711.816 37.807 
713.055 38.612 713.879 40.225 c 714.703 41.838 715.113 44.256 715.113 47.475
 c 715.113 50.71 714.703 53.131 713.879 54.745 c 713.055 56.358 711.816 
57.167 710.168 57.167 c h
710.168 59.686 m 712.801 59.686 714.812 58.643 716.203 56.557 c 717.594
 54.471 718.289 51.444 718.289 47.475 c 718.289 43.522 717.594 40.503 716.203
 38.417 c 714.812 36.331 712.801 35.288 710.168 35.288 c 707.535 35.288 
705.523 36.331 704.129 38.417 c 702.734 40.503 702.035 43.522 702.035 47.475
 c 702.035 51.444 702.734 54.471 704.129 56.557 c 705.523 58.643 707.535
 59.686 710.168 59.686 c h
710.168 59.686 m f
403.797 -0.001 m 402.82 -0.001 402.039 0.358 401.453 1.073 c 400.867 1.788
 400.461 2.647 400.234 3.655 c 400.008 4.663 399.895 5.659 399.895 6.643
 c 399.895 6.678 l 399.895 7.749 399.996 8.862 400.203 10.018 c 400.41 11.174
 400.707 12.327 401.094 13.475 c 401.48 14.624 401.902 15.647 402.355 16.545
 c 402.668 17.178 403.074 17.885 403.574 18.663 c 404.074 19.44 404.629 
20.167 405.242 20.842 c 405.855 21.518 406.516 22.061 407.223 22.475 c 407.93
 22.889 408.648 23.096 409.375 23.096 c 409.41 23.096 l 410.184 23.096 410.828
 22.881 411.348 22.452 c 411.867 22.022 412.273 21.471 412.562 20.799 c 
412.852 20.128 413.055 19.409 413.172 18.643 c 413.289 17.878 413.348 17.147
 413.348 16.452 c 413.348 14.827 413.125 13.167 412.684 11.471 c 412.242
 9.776 411.633 8.135 410.852 6.549 c 410.562 5.956 410.156 5.256 409.637
 4.448 c 409.117 3.639 408.566 2.913 407.984 2.272 c 407.402 1.631 406.75
 1.092 406.023 0.655 c 405.297 0.217 404.566 -0.001 403.832 -0.001 c h
403.867 0.854 m 404.578 0.854 405.262 1.237 405.918 1.999 c 406.574 2.76
 407.148 3.682 407.641 4.768 c 408.133 5.854 408.566 6.967 408.941 8.104
 c 409.316 9.241 409.594 10.206 409.773 11.003 c 403.188 11.003 l 402.852
 9.651 402.59 8.487 402.402 7.506 c 402.215 6.526 402.121 5.561 402.121 
4.616 c 402.121 2.108 402.703 0.854 403.867 0.854 c h
403.445 12.139 m 410.055 12.139 l 410.281 13.085 410.461 13.878 410.598
 14.514 c 410.734 15.151 410.852 15.819 410.949 16.522 c 411.047 17.225 
411.098 17.881 411.098 18.491 c 411.098 21.006 410.523 22.264 409.375 22.264
 c 408.008 22.264 406.828 21.167 405.836 18.967 c 404.844 16.768 404.047
 14.491 403.445 12.139 c h
403.445 12.139 m f
q 1 0 0 -1 0 663.643127 cm
112.934 589.5 m 112.934 2.25 l S Q
q 1 0 0 -1 0 663.643127 cm
700.184 589.5 m 700.184 2.25 l S Q
q 1 0 0 -1 0 663.643127 cm
112.934 496.367 m 118.801 496.367 l S Q
q 1 0 0 -1 0 663.643127 cm
112.934 403.223 m 118.801 403.223 l S Q
q 1 0 0 -1 0 663.643127 cm
112.934 310.074 m 118.801 310.074 l S Q
q 1 0 0 -1 0 663.643127 cm
112.934 216.93 m 118.801 216.93 l S Q
q 1 0 0 -1 0 663.643127 cm
112.934 123.785 m 118.801 123.785 l S Q
q 1 0 0 -1 0 663.643127 cm
112.934 30.637 m 118.801 30.637 l S Q
q 1 0 0 -1 0 663.643127 cm
700.184 496.367 m 694.32 496.367 l S Q
q 1 0 0 -1 0 663.643127 cm
700.184 403.223 m 694.32 403.223 l S Q
q 1 0 0 -1 0 663.643127 cm
700.184 310.074 m 694.32 310.074 l S Q
q 1 0 0 -1 0 663.643127 cm
700.184 216.93 m 694.32 216.93 l S Q
q 1 0 0 -1 0 663.643127 cm
700.184 123.785 m 694.32 123.785 l S Q
q 1 0 0 -1 0 663.643127 cm
700.184 30.637 m 694.32 30.637 l S Q
63.789 177.823 m 62.148 177.823 60.918 177.014 60.094 175.401 c 59.27 173.788
 58.855 171.366 58.855 168.131 c 58.855 164.913 59.27 162.495 60.094 160.881
 c 60.918 159.268 62.148 158.463 63.789 158.463 c 65.438 158.463 66.676 
159.268 67.5 160.881 c 68.324 162.495 68.734 164.913 68.734 168.131 c 68.734
 171.366 68.324 173.788 67.5 175.401 c 66.676 177.014 65.438 177.823 63.789
 177.823 c h
63.789 180.342 m 66.422 180.342 68.434 179.299 69.824 177.213 c 71.215 
175.128 71.91 172.1 71.91 168.131 c 71.91 164.178 71.215 161.159 69.824 
159.073 c 68.434 156.987 66.422 155.944 63.789 155.944 c 61.156 155.944 
59.145 156.987 57.75 159.073 c 56.355 161.159 55.656 164.178 55.656 168.131
 c 55.656 172.1 56.355 175.128 57.75 177.213 c 59.145 179.299 61.156 180.342
 63.789 180.342 c h
77.336 160.397 m 80.664 160.397 l 80.664 156.401 l 77.336 156.401 l h
88.055 159.073 m 93.258 159.073 l 93.258 177.014 l 87.598 175.878 l 87.598
 178.772 l 93.223 179.909 l 96.41 179.909 l 96.41 159.073 l 101.602 159.073
 l 101.602 156.401 l 88.055 156.401 l h
88.055 159.073 m f
63.789 270.967 m 62.148 270.967 60.918 270.163 60.094 268.549 c 59.27 266.936
 58.855 264.51 58.855 261.276 c 58.855 258.057 59.27 255.643 60.094 254.03
 c 60.918 252.417 62.148 251.608 63.789 251.608 c 65.438 251.608 66.676 
252.417 67.5 254.03 c 68.324 255.643 68.734 258.057 68.734 261.276 c 68.734
 264.51 68.324 266.936 67.5 268.549 c 66.676 270.163 65.438 270.967 63.789
 270.967 c h
63.789 273.487 m 66.422 273.487 68.434 272.444 69.824 270.358 c 71.215 
268.272 71.91 265.245 71.91 261.276 c 71.91 257.323 71.215 254.303 69.824
 252.217 c 68.434 250.131 66.422 249.088 63.789 249.088 c 61.156 249.088
 59.145 250.131 57.75 252.217 c 56.355 254.303 55.656 257.323 55.656 261.276
 c 55.656 265.245 56.355 268.272 57.75 270.358 c 59.145 272.444 61.156 273.487
 63.789 273.487 c h
77.336 253.542 m 80.664 253.542 l 80.664 249.545 l 77.336 249.545 l h
90.246 252.217 m 101.344 252.217 l 101.344 249.545 l 86.426 249.545 l 86.426
 252.217 l 87.629 253.467 89.273 255.147 91.359 257.253 c 93.445 259.358
 94.754 260.713 95.285 261.323 c 96.301 262.471 97.012 263.444 97.418 264.237
 c 97.824 265.03 98.027 265.807 98.027 266.573 c 98.027 267.823 97.59 268.842
 96.715 269.628 c 95.84 270.413 94.695 270.803 93.281 270.803 c 92.289 270.803
 91.238 270.631 90.129 270.284 c 89.02 269.936 87.836 269.409 86.578 268.706
 c 86.578 271.917 l 87.859 272.432 89.059 272.823 90.172 273.088 c 91.285
 273.354 92.301 273.487 93.223 273.487 c 95.66 273.487 97.605 272.878 99.055
 271.659 c 100.504 270.44 101.227 268.811 101.227 266.772 c 101.227 265.803
 101.047 264.889 100.684 264.026 c 100.32 263.163 99.66 262.139 98.707 260.96
 c 98.441 260.655 97.605 259.776 96.199 258.323 c 94.793 256.87 92.809 254.835
 90.246 252.217 c h
90.246 252.217 m f
63.789 364.116 m 62.148 364.116 60.918 363.307 60.094 361.694 c 59.27 360.081
 58.855 357.659 58.855 354.424 c 58.855 351.206 59.27 348.788 60.094 347.174
 c 60.918 345.561 62.148 344.756 63.789 344.756 c 65.438 344.756 66.676 
345.561 67.5 347.174 c 68.324 348.788 68.734 351.206 68.734 354.424 c 68.734
 357.659 68.324 360.081 67.5 361.694 c 66.676 363.307 65.438 364.116 63.789
 364.116 c h
63.789 366.635 m 66.422 366.635 68.434 365.592 69.824 363.506 c 71.215 
361.42 71.91 358.393 71.91 354.424 c 71.91 350.471 71.215 347.452 69.824
 345.366 c 68.434 343.28 66.422 342.237 63.789 342.237 c 61.156 342.237 
59.145 343.28 57.75 345.366 c 56.355 347.452 55.656 350.471 55.656 354.424
 c 55.656 358.393 56.355 361.42 57.75 363.506 c 59.145 365.592 61.156 366.635
 63.789 366.635 c h
77.336 346.69 m 80.664 346.69 l 80.664 342.694 l 77.336 342.694 l h
97.148 355.374 m 98.672 355.045 99.863 354.366 100.719 353.338 c 101.574
 352.311 102 351.042 102 349.526 c 102 347.206 101.203 345.409 99.605 344.139
 c 98.008 342.87 95.738 342.237 92.801 342.237 c 91.809 342.237 90.793 342.335
 89.75 342.53 c 88.707 342.725 87.629 343.014 86.52 343.397 c 86.52 346.479
 l 87.402 345.963 88.367 345.573 89.414 345.307 c 90.461 345.042 91.559 
344.909 92.707 344.909 c 94.699 344.909 96.219 345.303 97.262 346.092 c 
98.305 346.881 98.824 348.026 98.824 349.526 c 98.824 350.917 98.34 352.003
 97.371 352.784 c 96.402 353.565 95.051 353.956 93.316 353.956 c 90.574 
353.956 l 90.574 356.569 l 93.445 356.569 l 95.008 356.569 96.203 356.881
 97.031 357.506 c 97.859 358.131 98.273 359.03 98.273 360.202 c 98.273 361.413
 97.848 362.338 96.992 362.983 c 96.137 363.628 94.91 363.952 93.316 363.952
 c 92.449 363.952 91.516 363.858 90.516 363.67 c 89.516 363.483 88.418 363.19
 87.223 362.792 c 87.223 365.628 l 88.434 365.963 89.566 366.213 90.621 
366.381 c 91.676 366.549 92.668 366.635 93.598 366.635 c 96.012 366.635 
97.926 366.085 99.336 364.987 c 100.746 363.889 101.449 362.405 101.449 
360.53 c 101.449 359.233 101.078 358.135 100.332 357.237 c 99.586 356.338
 98.523 355.717 97.148 355.374 c h
97.148 355.374 m f
63.789 457.26 m 62.148 457.26 60.918 456.452 60.094 454.838 c 59.27 453.225
 58.855 450.803 58.855 447.569 c 58.855 444.35 59.27 441.932 60.094 440.319
 c 60.918 438.706 62.148 437.901 63.789 437.901 c 65.438 437.901 66.676 
438.706 67.5 440.319 c 68.324 441.932 68.734 444.35 68.734 447.569 c 68.734
 450.803 68.324 453.225 67.5 454.838 c 66.676 456.452 65.438 457.26 63.789
 457.26 c h
63.789 459.78 m 66.422 459.78 68.434 458.737 69.824 456.651 c 71.215 454.565
 71.91 451.538 71.91 447.569 c 71.91 443.616 71.215 440.596 69.824 438.51
 c 68.434 436.424 66.422 435.381 63.789 435.381 c 61.156 435.381 59.145 
436.424 57.75 438.51 c 56.355 440.596 55.656 443.616 55.656 447.569 c 55.656
 451.538 56.355 454.565 57.75 456.651 c 59.145 458.737 61.156 459.78 63.789
 459.78 c h
77.336 439.835 m 80.664 439.835 l 80.664 435.838 l 77.336 435.838 l h
96.246 456.581 m 88.219 444.03 l 96.246 444.03 l h
95.414 459.346 m 99.41 459.346 l 99.41 444.03 l 102.762 444.03 l 102.762
 441.381 l 99.41 441.381 l 99.41 435.838 l 96.246 435.838 l 96.246 441.381
 l 85.629 441.381 l 85.629 444.452 l h
95.414 459.346 m f
63.789 550.405 m 62.148 550.405 60.918 549.6 60.094 547.987 c 59.27 546.374
 58.855 543.948 58.855 540.713 c 58.855 537.495 59.27 535.081 60.094 533.467
 c 60.918 531.854 62.148 531.045 63.789 531.045 c 65.438 531.045 66.676 
531.854 67.5 533.467 c 68.324 535.081 68.734 537.495 68.734 540.713 c 68.734
 543.948 68.324 546.374 67.5 547.987 c 66.676 549.6 65.438 550.405 63.789
 550.405 c h
63.789 552.924 m 66.422 552.924 68.434 551.881 69.824 549.795 c 71.215 
547.71 71.91 544.682 71.91 540.713 c 71.91 536.76 71.215 533.741 69.824 
531.655 c 68.434 529.569 66.422 528.526 63.789 528.526 c 61.156 528.526 
59.145 529.569 57.75 531.655 c 56.355 533.741 55.656 536.76 55.656 540.713
 c 55.656 544.682 56.355 547.71 57.75 549.795 c 59.145 551.881 61.156 552.924
 63.789 552.924 c h
77.336 532.979 m 80.664 532.979 l 80.664 528.983 l 77.336 528.983 l h
87.539 552.491 m 100.031 552.491 l 100.031 549.819 l 90.457 549.819 l 90.457
 544.053 l 90.918 544.21 91.379 544.327 91.84 544.405 c 92.301 544.483 92.762
 544.522 93.223 544.522 c 95.848 544.522 97.926 543.803 99.457 542.366 c
 100.988 540.928 101.754 538.983 101.754 536.53 c 101.754 533.999 100.969
 532.034 99.395 530.631 c 97.82 529.229 95.598 528.526 92.73 528.526 c 91.746
 528.526 90.742 528.612 89.719 528.78 c 88.695 528.948 87.637 529.198 86.543
 529.534 c 86.543 532.733 l 87.488 532.217 88.465 531.835 89.473 531.581
 c 90.48 531.327 91.547 531.198 92.672 531.198 c 94.492 531.198 95.934 531.678
 96.992 532.635 c 98.051 533.592 98.578 534.889 98.578 536.53 c 98.578 538.163
 98.051 539.46 96.992 540.417 c 95.934 541.374 94.492 541.85 92.672 541.85
 c 91.82 541.85 90.973 541.756 90.129 541.565 c 89.285 541.374 88.422 541.077
 87.539 540.678 c h
87.539 552.491 m f
63.789 643.553 m 62.148 643.553 60.918 642.745 60.094 641.131 c 59.27 639.518
 58.855 637.096 58.855 633.862 c 58.855 630.643 59.27 628.225 60.094 626.612
 c 60.918 624.999 62.148 624.194 63.789 624.194 c 65.438 624.194 66.676 
624.999 67.5 626.612 c 68.324 628.225 68.734 630.643 68.734 633.862 c 68.734
 637.096 68.324 639.518 67.5 641.131 c 66.676 642.745 65.438 643.553 63.789
 643.553 c h
63.789 646.073 m 66.422 646.073 68.434 645.03 69.824 642.944 c 71.215 640.858
 71.91 637.831 71.91 633.862 c 71.91 629.909 71.215 626.889 69.824 624.803
 c 68.434 622.717 66.422 621.674 63.789 621.674 c 61.156 621.674 59.145 
622.717 57.75 624.803 c 56.355 626.889 55.656 629.909 55.656 633.862 c 55.656
 637.831 56.355 640.858 57.75 642.944 c 59.145 645.03 61.156 646.073 63.789
 646.073 c h
77.336 626.128 m 80.664 626.128 l 80.664 622.131 l 77.336 622.131 l h
94.699 635.151 m 93.277 635.151 92.148 634.663 91.312 633.686 c 90.477 
632.71 90.059 631.374 90.059 629.678 c 90.059 627.983 90.477 626.643 91.312
 625.663 c 92.148 624.682 93.277 624.194 94.699 624.194 c 96.129 624.194
 97.262 624.682 98.098 625.663 c 98.934 626.643 99.352 627.983 99.352 629.678
 c 99.352 631.374 98.934 632.71 98.098 633.686 c 97.262 634.663 96.129 635.151
 94.699 635.151 c h
101.016 645.124 m 101.016 642.229 l 100.219 642.604 99.414 642.889 98.602
 643.088 c 97.789 643.288 96.984 643.389 96.188 643.389 c 94.086 643.389
 92.48 642.678 91.371 641.26 c 90.262 639.842 89.629 637.702 89.473 634.835
 c 90.098 635.749 90.879 636.448 91.812 636.936 c 92.746 637.424 93.773 
637.67 94.898 637.67 c 97.258 637.67 99.125 636.952 100.496 635.518 c 101.867
 634.085 102.551 632.139 102.551 629.678 c 102.551 627.264 101.836 625.327
 100.406 623.866 c 98.977 622.405 97.074 621.674 94.699 621.674 c 91.98 
621.674 89.902 622.717 88.465 624.803 c 87.027 626.889 86.309 629.909 86.309
 633.862 c 86.309 637.581 87.191 640.545 88.957 642.756 c 90.723 644.967
 93.09 646.073 96.059 646.073 c 96.855 646.073 97.66 645.991 98.473 645.831
 c 99.285 645.67 100.133 645.436 101.016 645.124 c h
101.016 645.124 m f
0 351.643 m 0 383.893 l 4.406 383.893 l 4.406 382.604 l 1.289 382.604 l
 1.289 352.932 l 4.406 352.932 l 4.406 351.643 l h
0 351.643 m f
6.652 359.706 m 6.449 359.706 6.348 359.846 6.348 360.128 c 6.355 360.182
 6.375 360.276 6.406 360.409 c 6.438 360.542 6.48 360.647 6.539 360.725 
c 6.598 360.803 6.668 360.842 6.746 360.842 c 8.059 360.842 8.98 360.917
 9.512 361.065 c 9.785 361.159 9.984 361.444 10.109 361.92 c 14.527 379.639
 l 14.574 379.85 14.598 379.999 14.598 380.085 c 14.598 380.311 14.469 380.44
 14.211 380.471 c 13.805 380.557 13.031 380.6 11.891 380.6 c 11.68 380.6
 11.574 380.741 11.574 381.022 c 11.582 381.077 11.602 381.17 11.633 381.303
 c 11.664 381.436 11.707 381.542 11.766 381.62 c 11.824 381.698 11.898 381.737
 11.984 381.737 c 23.574 381.737 l 25.074 381.737 26.383 381.37 27.504 380.639
 c 28.625 379.909 29.484 378.928 30.082 377.694 c 30.68 376.46 30.98 375.1
 30.98 373.616 c 30.98 371.967 30.641 370.319 29.961 368.67 c 29.281 367.022
 28.324 365.514 27.094 364.147 c 25.863 362.78 24.461 361.698 22.887 360.901
 c 21.312 360.104 19.699 359.706 18.043 359.706 c h
12.688 361.088 m 12.688 360.924 13.055 360.842 13.789 360.842 c 17.539 
360.842 l 18.734 360.842 19.887 361.088 21 361.581 c 22.113 362.073 23.109
 362.749 23.984 363.608 c 24.789 364.42 25.5 365.483 26.121 366.795 c 26.742
 368.108 27.223 369.475 27.562 370.901 c 27.902 372.327 28.074 373.639 28.074
 374.835 c 28.074 375.71 27.945 376.499 27.688 377.202 c 27.43 377.905 27.066
 378.506 26.598 379.01 c 26.129 379.514 25.543 379.905 24.84 380.182 c 24.137
 380.46 23.348 380.6 22.473 380.6 c 18.922 380.6 l 18.336 380.6 17.949 380.549
 17.762 380.452 c 17.574 380.354 17.398 380.038 17.234 379.499 c 12.828 
361.803 l 12.734 361.538 12.688 361.299 12.688 361.088 c h
12.688 361.088 m f
33.164 351.643 m 33.164 352.932 l 36.305 352.932 l 36.305 382.604 l 33.164
 382.604 l 33.164 383.893 l 37.594 383.893 l 37.594 351.643 l h
33.164 351.643 m f
0 0.447059 0.741176 rg
4.5 w
0 J
q 1 0 0 -1 0 663.643127 cm
112.934 589.18 m 115.238 589.191 l 117.543 589.215 l 119.844 589.258 l 
122.148 589.32 l 124.449 589.398 l 126.754 589.492 l 129.055 589.422 l 131.359
 589.293 l 133.66 589.145 l 135.965 588.98 l 138.27 588.801 l 140.57 588.605
 l 142.875 588.391 l 145.176 588.16 l 147.48 587.914 l 149.781 587.648 l
 152.086 587.371 l 154.387 587.074 l 156.691 586.762 l 158.996 586.438 l
 161.297 586.094 l 163.602 585.734 l 165.902 585.363 l 168.207 584.973 l
 170.508 584.57 l 172.812 584.152 l 175.113 583.723 l 177.418 583.277 l 
179.723 582.816 l 182.023 582.344 l 184.328 581.859 l 186.629 581.359 l 
188.934 580.848 l 191.234 580.32 l 193.539 579.785 l 195.84 579.238 l 198.145
 578.676 l 200.449 578.105 l 202.75 577.523 l 205.055 576.93 l 207.355 576.324
 l 209.66 575.711 l 211.961 575.09 l 214.266 574.457 l 216.566 573.816 l
 218.871 573.168 l 221.172 572.508 l 223.477 571.844 l 225.781 571.168 l
 228.082 570.488 l 230.387 569.805 l 232.688 569.109 l 234.992 568.41 l 
237.293 567.707 l 239.598 567 l 241.898 566.285 l 244.203 565.566 l 246.508
 564.844 l 248.809 564.121 l 251.113 563.395 l 253.414 562.664 l 255.719
 561.93 l 258.02 561.195 l 260.324 560.461 l 262.625 559.727 l 264.93 558.992
 l 267.234 558.254 l 269.535 557.52 l 271.84 556.789 l 274.141 556.055 l
 276.445 555.324 l 278.746 554.598 l 281.051 553.871 l 283.352 553.152 l
 285.656 552.434 l 287.961 551.719 l 290.262 551.012 l 292.566 550.309 l
 294.867 549.609 l 297.172 548.918 l 299.473 548.234 l 301.777 547.555 l
 304.078 546.887 l 306.383 546.223 l 308.684 545.566 l 310.988 544.922 l
 313.293 544.285 l 315.594 543.656 l 317.898 543.039 l 320.199 542.43 l 
322.504 541.832 l 324.805 541.25 l 327.109 540.672 l 329.41 540.109 l 331.715
 539.562 l 334.02 539.023 l 336.32 538.5 l 338.625 537.988 l 340.926 537.488
 l 343.23 537.004 l 345.531 536.535 l 347.836 536.082 l 350.137 535.641 
l 352.441 535.215 l 354.746 534.805 l 357.047 534.414 l 359.352 534.035 
l 361.652 533.672 l 363.957 533.328 l 366.258 533 l 368.562 532.688 l 370.863
 532.395 l 373.168 532.117 l 375.473 531.859 l 377.773 531.617 l 380.078
 531.395 l 382.379 531.188 l 384.684 531.004 l 386.984 530.832 l 389.289
 530.684 l 391.59 530.551 l 393.895 530.438 l 396.199 530.344 l 398.5 530.27
 l 400.805 530.211 l 403.105 530.176 l 405.41 530.156 l 407.711 530.156 
l 410.016 530.176 l 412.316 530.211 l 414.621 530.27 l 416.922 530.344 l
 419.227 530.438 l 421.531 530.551 l 423.832 530.684 l 426.137 530.832 l
 428.438 531.004 l 430.742 531.188 l 433.043 531.395 l 435.348 531.617 l
 437.648 531.859 l 439.953 532.117 l 442.258 532.395 l 444.559 532.688 l
 446.863 533 l 449.164 533.328 l 451.469 533.672 l 453.77 534.035 l 456.074
 534.414 l 458.375 534.805 l 460.68 535.215 l 462.984 535.641 l 465.285 
536.082 l 467.59 536.535 l 469.891 537.004 l 472.195 537.488 l 474.496 537.988
 l 476.801 538.5 l 479.102 539.023 l 481.406 539.562 l 483.711 540.109 l
 486.012 540.672 l 488.316 541.25 l 490.617 541.832 l 492.922 542.43 l 495.223
 543.039 l 497.527 543.656 l 499.828 544.285 l 502.133 544.922 l 504.434
 545.566 l 506.738 546.223 l 509.043 546.887 l 511.344 547.555 l 513.648
 548.234 l 515.949 548.918 l 518.254 549.609 l 520.555 550.309 l 522.859
 551.012 l 525.16 551.719 l 527.465 552.434 l 529.77 553.152 l 532.07 553.871
 l 534.375 554.598 l 536.676 555.324 l 538.98 556.055 l 541.281 556.789 
l 543.586 557.52 l 545.887 558.254 l 548.191 558.992 l 550.496 559.727 l
 552.797 560.461 l 555.102 561.195 l 557.402 561.93 l 559.707 562.664 l 
562.008 563.395 l 564.312 564.121 l 566.613 564.844 l 568.918 565.566 l 
571.223 566.285 l 573.523 567 l 575.828 567.707 l 578.129 568.41 l 580.434
 569.109 l 582.734 569.805 l 585.039 570.488 l 587.34 571.168 l 589.645 
571.844 l 591.949 572.508 l 594.25 573.168 l 596.555 573.816 l 598.855 574.457
 l 601.16 575.09 l 603.461 575.711 l 605.766 576.324 l 608.066 576.93 l 
610.371 577.523 l 612.672 578.105 l 614.977 578.676 l 617.281 579.238 l 
619.582 579.785 l 621.887 580.32 l 624.188 580.848 l 626.492 581.359 l 628.793
 581.859 l 631.098 582.344 l 633.398 582.816 l 635.703 583.277 l 638.008
 583.723 l 640.309 584.152 l 642.613 584.57 l 644.914 584.973 l 647.219 
585.363 l 649.52 585.734 l 651.824 586.094 l 654.125 586.438 l 656.43 586.762
 l 658.734 587.074 l 661.035 587.371 l 663.34 587.648 l 665.641 587.914 
l 667.945 588.16 l 670.246 588.391 l 672.551 588.605 l 674.852 588.801 l
 677.156 588.98 l 679.461 589.145 l 681.762 589.293 l 684.066 589.422 l 
686.367 589.492 l 688.672 589.398 l 690.973 589.32 l 693.277 589.258 l 695.578
 589.215 l 697.883 589.191 l 700.184 589.18 l S Q
0.85098 0.32549 0.0980392 rg
q 1 0 0 -1 0 663.643127 cm
112.934 588.895 m 115.238 588.914 l 117.543 588.98 l 119.844 589.09 l 122.148
 589.246 l 124.449 589.441 l 126.754 589.344 l 129.055 589.059 l 131.359
 588.73 l 133.66 588.359 l 135.965 587.945 l 138.27 587.488 l 140.57 586.988
 l 142.875 586.445 l 145.176 585.859 l 147.48 585.23 l 149.781 584.562 l
 152.086 583.852 l 154.387 583.098 l 156.691 582.305 l 158.996 581.473 l
 161.297 580.598 l 163.602 579.684 l 165.902 578.73 l 168.207 577.738 l 
170.508 576.707 l 172.812 575.637 l 175.113 574.527 l 177.418 573.383 l 
179.723 572.203 l 182.023 570.984 l 184.328 569.73 l 186.629 568.441 l 188.934
 567.121 l 191.234 565.762 l 193.539 564.375 l 195.84 562.949 l 198.145 
561.496 l 200.449 560.012 l 202.75 558.492 l 205.055 556.949 l 207.355 555.371
 l 209.66 553.77 l 211.961 552.137 l 214.266 550.48 l 216.566 548.797 l 
218.871 547.086 l 221.172 545.355 l 223.477 543.598 l 225.781 541.82 l 228.082
 540.02 l 230.387 538.199 l 232.688 536.359 l 234.992 534.5 l 237.293 532.621
 l 239.598 530.73 l 241.898 528.82 l 244.203 526.898 l 246.508 524.961 l
 248.809 523.012 l 251.113 521.055 l 253.414 519.082 l 255.719 517.105 l
 258.02 515.117 l 260.324 513.125 l 262.625 511.125 l 267.234 507.117 l 
269.535 505.109 l 271.84 503.102 l 274.141 501.094 l 276.445 499.086 l 278.746
 497.082 l 281.051 495.086 l 283.352 493.094 l 285.656 491.109 l 287.961
 489.129 l 290.262 487.164 l 292.566 485.207 l 294.867 483.262 l 297.172
 481.332 l 299.473 479.414 l 301.777 477.516 l 304.078 475.633 l 306.383
 473.766 l 308.684 471.922 l 310.988 470.102 l 313.293 468.301 l 315.594
 466.527 l 317.898 464.773 l 320.199 463.051 l 322.504 461.355 l 324.805
 459.688 l 327.109 458.051 l 329.41 456.445 l 331.715 454.871 l 334.02 453.332
 l 336.32 451.828 l 338.625 450.359 l 340.926 448.926 l 343.23 447.535 l
 345.531 446.18 l 347.836 444.867 l 350.137 443.598 l 352.441 442.367 l 
354.746 441.184 l 357.047 440.043 l 359.352 438.945 l 361.652 437.898 l 
363.957 436.895 l 366.258 435.941 l 368.562 435.035 l 370.863 434.18 l 373.168
 433.371 l 375.473 432.617 l 377.773 431.91 l 380.078 431.258 l 382.379 
430.66 l 384.684 430.113 l 386.984 429.617 l 389.289 429.18 l 391.59 428.793
 l 393.895 428.461 l 396.199 428.188 l 398.5 427.965 l 400.805 427.797 l
 403.105 427.688 l 405.41 427.633 l 407.711 427.633 l 410.016 427.688 l 
412.316 427.797 l 414.621 427.965 l 416.922 428.188 l 419.227 428.461 l 
421.531 428.793 l 423.832 429.18 l 426.137 429.617 l 428.438 430.113 l 430.742
 430.66 l 433.043 431.258 l 435.348 431.91 l 437.648 432.617 l 439.953 433.371
 l 442.258 434.18 l 444.559 435.035 l 446.863 435.941 l 449.164 436.895 
l 451.469 437.898 l 453.77 438.945 l 456.074 440.043 l 458.375 441.184 l
 460.68 442.367 l 462.984 443.598 l 465.285 444.867 l 467.59 446.18 l 469.891
 447.535 l 472.195 448.926 l 474.496 450.359 l 476.801 451.828 l 479.102
 453.332 l 481.406 454.871 l 483.711 456.445 l 486.012 458.051 l 488.316
 459.688 l 490.617 461.355 l 492.922 463.051 l 495.223 464.773 l 497.527
 466.527 l 499.828 468.301 l 502.133 470.102 l 504.434 471.922 l 506.738
 473.766 l 509.043 475.633 l 511.344 477.516 l 513.648 479.414 l 515.949
 481.332 l 518.254 483.262 l 520.555 485.207 l 522.859 487.164 l 525.16 
489.129 l 527.465 491.109 l 529.77 493.094 l 532.07 495.086 l 534.375 497.082
 l 536.676 499.086 l 538.98 501.094 l 541.281 503.102 l 543.586 505.109 
l 545.887 507.117 l 550.496 511.125 l 552.797 513.125 l 555.102 515.117 
l 557.402 517.105 l 559.707 519.082 l 562.008 521.055 l 564.312 523.012 
l 566.613 524.961 l 568.918 526.898 l 571.223 528.82 l 573.523 530.73 l 
575.828 532.621 l 578.129 534.5 l 580.434 536.359 l 582.734 538.199 l 585.039
 540.02 l 587.34 541.82 l 589.645 543.598 l 591.949 545.355 l 594.25 547.086
 l 596.555 548.797 l 598.855 550.48 l 601.16 552.137 l 603.461 553.77 l 
605.766 555.371 l 608.066 556.949 l 610.371 558.492 l 612.672 560.012 l 
614.977 561.496 l 617.281 562.949 l 619.582 564.375 l 621.887 565.762 l 
624.188 567.121 l 626.492 568.441 l 628.793 569.73 l 631.098 570.984 l 633.398
 572.203 l 635.703 573.383 l 638.008 574.527 l 640.309 575.637 l 642.613
 576.707 l 644.914 577.738 l 647.219 578.73 l 649.52 579.684 l 651.824 580.598
 l 654.125 581.473 l 656.43 582.305 l 658.734 583.098 l 661.035 583.852 
l 663.34 584.562 l 665.641 585.23 l 667.945 585.859 l 670.246 586.445 l 
672.551 586.988 l 674.852 587.488 l 677.156 587.945 l 679.461 588.359 l 
681.762 588.73 l 684.066 589.059 l 686.367 589.344 l 688.672 589.441 l 690.973
 589.246 l 693.277 589.09 l 695.578 588.98 l 697.883 588.914 l 700.184 588.895
 l S Q
0.929412 0.694118 0.12549 rg
q 1 0 0 -1 0 663.643127 cm
112.934 588.93 m 115.238 588.965 l 117.543 589.074 l 119.844 589.25 l 122.148
 589.5 l 124.449 589.207 l 126.754 588.816 l 129.055 588.352 l 131.359 587.82
 l 133.66 587.215 l 135.965 586.539 l 138.27 585.797 l 140.57 584.98 l 142.875
 584.094 l 145.176 583.141 l 147.48 582.117 l 149.781 581.023 l 152.086 
579.863 l 154.387 578.633 l 156.691 577.336 l 158.996 575.969 l 161.297 
574.539 l 163.602 573.039 l 165.902 571.473 l 168.207 569.84 l 170.508 568.145
 l 172.812 566.383 l 175.113 564.559 l 177.418 562.668 l 179.723 560.715
 l 182.023 558.703 l 184.328 556.625 l 186.629 554.488 l 188.934 552.293
 l 191.234 550.035 l 193.539 547.723 l 195.84 545.348 l 198.145 542.918 
l 200.449 540.434 l 202.75 537.895 l 205.055 535.297 l 207.355 532.652 l
 209.66 529.953 l 211.961 527.199 l 214.266 524.402 l 216.566 521.551 l 
218.871 518.656 l 221.172 515.711 l 223.477 512.723 l 225.781 509.691 l 
228.082 506.617 l 230.387 503.504 l 232.688 500.352 l 234.992 497.156 l 
237.293 493.93 l 239.598 490.664 l 241.898 487.367 l 244.203 484.039 l 246.508
 480.68 l 248.809 477.293 l 251.113 473.879 l 253.414 470.441 l 255.719 
466.98 l 258.02 463.496 l 260.324 459.996 l 262.625 456.477 l 264.93 452.941
 l 267.234 449.395 l 269.535 445.84 l 271.84 442.273 l 274.141 438.699 l
 276.445 435.121 l 278.746 431.543 l 281.051 427.965 l 283.352 424.387 l
 285.656 420.816 l 287.961 417.25 l 290.262 413.695 l 292.566 410.152 l 
294.867 406.625 l 297.172 403.113 l 299.473 399.625 l 301.777 396.152 l 
304.078 392.711 l 306.383 389.293 l 308.684 385.906 l 310.988 382.551 l 
313.293 379.23 l 315.594 375.949 l 317.898 372.707 l 320.199 369.512 l 322.504
 366.355 l 324.805 363.254 l 327.109 360.199 l 329.41 357.199 l 331.715 
354.254 l 334.02 351.367 l 336.32 348.539 l 338.625 345.777 l 340.926 343.082
 l 343.23 340.453 l 345.531 337.895 l 347.836 335.41 l 350.137 333 l 352.441
 330.668 l 354.746 328.414 l 357.047 326.242 l 359.352 324.156 l 361.652
 322.152 l 363.957 320.238 l 366.258 318.414 l 368.562 316.68 l 370.863 
315.039 l 373.168 313.496 l 375.473 312.043 l 377.773 310.691 l 380.078 
309.438 l 382.379 308.285 l 384.684 307.23 l 386.984 306.281 l 389.289 305.434
 l 391.59 304.688 l 393.895 304.051 l 396.199 303.516 l 398.5 303.09 l 400.805
 302.77 l 403.105 302.555 l 405.41 302.449 l 407.711 302.449 l 410.016 302.555
 l 412.316 302.77 l 414.621 303.09 l 416.922 303.516 l 419.227 304.051 l
 421.531 304.688 l 423.832 305.434 l 426.137 306.281 l 428.438 307.23 l 
430.742 308.285 l 433.043 309.438 l 435.348 310.691 l 437.648 312.043 l 
439.953 313.496 l 442.258 315.039 l 444.559 316.68 l 446.863 318.414 l 449.164
 320.238 l 451.469 322.152 l 453.77 324.156 l 456.074 326.242 l 458.375 
328.414 l 460.68 330.668 l 462.984 333 l 465.285 335.41 l 467.59 337.895
 l 469.891 340.453 l 472.195 343.082 l 474.496 345.777 l 476.801 348.539
 l 479.102 351.367 l 481.406 354.254 l 483.711 357.199 l 486.012 360.199
 l 488.316 363.254 l 490.617 366.355 l 492.922 369.512 l 495.223 372.707
 l 497.527 375.949 l 499.828 379.23 l 502.133 382.551 l 504.434 385.906 
l 506.738 389.293 l 509.043 392.711 l 511.344 396.152 l 513.648 399.625 
l 515.949 403.113 l 518.254 406.625 l 520.555 410.152 l 522.859 413.695 
l 525.16 417.25 l 527.465 420.816 l 529.77 424.387 l 532.07 427.965 l 534.375
 431.543 l 536.676 435.121 l 538.98 438.699 l 541.281 442.273 l 543.586 
445.84 l 545.887 449.395 l 548.191 452.941 l 550.496 456.477 l 552.797 459.996
 l 555.102 463.496 l 557.402 466.98 l 559.707 470.441 l 562.008 473.879 
l 564.312 477.293 l 566.613 480.68 l 568.918 484.039 l 571.223 487.367 l
 573.523 490.664 l 575.828 493.93 l 578.129 497.156 l 580.434 500.352 l 
582.734 503.504 l 585.039 506.617 l 587.34 509.691 l 589.645 512.723 l 591.949
 515.711 l 594.25 518.656 l 596.555 521.551 l 598.855 524.402 l 601.16 527.199
 l 603.461 529.953 l 605.766 532.652 l 608.066 535.297 l 610.371 537.895
 l 612.672 540.434 l 614.977 542.918 l 617.281 545.348 l 619.582 547.723
 l 621.887 550.035 l 624.188 552.293 l 626.492 554.488 l 628.793 556.625
 l 631.098 558.703 l 633.398 560.715 l 635.703 562.668 l 638.008 564.559
 l 640.309 566.383 l 642.613 568.145 l 644.914 569.84 l 647.219 571.473 
l 649.52 573.039 l 651.824 574.539 l 654.125 575.969 l 656.43 577.336 l 
658.734 578.633 l 661.035 579.863 l 663.34 581.023 l 665.641 582.117 l 667.945
 583.141 l 670.246 584.094 l 672.551 584.98 l 674.852 585.797 l 677.156 
586.539 l 679.461 587.215 l 681.762 587.82 l 684.066 588.352 l 686.367 588.816
 l 688.672 589.207 l 690.973 589.5 l 693.277 589.25 l 695.578 589.074 l 
697.883 588.965 l 700.184 588.93 l S Q
0.494118 0.184314 0.556863 rg
q 1 0 0 -1 0 663.643127 cm
112.934 589.43 m 115.238 589.48 l 117.543 589.398 l 119.844 589.148 l 122.148
 588.797 l 124.449 588.348 l 126.754 587.801 l 129.055 587.152 l 131.359
 586.402 l 133.66 585.555 l 135.965 584.609 l 138.27 583.562 l 140.57 582.414
 l 142.875 581.172 l 145.176 579.828 l 147.48 578.387 l 149.781 576.844 
l 152.086 575.207 l 154.387 573.473 l 156.691 571.637 l 158.996 569.707 
l 161.297 567.68 l 163.602 565.555 l 165.902 563.336 l 168.207 561.02 l 
170.508 558.605 l 172.812 556.098 l 175.113 553.496 l 177.418 550.801 l 
179.723 548.012 l 182.023 545.133 l 184.328 542.156 l 186.629 539.09 l 188.934
 535.934 l 191.234 532.688 l 193.539 529.348 l 195.84 525.922 l 198.145 
522.41 l 200.449 518.809 l 202.75 515.121 l 205.055 511.348 l 207.355 507.488
 l 209.66 503.547 l 211.961 499.523 l 214.266 495.422 l 216.566 491.238 
l 218.871 486.977 l 221.172 482.637 l 223.477 478.219 l 225.781 473.73 l
 228.082 469.168 l 230.387 464.535 l 232.688 459.832 l 234.992 455.059 l
 237.293 450.223 l 239.598 445.32 l 241.898 440.359 l 244.203 435.336 l 
246.508 430.254 l 248.809 425.117 l 251.113 419.93 l 253.414 414.688 l 255.719
 409.398 l 258.02 404.062 l 260.324 398.684 l 262.625 393.266 l 264.93 387.812
 l 267.234 382.32 l 269.535 376.797 l 271.84 371.25 l 274.141 365.672 l 
276.445 360.074 l 278.746 354.461 l 281.051 348.832 l 283.352 343.188 l 
285.656 337.543 l 287.961 331.891 l 290.262 326.238 l 292.566 320.59 l 294.867
 314.953 l 297.172 309.324 l 299.473 303.715 l 301.777 298.129 l 304.078
 292.566 l 306.383 287.031 l 308.684 281.535 l 310.988 276.074 l 313.293
 270.66 l 315.594 265.293 l 317.898 259.98 l 320.199 254.723 l 322.504 249.531
 l 324.805 244.406 l 327.109 239.352 l 329.41 234.375 l 331.715 229.48 l
 334.02 224.676 l 336.32 219.957 l 338.625 215.34 l 340.926 210.82 l 343.23
 206.406 l 345.531 202.105 l 347.836 197.918 l 350.137 193.852 l 352.441
 189.906 l 354.746 186.09 l 357.047 182.406 l 359.352 178.859 l 361.652 
175.453 l 363.957 172.191 l 366.258 169.078 l 368.562 166.117 l 370.863 
163.312 l 373.168 160.664 l 375.473 158.176 l 377.773 155.855 l 380.078 
153.703 l 382.379 151.719 l 384.684 149.906 l 386.984 148.27 l 389.289 146.812
 l 391.59 145.531 l 393.895 144.43 l 396.199 143.508 l 398.5 142.773 l 400.805
 142.219 l 403.105 141.848 l 405.41 141.664 l 407.711 141.664 l 410.016 
141.848 l 412.316 142.219 l 414.621 142.773 l 416.922 143.508 l 419.227 
144.43 l 421.531 145.531 l 423.832 146.812 l 426.137 148.27 l 428.438 149.906
 l 430.742 151.719 l 433.043 153.703 l 435.348 155.855 l 437.648 158.176
 l 439.953 160.664 l 442.258 163.312 l 444.559 166.117 l 446.863 169.078
 l 449.164 172.191 l 451.469 175.453 l 453.77 178.859 l 456.074 182.406 
l 458.375 186.09 l 460.68 189.906 l 462.984 193.852 l 465.285 197.918 l 
467.59 202.105 l 469.891 206.406 l 472.195 210.82 l 474.496 215.34 l 476.801
 219.957 l 479.102 224.676 l 481.406 229.48 l 483.711 234.375 l 486.012 
239.352 l 488.316 244.406 l 490.617 249.531 l 492.922 254.723 l 495.223 
259.98 l 497.527 265.293 l 499.828 270.66 l 502.133 276.074 l 504.434 281.535
 l 506.738 287.031 l 509.043 292.566 l 511.344 298.129 l 513.648 303.715
 l 515.949 309.324 l 518.254 314.953 l 520.555 320.59 l 522.859 326.238 
l 525.16 331.891 l 527.465 337.543 l 529.77 343.188 l 532.07 348.832 l 534.375
 354.461 l 536.676 360.074 l 538.98 365.672 l 541.281 371.25 l 543.586 376.797
 l 545.887 382.32 l 548.191 387.812 l 550.496 393.266 l 552.797 398.684 
l 555.102 404.062 l 557.402 409.398 l 559.707 414.688 l 562.008 419.93 l
 564.312 425.117 l 566.613 430.254 l 568.918 435.336 l 571.223 440.359 l
 573.523 445.32 l 575.828 450.223 l 578.129 455.059 l 580.434 459.832 l 
582.734 464.535 l 585.039 469.168 l 587.34 473.73 l 589.645 478.219 l 591.949
 482.637 l 594.25 486.977 l 596.555 491.238 l 598.855 495.422 l 601.16 499.523
 l 603.461 503.547 l 605.766 507.488 l 608.066 511.348 l 610.371 515.121
 l 612.672 518.809 l 614.977 522.41 l 617.281 525.922 l 619.582 529.348 
l 621.887 532.688 l 624.188 535.934 l 626.492 539.09 l 628.793 542.156 l
 631.098 545.133 l 633.398 548.012 l 635.703 550.801 l 638.008 553.496 l
 640.309 556.098 l 642.613 558.605 l 644.914 561.02 l 647.219 563.336 l 
649.52 565.555 l 651.824 567.68 l 654.125 569.707 l 656.43 571.637 l 658.734
 573.473 l 661.035 575.207 l 663.34 576.844 l 665.641 578.387 l 667.945 
579.828 l 670.246 581.172 l 672.551 582.414 l 674.852 583.562 l 677.156 
584.609 l 679.461 585.555 l 681.762 586.402 l 684.066 587.152 l 686.367 
587.801 l 688.672 588.348 l 690.973 588.797 l 693.277 589.148 l 695.578 
589.398 l 697.883 589.48 l 700.184 589.43 l S Q
0.466667 0.67451 0.188235 rg
q 1 0 0 -1 0 663.643127 cm
112.934 588.879 m 115.238 588.82 l 117.543 588.641 l 119.844 588.34 l 122.148
 587.918 l 124.449 587.379 l 126.754 586.719 l 129.055 585.938 l 131.359
 585.039 l 133.66 584.02 l 135.965 582.879 l 138.27 581.621 l 140.57 580.242
 l 142.875 578.742 l 145.176 577.125 l 147.48 575.387 l 149.781 573.527 
l 152.086 571.551 l 154.387 569.453 l 156.691 567.238 l 158.996 564.902 
l 161.297 562.449 l 163.602 559.875 l 165.902 557.184 l 168.207 554.371 
l 170.508 551.445 l 172.812 548.398 l 175.113 545.234 l 177.418 541.949 
l 179.723 538.551 l 182.023 535.035 l 184.328 531.402 l 186.629 527.652 
l 188.934 523.785 l 191.234 519.805 l 193.539 515.707 l 195.84 511.496 l
 198.145 507.172 l 200.449 502.734 l 202.75 498.184 l 205.055 493.52 l 207.355
 488.746 l 209.66 483.863 l 211.961 478.867 l 214.266 473.766 l 216.566 
468.555 l 218.871 463.238 l 221.172 457.816 l 223.477 452.293 l 225.781 
446.66 l 228.082 440.93 l 230.387 435.102 l 232.688 429.172 l 234.992 423.148
 l 237.293 417.027 l 239.598 410.812 l 241.898 404.508 l 244.203 398.117
 l 246.508 391.637 l 248.809 385.074 l 251.113 378.426 l 253.414 371.703
 l 255.719 364.902 l 258.02 358.027 l 260.324 351.082 l 262.625 344.07 l
 264.93 336.996 l 267.234 329.863 l 269.535 322.668 l 271.84 315.426 l 274.141
 308.133 l 276.445 300.797 l 278.746 293.418 l 281.051 286.004 l 283.352
 278.562 l 285.656 271.09 l 287.961 263.598 l 290.262 256.094 l 292.566 
248.574 l 294.867 241.051 l 297.172 233.531 l 299.473 226.016 l 301.777 
218.512 l 304.078 211.027 l 306.383 203.57 l 308.684 196.141 l 310.988 188.75
 l 313.293 181.406 l 315.594 174.113 l 317.898 166.875 l 320.199 159.703
 l 322.504 152.605 l 324.805 145.586 l 327.109 138.652 l 329.41 131.812 
l 331.715 125.074 l 334.02 118.445 l 336.32 111.93 l 338.625 105.535 l 340.926
 99.273 l 343.23 93.148 l 345.531 87.168 l 347.836 81.34 l 350.137 75.668
 l 352.441 70.164 l 354.746 64.828 l 357.047 59.676 l 359.352 54.703 l 361.652
 49.926 l 363.957 45.348 l 366.258 40.973 l 368.562 36.805 l 370.863 32.852
 l 373.168 29.121 l 375.473 25.613 l 377.773 22.336 l 380.078 19.293 l 382.379
 16.488 l 384.684 13.926 l 386.984 11.613 l 389.289 9.547 l 391.59 7.73 
l 393.895 6.172 l 396.199 4.867 l 398.5 3.82 l 400.805 3.035 l 403.105 2.512
 l 405.41 2.25 l 407.711 2.25 l 410.016 2.512 l 412.316 3.035 l 414.621 
3.82 l 416.922 4.867 l 419.227 6.172 l 421.531 7.73 l 423.832 9.547 l 426.137
 11.613 l 428.438 13.926 l 430.742 16.488 l 433.043 19.293 l 435.348 22.336
 l 437.648 25.613 l 439.953 29.121 l 442.258 32.852 l 444.559 36.805 l 446.863
 40.973 l 449.164 45.348 l 451.469 49.926 l 453.77 54.703 l 456.074 59.676
 l 458.375 64.828 l 460.68 70.164 l 462.984 75.668 l 465.285 81.34 l 467.59
 87.168 l 469.891 93.148 l 472.195 99.273 l 474.496 105.535 l 476.801 111.93
 l 479.102 118.445 l 481.406 125.074 l 483.711 131.812 l 486.012 138.652
 l 488.316 145.586 l 490.617 152.605 l 492.922 159.703 l 495.223 166.875
 l 497.527 174.113 l 499.828 181.406 l 502.133 188.75 l 504.434 196.141 
l 506.738 203.57 l 509.043 211.027 l 511.344 218.512 l 513.648 226.016 l
 515.949 233.531 l 518.254 241.051 l 520.555 248.574 l 522.859 256.094 l
 525.16 263.598 l 527.465 271.09 l 529.77 278.562 l 532.07 286.004 l 534.375
 293.418 l 536.676 300.797 l 538.98 308.133 l 541.281 315.426 l 543.586 
322.668 l 545.887 329.863 l 548.191 336.996 l 550.496 344.07 l 552.797 351.082
 l 555.102 358.027 l 557.402 364.902 l 559.707 371.703 l 562.008 378.426
 l 564.312 385.074 l 566.613 391.637 l 568.918 398.117 l 571.223 404.508
 l 573.523 410.812 l 575.828 417.027 l 578.129 423.148 l 580.434 429.172
 l 582.734 435.102 l 585.039 440.93 l 587.34 446.66 l 589.645 452.293 l 
591.949 457.816 l 594.25 463.238 l 596.555 468.555 l 598.855 473.766 l 601.16
 478.867 l 603.461 483.863 l 605.766 488.746 l 608.066 493.52 l 610.371 
498.184 l 612.672 502.734 l 614.977 507.172 l 617.281 511.496 l 619.582 
515.707 l 621.887 519.805 l 624.188 523.785 l 626.492 527.652 l 628.793 
531.402 l 631.098 535.035 l 633.398 538.551 l 635.703 541.949 l 638.008 
545.234 l 640.309 548.398 l 642.613 551.445 l 644.914 554.371 l 647.219 
557.184 l 649.52 559.875 l 651.824 562.449 l 654.125 564.902 l 656.43 567.238
 l 658.734 569.453 l 661.035 571.551 l 663.34 573.527 l 665.641 575.387 
l 667.945 577.125 l 670.246 578.742 l 672.551 580.242 l 674.852 581.621 
l 677.156 582.879 l 679.461 584.02 l 681.762 585.039 l 684.066 585.938 l
 686.367 586.719 l 688.672 587.379 l 690.973 587.918 l 693.277 588.34 l 
695.578 588.641 l 697.883 588.82 l 700.184 588.879 l S Q
0 0.447059 0.741176 rg
q 1 0 0 -1 0 663.643127 cm
649.801 73.281 m 679.801 73.281 l S Q
0.85098 0.32549 0.0980392 rg
q 1 0 0 -1 0 663.643127 cm
649.801 108.156 m 679.801 108.156 l S Q
0.929412 0.694118 0.12549 rg
q 1 0 0 -1 0 663.643127 cm
649.801 143.031 m 679.801 143.031 l S Q
0.494118 0.184314 0.556863 rg
q 1 0 0 -1 0 663.643127 cm
649.801 177.906 m 679.801 177.906 l S Q
0 g
586.812 599.538 m 585.367 599.538 584.281 598.827 583.551 597.401 c 582.82
 595.975 582.453 593.835 582.453 590.983 c 582.453 588.131 582.82 585.995
 583.551 584.573 c 584.281 583.151 585.367 582.44 586.812 582.44 c 588.273
 582.44 589.367 583.151 590.094 584.573 c 590.82 585.995 591.184 588.131
 591.184 590.983 c 591.184 593.835 590.82 595.975 590.094 597.401 c 589.367
 598.827 588.273 599.538 586.812 599.538 c h
586.812 601.764 m 589.141 601.764 590.922 600.846 592.152 599.006 c 593.383
 597.167 593.996 594.491 593.996 590.983 c 593.996 587.483 593.383 584.815
 592.152 582.975 c 590.922 581.135 589.141 580.213 586.812 580.213 c 584.484
 580.213 582.707 581.135 581.477 582.975 c 580.246 584.815 579.629 587.483
 579.629 590.983 c 579.629 594.491 580.246 597.167 581.477 599.006 c 582.707
 600.846 584.484 601.764 586.812 601.764 c h
599.113 584.151 m 602.055 584.151 l 602.055 580.612 l 599.113 580.612 l
 h
614.273 599.538 m 612.828 599.538 611.742 598.827 611.012 597.401 c 610.281
 595.975 609.914 593.835 609.914 590.983 c 609.914 588.131 610.281 585.995
 611.012 584.573 c 611.742 583.151 612.828 582.44 614.273 582.44 c 615.734
 582.44 616.828 583.151 617.555 584.573 c 618.281 585.995 618.645 588.131
 618.645 590.983 c 618.645 593.835 618.281 595.975 617.555 597.401 c 616.828
 598.827 615.734 599.538 614.273 599.538 c h
614.273 601.764 m 616.602 601.764 618.383 600.846 619.613 599.006 c 620.844
 597.167 621.457 594.491 621.457 590.983 c 621.457 587.483 620.844 584.815
 619.613 582.975 c 618.383 581.135 616.602 580.213 614.273 580.213 c 611.945
 580.213 610.168 581.135 608.938 582.975 c 607.707 584.815 607.09 587.483
 607.09 590.983 c 607.09 594.491 607.707 597.167 608.938 599.006 c 610.168
 600.846 611.945 601.764 614.273 601.764 c h
629 582.979 m 638.809 582.979 l 638.809 580.612 l 625.613 580.612 l 625.613
 582.979 l 626.684 584.081 628.137 585.561 629.977 587.42 c 631.816 589.28
 632.977 590.479 633.453 591.018 c 634.352 592.034 634.977 592.893 635.332
 593.592 c 635.688 594.292 635.867 594.979 635.867 595.659 c 635.867 596.76
 635.48 597.659 634.707 598.354 c 633.934 599.049 632.926 599.397 631.684
 599.397 c 630.801 599.397 629.871 599.245 628.895 598.94 c 627.918 598.635
 626.871 598.17 625.754 597.545 c 625.754 600.381 l 626.887 600.842 627.945
 601.19 628.93 601.42 c 629.914 601.651 630.812 601.764 631.625 601.764 
c 633.781 601.764 635.496 601.229 636.773 600.155 c 638.051 599.081 638.691
 597.639 638.691 595.835 c 638.691 594.983 638.531 594.174 638.211 593.409
 c 637.891 592.643 637.309 591.741 636.465 590.702 c 636.238 590.436 635.5
 589.663 634.254 588.378 c 633.008 587.092 631.258 585.292 629 582.979 c
 h
629 582.979 m f
586.812 564.663 m 585.367 564.663 584.281 563.952 583.551 562.526 c 582.82
 561.1 582.453 558.96 582.453 556.108 c 582.453 553.256 582.82 551.12 583.551
 549.698 c 584.281 548.276 585.367 547.565 586.812 547.565 c 588.273 547.565
 589.367 548.276 590.094 549.698 c 590.82 551.12 591.184 553.256 591.184
 556.108 c 591.184 558.96 590.82 561.1 590.094 562.526 c 589.367 563.952
 588.273 564.663 586.812 564.663 c h
586.812 566.889 m 589.141 566.889 590.922 565.971 592.152 564.131 c 593.383
 562.292 593.996 559.616 593.996 556.108 c 593.996 552.608 593.383 549.94
 592.152 548.1 c 590.922 546.26 589.141 545.338 586.812 545.338 c 584.484
 545.338 582.707 546.26 581.477 548.1 c 580.246 549.94 579.629 552.608 579.629
 556.108 c 579.629 559.616 580.246 562.292 581.477 564.131 c 582.707 565.971
 584.484 566.889 586.812 566.889 c h
599.113 549.276 m 602.055 549.276 l 602.055 545.737 l 599.113 545.737 l
 h
614.273 564.663 m 612.828 564.663 611.742 563.952 611.012 562.526 c 610.281
 561.1 609.914 558.96 609.914 556.108 c 609.914 553.256 610.281 551.12 611.012
 549.698 c 611.742 548.276 612.828 547.565 614.273 547.565 c 615.734 547.565
 616.828 548.276 617.555 549.698 c 618.281 551.12 618.645 553.256 618.645
 556.108 c 618.645 558.96 618.281 561.1 617.555 562.526 c 616.828 563.952
 615.734 564.663 614.273 564.663 c h
614.273 566.889 m 616.602 566.889 618.383 565.971 619.613 564.131 c 620.844
 562.292 621.457 559.616 621.457 556.108 c 621.457 552.608 620.844 549.94
 619.613 548.1 c 618.383 546.26 616.602 545.338 614.273 545.338 c 611.945
 545.338 610.168 546.26 608.938 548.1 c 607.707 549.94 607.09 552.608 607.09
 556.108 c 607.09 559.616 607.707 562.292 608.938 564.131 c 610.168 565.971
 611.945 566.889 614.273 566.889 c h
626.598 566.514 m 637.637 566.514 l 637.637 564.147 l 629.176 564.147 l
 629.176 559.049 l 629.582 559.19 629.988 559.295 630.398 559.366 c 630.809
 559.436 631.219 559.471 631.625 559.471 c 633.945 559.471 635.781 558.838
 637.137 557.569 c 638.492 556.299 639.172 554.577 639.172 552.405 c 639.172
 550.17 638.477 548.436 637.086 547.198 c 635.695 545.96 633.73 545.338 
631.191 545.338 c 630.324 545.338 629.438 545.413 628.531 545.561 c 627.625
 545.71 626.691 545.932 625.73 546.229 c 625.73 549.053 l 626.566 548.592
 627.43 548.253 628.32 548.03 c 629.211 547.807 630.152 547.694 631.145 
547.694 c 632.746 547.694 634.016 548.12 634.953 548.967 c 635.891 549.815
 636.359 550.96 636.359 552.405 c 636.359 553.85 635.891 554.995 634.953
 555.838 c 634.016 556.682 632.746 557.104 631.145 557.104 c 630.387 557.104
 629.633 557.022 628.887 556.854 c 628.141 556.686 627.379 556.424 626.598
 556.073 c h
626.598 566.514 m f
586.812 529.788 m 585.367 529.788 584.281 529.077 583.551 527.651 c 582.82
 526.225 582.453 524.085 582.453 521.233 c 582.453 518.381 582.82 516.245
 583.551 514.823 c 584.281 513.401 585.367 512.69 586.812 512.69 c 588.273
 512.69 589.367 513.401 590.094 514.823 c 590.82 516.245 591.184 518.381
 591.184 521.233 c 591.184 524.085 590.82 526.225 590.094 527.651 c 589.367
 529.077 588.273 529.788 586.812 529.788 c h
586.812 532.014 m 589.141 532.014 590.922 531.096 592.152 529.256 c 593.383
 527.417 593.996 524.741 593.996 521.233 c 593.996 517.733 593.383 515.065
 592.152 513.225 c 590.922 511.385 589.141 510.463 586.812 510.463 c 584.484
 510.463 582.707 511.385 581.477 513.225 c 580.246 515.065 579.629 517.733
 579.629 521.233 c 579.629 524.741 580.246 527.417 581.477 529.256 c 582.707
 531.096 584.484 532.014 586.812 532.014 c h
599.113 514.401 m 602.055 514.401 l 602.055 510.862 l 599.113 510.862 l
 h
614.273 529.788 m 612.828 529.788 611.742 529.077 611.012 527.651 c 610.281
 526.225 609.914 524.085 609.914 521.233 c 609.914 518.381 610.281 516.245
 611.012 514.823 c 611.742 513.401 612.828 512.69 614.273 512.69 c 615.734
 512.69 616.828 513.401 617.555 514.823 c 618.281 516.245 618.645 518.381
 618.645 521.233 c 618.645 524.085 618.281 526.225 617.555 527.651 c 616.828
 529.077 615.734 529.788 614.273 529.788 c h
614.273 532.014 m 616.602 532.014 618.383 531.096 619.613 529.256 c 620.844
 527.417 621.457 524.741 621.457 521.233 c 621.457 517.733 620.844 515.065
 619.613 513.225 c 618.383 511.385 616.602 510.463 614.273 510.463 c 611.945
 510.463 610.168 511.385 608.938 513.225 c 607.707 515.065 607.09 517.733
 607.09 521.233 c 607.09 524.741 607.707 527.417 608.938 529.256 c 610.168
 531.096 611.945 532.014 614.273 532.014 c h
632.586 520.729 m 631.25 520.729 630.199 520.374 629.434 519.659 c 628.668
 518.944 628.285 517.96 628.285 516.71 c 628.285 515.452 628.668 514.467
 629.434 513.756 c 630.199 513.045 631.25 512.69 632.586 512.69 c 633.922
 512.69 634.973 513.049 635.742 513.768 c 636.512 514.487 636.898 515.467
 636.898 516.71 c 636.898 517.96 636.516 518.944 635.75 519.659 c 634.984
 520.374 633.93 520.729 632.586 520.729 c h
629.773 521.924 m 628.57 522.221 627.633 522.784 626.961 523.608 c 626.289
 524.432 625.953 525.436 625.953 526.624 c 625.953 528.288 626.543 529.604
 627.723 530.569 c 628.902 531.534 630.523 532.014 632.586 532.014 c 634.656
 532.014 636.281 531.534 637.461 530.569 c 638.641 529.604 639.23 528.288
 639.23 526.624 c 639.23 525.436 638.891 524.432 638.215 523.608 c 637.539
 522.784 636.605 522.221 635.41 521.924 c 636.77 521.612 637.824 520.999
 638.578 520.081 c 639.332 519.163 639.711 518.038 639.711 516.71 c 639.711
 514.694 639.094 513.151 637.863 512.077 c 636.633 511.003 634.875 510.463
 632.586 510.463 c 630.297 510.463 628.535 511.003 627.305 512.077 c 626.074
 513.151 625.461 514.694 625.461 516.71 c 625.461 518.038 625.84 519.163
 626.602 520.081 c 627.363 520.999 628.422 521.612 629.773 521.924 c h
628.742 526.366 m 628.742 525.288 629.078 524.448 629.754 523.846 c 630.43
 523.245 631.375 522.944 632.586 522.944 c 633.789 522.944 634.73 523.245
 635.414 523.846 c 636.098 524.448 636.441 525.288 636.441 526.366 c 636.441
 527.444 636.098 528.284 635.414 528.885 c 634.73 529.487 633.789 529.788
 632.586 529.788 c 631.375 529.788 630.43 529.487 629.754 528.885 c 629.078
 528.284 628.742 527.444 628.742 526.366 c h
628.742 526.366 m f
586.812 494.913 m 585.367 494.913 584.281 494.202 583.551 492.776 c 582.82
 491.35 582.453 489.21 582.453 486.358 c 582.453 483.506 582.82 481.37 583.551
 479.948 c 584.281 478.526 585.367 477.815 586.812 477.815 c 588.273 477.815
 589.367 478.526 590.094 479.948 c 590.82 481.37 591.184 483.506 591.184
 486.358 c 591.184 489.21 590.82 491.35 590.094 492.776 c 589.367 494.202
 588.273 494.913 586.812 494.913 c h
586.812 497.139 m 589.141 497.139 590.922 496.221 592.152 494.381 c 593.383
 492.542 593.996 489.866 593.996 486.358 c 593.996 482.858 593.383 480.19
 592.152 478.35 c 590.922 476.51 589.141 475.588 586.812 475.588 c 584.484
 475.588 582.707 476.51 581.477 478.35 c 580.246 480.19 579.629 482.858 
579.629 486.358 c 579.629 489.866 580.246 492.542 581.477 494.381 c 582.707
 496.221 584.484 497.139 586.812 497.139 c h
599.113 479.526 m 602.055 479.526 l 602.055 475.987 l 599.113 475.987 l
 h
608.754 478.354 m 613.348 478.354 l 613.348 494.198 l 608.344 493.202 l
 608.344 495.756 l 613.312 496.764 l 616.125 496.764 l 616.125 478.354 l
 620.719 478.354 l 620.719 475.987 l 608.754 475.987 l h
627.066 478.354 m 631.66 478.354 l 631.66 494.198 l 626.656 493.202 l 626.656
 495.756 l 631.625 496.764 l 634.438 496.764 l 634.438 478.354 l 639.031
 478.354 l 639.031 475.987 l 627.066 475.987 l h
627.066 478.354 m f
586.812 460.038 m 585.367 460.038 584.281 459.327 583.551 457.901 c 582.82
 456.475 582.453 454.335 582.453 451.483 c 582.453 448.631 582.82 446.495
 583.551 445.073 c 584.281 443.651 585.367 442.94 586.812 442.94 c 588.273
 442.94 589.367 443.651 590.094 445.073 c 590.82 446.495 591.184 448.631
 591.184 451.483 c 591.184 454.335 590.82 456.475 590.094 457.901 c 589.367
 459.327 588.273 460.038 586.812 460.038 c h
586.812 462.264 m 589.141 462.264 590.922 461.346 592.152 459.506 c 593.383
 457.667 593.996 454.991 593.996 451.483 c 593.996 447.983 593.383 445.315
 592.152 443.475 c 590.922 441.635 589.141 440.713 586.812 440.713 c 584.484
 440.713 582.707 441.635 581.477 443.475 c 580.246 445.315 579.629 447.983
 579.629 451.483 c 579.629 454.991 580.246 457.667 581.477 459.506 c 582.707
 461.346 584.484 462.264 586.812 462.264 c h
599.113 444.651 m 602.055 444.651 l 602.055 441.112 l 599.113 441.112 l
 h
608.754 443.479 m 613.348 443.479 l 613.348 459.323 l 608.344 458.327 l
 608.344 460.881 l 613.312 461.889 l 616.125 461.889 l 616.125 443.479 l
 620.719 443.479 l 620.719 441.112 l 608.754 441.112 l h
635.094 452.315 m 636.438 452.026 637.488 451.428 638.246 450.518 c 639.004
 449.608 639.383 448.483 639.383 447.147 c 639.383 445.1 638.676 443.518
 637.266 442.397 c 635.855 441.276 633.852 440.713 631.25 440.713 c 630.375
 440.713 629.477 440.799 628.555 440.971 c 627.633 441.143 626.68 441.397
 625.695 441.733 c 625.695 444.452 l 626.477 443.999 627.332 443.655 628.262
 443.42 c 629.191 443.186 630.16 443.069 631.168 443.069 c 632.934 443.069
 634.277 443.42 635.199 444.12 c 636.121 444.819 636.582 445.827 636.582
 447.147 c 636.582 448.374 636.152 449.335 635.293 450.026 c 634.434 450.717
 633.238 451.061 631.707 451.061 c 629.293 451.061 l 629.293 453.37 l 631.824
 453.37 l 633.207 453.37 634.262 453.647 634.992 454.202 c 635.723 454.756
 636.09 455.553 636.09 456.592 c 636.09 457.655 635.711 458.471 634.957 
459.042 c 634.203 459.612 633.121 459.897 631.707 459.897 c 630.941 459.897
 630.117 459.815 629.234 459.647 c 628.352 459.479 627.383 459.217 626.328
 458.866 c 626.328 461.374 l 627.391 461.67 628.387 461.893 629.32 462.042
 c 630.254 462.19 631.137 462.264 631.965 462.264 c 634.098 462.264 635.785
 461.78 637.027 460.811 c 638.27 459.842 638.891 458.53 638.891 456.874 
c 638.891 455.725 638.559 454.756 637.898 453.963 c 637.238 453.17 636.305
 452.62 635.094 452.315 c h
635.094 452.315 m f
0.466667 0.67451 0.188235 rg
q 1 0 0 -1 0 663.643127 cm
649.801 212.781 m 679.801 212.781 l S Q
0.14902 g
3.268762 w
0 j
q 0.872622 0 0 -1 0 663.643127 cm
658.858 11.629 125.556 216.285 re S Q
0 g
589.863 632.604 m 589.875 632.624 l 589.914 632.663 l 589.926 632.682 l
 589.941 632.694 l 589.945 632.706 l 589.957 632.721 l 589.973 632.733 l
 589.977 632.745 l 589.996 632.772 l 590.016 632.788 l 590.027 632.815 l
 590.047 632.835 l 590.059 632.854 l 590.074 632.874 l 590.078 632.889 l
 590.094 632.909 l 590.098 632.928 l 590.109 632.94 l 590.125 632.971 l 
590.129 632.987 l 590.129 632.999 l 590.137 633.01 l 590.141 633.022 l 590.141
 633.042 l 590.148 633.057 l 590.148 633.112 l 590.148 633.272 590.023 633.428
 589.934 633.557 c 583.461 642.897 l 590.742 642.897 l 596.074 642.897 597.66
 641.764 598.324 636.772 c 599.102 636.772 l 598.223 643.878 l 580.715 643.878
 l 579.961 643.878 579.902 643.878 579.902 643.143 c 587.754 631.725 l 580.246
 623.178 l 579.93 622.835 579.93 622.772 579.93 622.678 c 579.93 622.327
 580.246 622.327 580.715 622.327 c 598.223 622.327 l 599.102 629.776 l 598.324
 629.776 l 597.746 624.506 595.602 623.651 590.656 623.651 c 581.949 623.651
 l h
589.863 632.604 m f*
613.68 623.663 m 613.574 623.792 l 613.473 623.913 l 613.371 624.026 l 
613.273 624.131 l 613.188 624.233 l 613.098 624.335 l 613.016 624.432 l 
612.941 624.518 l 612.855 624.608 l 612.781 624.69 l 612.711 624.772 l 612.641
 624.85 l 612.57 624.917 l 612.438 625.057 l 612.375 625.12 l 612.25 625.241
 l 612.121 625.362 l 612.004 625.467 l 611.875 625.577 l 611.75 625.678 
l 611.609 625.784 l 611.469 625.885 l 611.395 625.944 l 611.316 626.003 
l 609.969 626.975 608.562 627.342 607.348 627.342 c 604.605 627.342 602.629
 625.006 602.629 622.358 c 603.246 622.358 l 603.246 624.487 604.961 626.135
 606.992 626.135 c 609.051 626.135 610.457 624.456 612.57 621.905 c 611.691
 620.467 609.773 618.229 607.082 618.229 c 604.801 618.229 603.246 620.237
 603.246 622.358 c 602.629 622.358 l 602.629 619.784 604.516 617.401 607.277
 617.401 c 610.344 617.401 612.496 619.917 613.289 621.081 c 614.453 619.713
 614.809 619.338 615.637 618.745 c 616.984 617.776 618.398 617.401 619.613
 617.401 c 622.348 617.401 624.34 619.737 624.34 622.385 c 623.723 622.385
 l 623.723 620.268 622 618.604 619.977 618.604 c 617.918 618.604 616.5 620.288
 614.383 622.854 c 615.277 624.28 617.195 626.514 619.887 626.514 c 622.148
 626.514 623.723 624.506 623.723 622.385 c 624.34 622.385 l 624.34 624.967
 622.438 627.342 619.691 627.342 c 616.617 627.342 614.473 624.831 613.68
 623.663 c h
613.68 623.663 m f*
Q Q
showpage
%%Trailer
end restore
%%EOF
