%!PS-Adobe-3.0 EPSF-3.0
%%Creator: cairo 1.13.1 (http://cairographics.org)
%%CreationDate: Sun Mar  4 17:06:07 2018
%%Pages: 1
%%DocumentData: Clean7Bit
%%LanguageLevel: 2
%%BoundingBox: 0 -1 716 675
%%EndComments
%%BeginProlog
save
50 dict begin
/q { gsave } bind def
/Q { grestore } bind def
/cm { 6 array astore concat } bind def
/w { setlinewidth } bind def
/J { setlinecap } bind def
/j { setlinejoin } bind def
/M { setmiterlimit } bind def
/d { setdash } bind def
/m { moveto } bind def
/l { lineto } bind def
/c { curveto } bind def
/h { closepath } bind def
/re { exch dup neg 3 1 roll 5 3 roll moveto 0 rlineto
      0 exch rlineto 0 rlineto closepath } bind def
/S { stroke } bind def
/f { fill } bind def
/f* { eofill } bind def
/n { newpath } bind def
/W { clip } bind def
/W* { eoclip } bind def
/BT { } bind def
/ET { } bind def
/pdfmark where { pop globaldict /?pdfmark /exec load put }
    { globaldict begin /?pdfmark /pop load def /pdfmark
    /cleartomark load def end } ifelse
/BDC { mark 3 1 roll /BDC pdfmark } bind def
/EMC { mark /EMC pdfmark } bind def
/cairo_store_point { /cairo_point_y exch def /cairo_point_x exch def } def
/Tj { show currentpoint cairo_store_point } bind def
/TJ {
  {
    dup
    type /stringtype eq
    { show } { -0.001 mul 0 cairo_font_matrix dtransform rmoveto } ifelse
  } forall
  currentpoint cairo_store_point
} bind def
/cairo_selectfont { cairo_font_matrix aload pop pop pop 0 0 6 array astore
    cairo_font exch selectfont cairo_point_x cairo_point_y moveto } bind def
/Tf { pop /cairo_font exch def /cairo_font_matrix where
      { pop cairo_selectfont } if } bind def
/Td { matrix translate cairo_font_matrix matrix concatmatrix dup
      /cairo_font_matrix exch def dup 4 get exch 5 get cairo_store_point
      /cairo_font where { pop cairo_selectfont } if } bind def
/Tm { 2 copy 8 2 roll 6 array astore /cairo_font_matrix exch def
      cairo_store_point /cairo_font where { pop cairo_selectfont } if } bind def
/g { setgray } bind def
/rg { setrgbcolor } bind def
/d1 { setcachedevice } bind def
%%EndProlog
%%BeginSetup
%%EndSetup
%%Page: 1 1
%%BeginPageSetup
%%PageBoundingBox: 0 -1 716 675
%%EndPageSetup
q 0 -1 716 676 rectclip q
0.14902 g
85.668 45.87 m 94.164 45.87 l 94.164 43.292 l 85.668 43.292 l h
99.18 36.237 m 99.18 39.131 l 99.977 38.756 100.785 38.467 101.605 38.264
 c 102.426 38.061 103.23 37.96 104.02 37.96 c 106.121 37.96 107.727 38.667
 108.832 40.081 c 109.938 41.495 110.566 43.639 110.723 46.514 c 110.113
 45.616 109.344 44.924 108.41 44.44 c 107.477 43.956 106.441 43.714 105.309
 43.714 c 102.957 43.714 101.098 44.424 99.727 45.846 c 98.355 47.268 97.668
 49.214 97.668 51.682 c 97.668 54.096 98.383 56.034 99.812 57.495 c 101.242
 58.956 103.145 59.686 105.52 59.686 c 108.238 59.686 110.312 58.643 111.742
 56.557 c 113.172 54.471 113.887 51.444 113.887 47.475 c 113.887 43.772 
113.008 40.815 111.25 38.604 c 109.492 36.393 107.129 35.288 104.16 35.288
 c 103.363 35.288 102.555 35.366 101.734 35.522 c 100.914 35.678 100.062
 35.917 99.18 36.237 c h
105.52 46.198 m 106.941 46.198 108.07 46.686 108.906 47.663 c 109.742 48.639
 110.16 49.979 110.16 51.682 c 110.16 53.37 109.742 54.706 108.906 55.69
 c 108.07 56.674 106.941 57.167 105.52 57.167 c 104.09 57.167 102.957 56.674
 102.121 55.69 c 101.285 54.706 100.867 53.37 100.867 51.682 c 100.867 49.979
 101.285 48.639 102.121 47.663 c 102.957 46.686 104.09 46.198 105.52 46.198
 c h
126.25 57.167 m 124.609 57.167 123.379 56.358 122.555 54.745 c 121.73 53.131
 121.316 50.71 121.316 47.475 c 121.316 44.256 121.73 41.839 122.555 40.225
 c 123.379 38.612 124.609 37.807 126.25 37.807 c 127.898 37.807 129.137 
38.612 129.961 40.225 c 130.785 41.839 131.195 44.256 131.195 47.475 c 131.195
 50.71 130.785 53.131 129.961 54.745 c 129.137 56.358 127.898 57.167 126.25
 57.167 c h
126.25 59.686 m 128.883 59.686 130.895 58.643 132.285 56.557 c 133.676 
54.471 134.371 51.444 134.371 47.475 c 134.371 43.522 133.676 40.503 132.285
 38.417 c 130.895 36.331 128.883 35.288 126.25 35.288 c 123.617 35.288 121.605
 36.331 120.211 38.417 c 118.816 40.503 118.117 43.522 118.117 47.475 c 
118.117 51.444 118.816 54.471 120.211 56.557 c 121.605 58.643 123.617 59.686
 126.25 59.686 c h
126.25 59.686 m f
232.48 45.87 m 240.977 45.87 l 240.977 43.292 l 232.48 43.292 l h
254.641 56.487 m 246.613 43.936 l 254.641 43.936 l h
253.809 59.253 m 257.805 59.253 l 257.805 43.936 l 261.156 43.936 l 261.156
 41.288 l 257.805 41.288 l 257.805 35.745 l 254.641 35.745 l 254.641 41.288
 l 244.023 41.288 l 244.023 44.358 l h
266.289 59.253 m 278.781 59.253 l 278.781 56.581 l 269.207 56.581 l 269.207
 50.815 l 269.668 50.971 270.129 51.089 270.59 51.167 c 271.051 51.245 271.512
 51.284 271.973 51.284 c 274.598 51.284 276.676 50.565 278.207 49.128 c 
279.738 47.69 280.504 45.745 280.504 43.292 c 280.504 40.76 279.719 38.792
 278.145 37.389 c 276.57 35.987 274.348 35.288 271.48 35.288 c 270.496 35.288
 269.492 35.37 268.469 35.538 c 267.445 35.706 266.387 35.96 265.293 36.296
 c 265.293 39.495 l 266.238 38.979 267.215 38.592 268.223 38.339 c 269.23
 38.085 270.297 37.96 271.422 37.96 c 273.242 37.96 274.684 38.436 275.742
 39.393 c 276.801 40.35 277.328 41.651 277.328 43.292 c 277.328 44.924 276.801
 46.217 275.742 47.174 c 274.684 48.131 273.242 48.612 271.422 48.612 c 
270.57 48.612 269.723 48.514 268.879 48.323 c 268.035 48.131 267.172 47.839
 266.289 47.44 c h
266.289 59.253 m f
403.727 57.167 m 402.086 57.167 400.855 56.358 400.031 54.745 c 399.207
 53.131 398.793 50.71 398.793 47.475 c 398.793 44.256 399.207 41.839 400.031
 40.225 c 400.855 38.612 402.086 37.807 403.727 37.807 c 405.375 37.807 
406.613 38.612 407.438 40.225 c 408.262 41.839 408.672 44.256 408.672 47.475
 c 408.672 50.71 408.262 53.131 407.438 54.745 c 406.613 56.358 405.375 
57.167 403.727 57.167 c h
403.727 59.686 m 406.359 59.686 408.371 58.643 409.762 56.557 c 411.152
 54.471 411.848 51.444 411.848 47.475 c 411.848 43.522 411.152 40.503 409.762
 38.417 c 408.371 36.331 406.359 35.288 403.727 35.288 c 401.094 35.288 
399.082 36.331 397.688 38.417 c 396.293 40.503 395.594 43.522 395.594 47.475
 c 395.594 51.444 396.293 54.471 397.688 56.557 c 399.082 58.643 401.094
 59.686 403.727 59.686 c h
403.727 59.686 m f
542.348 56.487 m 534.32 43.936 l 542.348 43.936 l h
541.516 59.253 m 545.512 59.253 l 545.512 43.936 l 548.863 43.936 l 548.863
 41.288 l 545.512 41.288 l 545.512 35.745 l 542.348 35.745 l 542.348 41.288
 l 531.73 41.288 l 531.73 44.358 l h
553.996 59.253 m 566.488 59.253 l 566.488 56.581 l 556.914 56.581 l 556.914
 50.815 l 557.375 50.971 557.836 51.089 558.297 51.167 c 558.758 51.245 
559.219 51.284 559.68 51.284 c 562.305 51.284 564.383 50.565 565.914 49.128
 c 567.445 47.69 568.211 45.745 568.211 43.292 c 568.211 40.76 567.422 38.792
 565.848 37.389 c 564.273 35.987 562.055 35.288 559.188 35.288 c 558.203
 35.288 557.199 35.37 556.176 35.538 c 555.152 35.706 554.094 35.96 553 
36.296 c 553 39.495 l 553.945 38.979 554.922 38.592 555.93 38.339 c 556.938
 38.085 558.004 37.96 559.129 37.96 c 560.949 37.96 562.387 38.436 563.445
 39.393 c 564.504 40.35 565.035 41.651 565.035 43.292 c 565.035 44.924 564.504
 46.217 563.445 47.174 c 562.387 48.131 560.949 48.612 559.129 48.612 c 
558.277 48.612 557.43 48.514 556.586 48.323 c 555.742 48.131 554.879 47.839
 553.996 47.44 c h
553.996 59.253 m f
680.512 36.237 m 680.512 39.131 l 681.309 38.756 682.117 38.467 682.938
 38.264 c 683.758 38.061 684.562 37.96 685.352 37.96 c 687.453 37.96 689.059
 38.667 690.164 40.081 c 691.27 41.495 691.898 43.639 692.055 46.514 c 691.445
 45.616 690.676 44.924 689.742 44.44 c 688.809 43.956 687.773 43.714 686.641
 43.714 c 684.289 43.714 682.43 44.424 681.059 45.846 c 679.688 47.268 679
 49.214 679 51.682 c 679 54.096 679.715 56.034 681.145 57.495 c 682.574 
58.956 684.477 59.686 686.852 59.686 c 689.57 59.686 691.645 58.643 693.074
 56.557 c 694.504 54.471 695.219 51.444 695.219 47.475 c 695.219 43.772 
694.34 40.815 692.582 38.604 c 690.824 36.393 688.461 35.288 685.492 35.288
 c 684.695 35.288 683.887 35.366 683.066 35.522 c 682.246 35.678 681.395
 35.917 680.512 36.237 c h
686.852 46.198 m 688.273 46.198 689.402 46.686 690.238 47.663 c 691.074
 48.639 691.492 49.979 691.492 51.682 c 691.492 53.37 691.074 54.706 690.238
 55.69 c 689.402 56.674 688.273 57.167 686.852 57.167 c 685.422 57.167 684.289
 56.674 683.453 55.69 c 682.617 54.706 682.199 53.37 682.199 51.682 c 682.199
 49.979 682.617 48.639 683.453 47.663 c 684.289 46.686 685.422 46.198 686.852
 46.198 c h
707.582 57.167 m 705.941 57.167 704.707 56.358 703.883 54.745 c 703.059
 53.131 702.648 50.71 702.648 47.475 c 702.648 44.256 703.059 41.839 703.883
 40.225 c 704.707 38.612 705.941 37.807 707.582 37.807 c 709.23 37.807 710.465
 38.612 711.289 40.225 c 712.113 41.839 712.527 44.256 712.527 47.475 c 
712.527 50.71 712.113 53.131 711.289 54.745 c 710.465 56.358 709.23 57.167
 707.582 57.167 c h
707.582 59.686 m 710.215 59.686 712.227 58.643 713.617 56.557 c 715.008
 54.471 715.703 51.444 715.703 47.475 c 715.703 43.522 715.008 40.503 713.617
 38.417 c 712.227 36.331 710.215 35.288 707.582 35.288 c 704.949 35.288 
702.934 36.331 701.539 38.417 c 700.145 40.503 699.449 43.522 699.449 47.475
 c 699.449 51.444 700.145 54.471 701.539 56.557 c 702.934 58.643 704.949
 59.686 707.582 59.686 c h
707.582 59.686 m f
401.211 -0.001 m 400.234 -0.001 399.453 0.358 398.867 1.073 c 398.281 1.788
 397.875 2.647 397.648 3.655 c 397.422 4.663 397.309 5.659 397.309 6.643
 c 397.309 6.678 l 397.309 7.749 397.41 8.862 397.617 10.018 c 397.824 11.174
 398.121 12.327 398.508 13.475 c 398.895 14.624 399.316 15.647 399.77 16.546
 c 400.082 17.178 400.488 17.885 400.988 18.663 c 401.488 19.44 402.043 
20.167 402.656 20.842 c 403.27 21.518 403.93 22.061 404.637 22.475 c 405.344
 22.889 406.062 23.096 406.789 23.096 c 406.824 23.096 l 407.598 23.096 
408.242 22.881 408.762 22.452 c 409.281 22.022 409.688 21.471 409.977 20.799
 c 410.266 20.128 410.469 19.409 410.586 18.643 c 410.703 17.878 410.762
 17.147 410.762 16.452 c 410.762 14.827 410.539 13.167 410.098 11.471 c 
409.656 9.776 409.047 8.135 408.266 6.549 c 407.977 5.956 407.57 5.256 407.051
 4.448 c 406.531 3.639 405.98 2.913 405.398 2.272 c 404.816 1.631 404.164
 1.092 403.438 0.655 c 402.711 0.217 401.98 -0.001 401.246 -0.001 c h
401.281 0.854 m 401.992 0.854 402.676 1.237 403.332 1.999 c 403.988 2.76
 404.562 3.682 405.055 4.768 c 405.547 5.854 405.98 6.967 406.355 8.104 
c 406.73 9.241 407.008 10.206 407.188 11.003 c 400.602 11.003 l 400.266 
9.651 400.004 8.487 399.816 7.506 c 399.629 6.526 399.535 5.561 399.535 
4.616 c 399.535 2.108 400.117 0.854 401.281 0.854 c h
400.859 12.139 m 407.469 12.139 l 407.695 13.085 407.875 13.878 408.012
 14.514 c 408.148 15.151 408.266 15.819 408.363 16.522 c 408.461 17.225 
408.512 17.881 408.512 18.491 c 408.512 21.006 407.938 22.264 406.789 22.264
 c 405.422 22.264 404.242 21.167 403.25 18.967 c 402.258 16.768 401.461 
14.491 400.859 12.139 c h
400.859 12.139 m f
4.5 w
2 J
1 j
[] 0.0 d
10 M q 1 0 0 -1 0 674.026001 cm
110.348 599.883 m 697.598 599.883 l S Q
q 1 0 0 -1 0 674.026001 cm
110.348 12.633 m 697.598 12.633 l S Q
q 1 0 0 -1 0 674.026001 cm
110.348 599.883 m 110.348 594.02 l S Q
q 1 0 0 -1 0 674.026001 cm
257.16 599.883 m 257.16 594.02 l S Q
q 1 0 0 -1 0 674.026001 cm
403.973 599.883 m 403.973 594.02 l S Q
q 1 0 0 -1 0 674.026001 cm
550.785 599.883 m 550.785 594.02 l S Q
q 1 0 0 -1 0 674.026001 cm
697.598 599.883 m 697.598 594.02 l S Q
q 1 0 0 -1 0 674.026001 cm
110.348 12.633 m 110.348 18.496 l S Q
q 1 0 0 -1 0 674.026001 cm
257.16 12.633 m 257.16 18.496 l S Q
q 1 0 0 -1 0 674.026001 cm
403.973 12.633 m 403.973 18.496 l S Q
q 1 0 0 -1 0 674.026001 cm
550.785 12.633 m 550.785 18.496 l S Q
q 1 0 0 -1 0 674.026001 cm
697.598 12.633 m 697.598 18.496 l S Q
q 1 0 0 -1 0 674.026001 cm
110.348 599.883 m 110.348 12.633 l S Q
q 1 0 0 -1 0 674.026001 cm
697.598 599.883 m 697.598 12.633 l S Q
q 1 0 0 -1 0 674.026001 cm
110.348 599.883 m 116.215 599.883 l S Q
q 1 0 0 -1 0 674.026001 cm
110.348 482.434 m 116.215 482.434 l S Q
q 1 0 0 -1 0 674.026001 cm
110.348 364.984 m 116.215 364.984 l S Q
q 1 0 0 -1 0 674.026001 cm
110.348 247.531 m 116.215 247.531 l S Q
q 1 0 0 -1 0 674.026001 cm
110.348 130.082 m 116.215 130.082 l S Q
q 1 0 0 -1 0 674.026001 cm
110.348 12.633 m 116.215 12.633 l S Q
q 1 0 0 -1 0 674.026001 cm
697.598 599.883 m 691.734 599.883 l S Q
q 1 0 0 -1 0 674.026001 cm
697.598 482.434 m 691.734 482.434 l S Q
q 1 0 0 -1 0 674.026001 cm
697.598 364.984 m 691.734 364.984 l S Q
q 1 0 0 -1 0 674.026001 cm
697.598 247.531 m 691.734 247.531 l S Q
q 1 0 0 -1 0 674.026001 cm
697.598 130.082 m 691.734 130.082 l S Q
q 1 0 0 -1 0 674.026001 cm
697.598 12.633 m 691.734 12.633 l S Q
91.203 84.69 m 89.562 84.69 88.328 83.881 87.504 82.268 c 86.68 80.655 
86.27 78.233 86.27 74.999 c 86.27 71.78 86.68 69.362 87.504 67.749 c 88.328
 66.135 89.562 65.331 91.203 65.331 c 92.852 65.331 94.086 66.135 94.91 
67.749 c 95.734 69.362 96.148 71.78 96.148 74.999 c 96.148 78.233 95.734
 80.655 94.91 82.268 c 94.086 83.881 92.852 84.69 91.203 84.69 c h
91.203 87.21 m 93.836 87.21 95.848 86.167 97.238 84.081 c 98.629 81.995
 99.324 78.967 99.324 74.999 c 99.324 71.046 98.629 68.026 97.238 65.94 
c 95.848 63.854 93.836 62.811 91.203 62.811 c 88.57 62.811 86.555 63.854
 85.16 65.94 c 83.766 68.026 83.07 71.046 83.07 74.999 c 83.07 78.967 83.766
 81.995 85.16 84.081 c 86.555 86.167 88.57 87.21 91.203 87.21 c h
91.203 87.21 m f
61.203 202.139 m 59.562 202.139 58.328 201.335 57.504 199.721 c 56.68 198.108
 56.27 195.682 56.27 192.448 c 56.27 189.229 56.68 186.815 57.504 185.202
 c 58.328 183.589 59.562 182.78 61.203 182.78 c 62.852 182.78 64.086 183.589
 64.91 185.202 c 65.734 186.815 66.148 189.229 66.148 192.448 c 66.148 195.682
 65.734 198.108 64.91 199.721 c 64.086 201.335 62.852 202.139 61.203 202.139
 c h
61.203 204.659 m 63.836 204.659 65.848 203.616 67.238 201.53 c 68.629 199.444
 69.324 196.417 69.324 192.448 c 69.324 188.495 68.629 185.475 67.238 183.389
 c 65.848 181.303 63.836 180.26 61.203 180.26 c 58.57 180.26 56.555 181.303
 55.16 183.389 c 53.766 185.475 53.07 188.495 53.07 192.448 c 53.07 196.417
 53.766 199.444 55.16 201.53 c 56.555 203.616 58.57 204.659 61.203 204.659
 c h
74.75 184.714 m 78.078 184.714 l 78.078 180.717 l 74.75 180.717 l h
87.66 183.389 m 98.758 183.389 l 98.758 180.717 l 83.84 180.717 l 83.84
 183.389 l 85.043 184.639 86.688 186.319 88.773 188.424 c 90.859 190.53 
92.168 191.885 92.699 192.495 c 93.715 193.643 94.426 194.616 94.832 195.409
 c 95.238 196.202 95.441 196.979 95.441 197.745 c 95.441 198.995 95.004 
200.014 94.129 200.799 c 93.254 201.585 92.109 201.975 90.695 201.975 c 
89.703 201.975 88.652 201.803 87.543 201.456 c 86.434 201.108 85.25 200.581
 83.992 199.878 c 83.992 203.089 l 85.273 203.604 86.469 203.995 87.582 
204.26 c 88.695 204.526 89.715 204.659 90.637 204.659 c 93.074 204.659 95.016
 204.049 96.465 202.831 c 97.914 201.612 98.641 199.983 98.641 197.944 c
 98.641 196.975 98.457 196.061 98.094 195.198 c 97.73 194.335 97.074 193.311
 96.121 192.131 c 95.855 191.827 95.02 190.948 93.613 189.495 c 92.207 188.042
 90.223 186.006 87.66 183.389 c h
87.66 183.389 m f
61.203 319.589 m 59.562 319.589 58.328 318.784 57.504 317.171 c 56.68 315.557
 56.27 313.131 56.27 309.897 c 56.27 306.678 56.68 304.264 57.504 302.651
 c 58.328 301.038 59.562 300.229 61.203 300.229 c 62.852 300.229 64.086 
301.038 64.91 302.651 c 65.734 304.264 66.148 306.678 66.148 309.897 c 66.148
 313.131 65.734 315.557 64.91 317.171 c 64.086 318.784 62.852 319.589 61.203
 319.589 c h
61.203 322.108 m 63.836 322.108 65.848 321.065 67.238 318.979 c 68.629 
316.893 69.324 313.866 69.324 309.897 c 69.324 305.944 68.629 302.924 67.238
 300.839 c 65.848 298.753 63.836 297.71 61.203 297.71 c 58.57 297.71 56.555
 298.753 55.16 300.839 c 53.766 302.924 53.07 305.944 53.07 309.897 c 53.07
 313.866 53.766 316.893 55.16 318.979 c 56.555 321.065 58.57 322.108 61.203
 322.108 c h
74.75 302.163 m 78.078 302.163 l 78.078 298.167 l 74.75 298.167 l h
93.66 318.909 m 85.633 306.358 l 93.66 306.358 l h
92.828 321.674 m 96.824 321.674 l 96.824 306.358 l 100.176 306.358 l 100.176
 303.71 l 96.824 303.71 l 96.824 298.167 l 93.66 298.167 l 93.66 303.71 
l 83.043 303.71 l 83.043 306.78 l h
92.828 321.674 m f
61.203 437.042 m 59.562 437.042 58.328 436.233 57.504 434.62 c 56.68 433.006
 56.27 430.585 56.27 427.35 c 56.27 424.131 56.68 421.714 57.504 420.1 c
 58.328 418.487 59.562 417.682 61.203 417.682 c 62.852 417.682 64.086 418.487
 64.91 420.1 c 65.734 421.714 66.148 424.131 66.148 427.35 c 66.148 430.585
 65.734 433.006 64.91 434.62 c 64.086 436.233 62.852 437.042 61.203 437.042
 c h
61.203 439.561 m 63.836 439.561 65.848 438.518 67.238 436.432 c 68.629 
434.346 69.324 431.319 69.324 427.35 c 69.324 423.397 68.629 420.378 67.238
 418.292 c 65.848 416.206 63.836 415.163 61.203 415.163 c 58.57 415.163 
56.555 416.206 55.16 418.292 c 53.766 420.378 53.07 423.397 53.07 427.35
 c 53.07 431.319 53.766 434.346 55.16 436.432 c 56.555 438.518 58.57 439.561
 61.203 439.561 c h
74.75 419.616 m 78.078 419.616 l 78.078 415.62 l 74.75 415.62 l h
92.113 428.639 m 90.691 428.639 89.562 428.151 88.727 427.174 c 87.891 
426.198 87.473 424.862 87.473 423.167 c 87.473 421.471 87.891 420.131 88.727
 419.151 c 89.562 418.171 90.691 417.682 92.113 417.682 c 93.543 417.682
 94.676 418.171 95.512 419.151 c 96.348 420.131 96.766 421.471 96.766 423.167
 c 96.766 424.862 96.348 426.198 95.512 427.174 c 94.676 428.151 93.543 
428.639 92.113 428.639 c h
98.43 438.612 m 98.43 435.717 l 97.633 436.092 96.828 436.378 96.016 436.577
 c 95.203 436.776 94.398 436.878 93.602 436.878 c 91.5 436.878 89.895 436.167
 88.785 434.749 c 87.676 433.331 87.043 431.19 86.887 428.323 c 87.512 429.237
 88.289 429.936 89.223 430.424 c 90.156 430.913 91.188 431.159 92.312 431.159
 c 94.672 431.159 96.535 430.44 97.906 429.006 c 99.277 427.573 99.965 425.628
 99.965 423.167 c 99.965 420.753 99.25 418.815 97.82 417.354 c 96.391 415.893
 94.488 415.163 92.113 415.163 c 89.395 415.163 87.316 416.206 85.879 418.292
 c 84.441 420.378 83.723 423.397 83.723 427.35 c 83.723 431.069 84.605 434.034
 86.371 436.245 c 88.137 438.456 90.504 439.561 93.473 439.561 c 94.27 439.561
 95.074 439.479 95.887 439.319 c 96.699 439.159 97.547 438.924 98.43 438.612
 c h
98.43 438.612 m f
61.203 554.491 m 59.562 554.491 58.328 553.682 57.504 552.069 c 56.68 550.456
 56.27 548.034 56.27 544.799 c 56.27 541.581 56.68 539.163 57.504 537.549
 c 58.328 535.936 59.562 535.131 61.203 535.131 c 62.852 535.131 64.086 
535.936 64.91 537.549 c 65.734 539.163 66.148 541.581 66.148 544.799 c 66.148
 548.034 65.734 550.456 64.91 552.069 c 64.086 553.682 62.852 554.491 61.203
 554.491 c h
61.203 557.01 m 63.836 557.01 65.848 555.967 67.238 553.881 c 68.629 551.796
 69.324 548.768 69.324 544.799 c 69.324 540.846 68.629 537.827 67.238 535.741
 c 65.848 533.655 63.836 532.612 61.203 532.612 c 58.57 532.612 56.555 533.655
 55.16 535.741 c 53.766 537.827 53.07 540.846 53.07 544.799 c 53.07 548.768
 53.766 551.796 55.16 553.881 c 56.555 555.967 58.57 557.01 61.203 557.01
 c h
74.75 537.065 m 78.078 537.065 l 78.078 533.069 l 74.75 533.069 l h
91.727 544.237 m 90.211 544.237 89.02 543.831 88.156 543.022 c 87.293 542.214
 86.863 541.1 86.863 539.678 c 86.863 538.264 87.293 537.151 88.156 536.342
 c 89.02 535.534 90.211 535.131 91.727 535.131 c 93.234 535.131 94.422 535.538
 95.293 536.35 c 96.164 537.163 96.602 538.272 96.602 539.678 c 96.602 541.1
 96.168 542.214 95.305 543.022 c 94.441 543.831 93.25 544.237 91.727 544.237
 c h
88.539 545.585 m 87.18 545.921 86.117 546.553 85.355 547.487 c 84.594 548.421
 84.215 549.561 84.215 550.905 c 84.215 552.788 84.883 554.276 86.219 555.37
 c 87.555 556.464 89.391 557.01 91.727 557.01 c 94.062 557.01 95.898 556.464
 97.234 555.37 c 98.57 554.276 99.238 552.788 99.238 550.905 c 99.238 549.561
 98.855 548.421 98.094 547.487 c 97.332 546.553 96.277 545.921 94.926 545.585
 c 96.457 545.233 97.648 544.538 98.504 543.499 c 99.359 542.46 99.789 541.186
 99.789 539.678 c 99.789 537.405 99.094 535.659 97.703 534.44 c 96.312 533.221
 94.32 532.612 91.727 532.612 c 89.133 532.612 87.141 533.221 85.75 534.44
 c 84.359 535.659 83.664 537.405 83.664 539.678 c 83.664 541.186 84.094 
542.46 84.953 543.499 c 85.812 544.538 87.008 545.233 88.539 545.585 c h
87.379 550.612 m 87.379 549.393 87.758 548.44 88.52 547.756 c 89.281 547.073
 90.352 546.733 91.727 546.733 c 93.086 546.733 94.152 547.073 94.926 547.756
 c 95.699 548.44 96.086 549.393 96.086 550.612 c 96.086 551.831 95.699 552.78
 94.926 553.464 c 94.152 554.147 93.086 554.491 91.727 554.491 c 90.352 
554.491 89.281 554.147 88.52 553.464 c 87.758 552.78 87.379 551.831 87.379
 550.612 c h
87.379 550.612 m f
84.945 653.19 m 90.148 653.19 l 90.148 671.131 l 84.488 669.995 l 84.488
 672.889 l 90.113 674.026 l 93.301 674.026 l 93.301 653.19 l 98.492 653.19
 l 98.492 650.518 l 84.945 650.518 l h
84.945 653.19 m f
0 380.585 m 0 381.694 0.34 382.803 1.02 383.913 c 1.699 385.022 2.555 386.014
 3.586 386.889 c 4.617 387.764 5.637 388.456 6.645 388.964 c 5.777 389.307
 5.078 389.776 4.547 390.374 c 4.016 390.971 3.75 391.71 3.75 392.585 c 
3.75 393.624 4.062 394.592 4.691 395.495 c 5.32 396.397 6.145 397.19 7.168
 397.874 c 8.188 398.557 9.27 399.089 10.418 399.464 c 11.566 399.839 12.613
 400.026 13.559 400.026 c 13.746 400.026 l 14.676 400.026 15.496 399.862
 16.203 399.538 c 16.906 399.214 17.262 398.659 17.262 397.87 c 17.262 397.346
 17.117 396.846 16.832 396.374 c 16.547 395.901 16.176 395.51 15.715 395.202
 c 15.254 394.893 14.773 394.721 14.273 394.682 c 14.098 394.682 l 14.059
 394.698 14.012 394.725 13.957 394.768 c 13.902 394.811 13.875 394.866 13.875
 394.928 c 13.875 394.991 13.887 395.042 13.91 395.081 c 14.012 395.276 
14.098 395.444 14.168 395.589 c 14.238 395.733 14.293 395.878 14.332 396.022
 c 14.371 396.167 14.391 396.311 14.391 396.452 c 14.391 397.092 14.09 397.53
 13.488 397.768 c 12.887 398.006 12.199 398.128 11.426 398.128 c 10.605 
398.128 9.824 397.96 9.078 397.624 c 8.332 397.288 7.734 396.807 7.289 396.182
 c 6.844 395.557 6.621 394.819 6.621 393.967 c 6.621 392.725 7.195 391.811
 8.348 391.225 c 9.5 390.639 10.75 390.346 12.094 390.346 c 12.25 390.276
 12.328 390.19 12.328 390.089 c 12.328 389.753 12.016 389.405 11.395 389.049
 c 10.773 388.694 10.27 388.499 9.879 388.46 c 8.012 388.46 6.398 387.811
 5.039 386.514 c 4.445 385.874 3.938 385.143 3.516 384.327 c 3.094 383.51
 2.883 382.737 2.883 382.003 c 2.883 381.221 3.125 380.565 3.609 380.038
 c 4.094 379.51 4.703 379.12 5.434 378.866 c 6.16 378.612 6.902 378.487 
7.652 378.487 c 8.613 378.487 9.391 378.655 9.98 378.991 c 10.57 379.327
 11.184 379.858 11.824 380.585 c 12.465 381.311 12.961 381.823 13.312 382.12
 c 13.664 382.417 14.152 382.592 14.777 382.647 c 14.953 382.647 l 15.094
 382.569 15.164 382.483 15.164 382.389 c 15.164 382.319 15.125 382.198 15.047
 382.026 c 14.359 381.034 13.5 380.124 12.473 379.299 c 11.445 378.475 10.324
 377.819 9.105 377.327 c 7.887 376.835 6.695 376.589 5.531 376.589 c 5.32
 376.589 l 4.492 376.589 3.664 376.737 2.836 377.034 c 2.008 377.331 1.328
 377.78 0.797 378.385 c 0.266 378.991 0 379.725 0 380.585 c h
0 380.585 m f
28.82 369.288 m 27.625 370.233 26.594 371.315 25.727 372.538 c 24.859 373.76
 24.152 375.065 23.602 376.452 c 23.051 377.839 22.637 379.288 22.363 380.799
 c 22.09 382.311 21.953 383.831 21.953 385.354 c 21.953 386.901 22.09 388.428
 22.363 389.94 c 22.637 391.452 23.055 392.905 23.617 394.299 c 24.18 395.694
 24.898 397.003 25.77 398.221 c 26.641 399.44 27.656 400.506 28.82 401.421
 c 28.82 401.46 28.875 401.479 28.984 401.479 c 29.277 401.479 l 29.34 401.479
 29.398 401.448 29.453 401.389 c 29.508 401.331 29.535 401.268 29.535 401.198
 c 29.535 401.104 29.512 401.034 29.465 400.987 c 28.418 399.964 27.547 
398.862 26.848 397.686 c 26.148 396.51 25.586 395.26 25.16 393.932 c 24.734
 392.604 24.426 391.229 24.238 389.807 c 24.051 388.385 23.957 386.901 23.957
 385.354 c 23.957 378.518 25.785 373.327 29.441 369.78 c 29.504 369.717 
29.535 369.628 29.535 369.51 c 29.535 369.456 29.508 369.393 29.449 369.327
 c 29.391 369.26 29.332 369.229 29.277 369.229 c 28.984 369.229 l 28.875
 369.229 28.82 369.249 28.82 369.288 c h
28.82 369.288 m f
36.461 376.928 m 35.484 376.928 34.703 377.284 34.117 377.999 c 33.531 
378.714 33.125 379.577 32.898 380.585 c 32.672 381.592 32.559 382.589 32.559
 383.573 c 32.559 383.608 l 32.559 384.678 32.664 385.792 32.871 386.948
 c 33.078 388.104 33.375 389.256 33.762 390.405 c 34.148 391.553 34.566 
392.577 35.02 393.475 c 35.332 394.108 35.738 394.811 36.238 395.589 c 36.738
 396.366 37.297 397.092 37.91 397.768 c 38.523 398.444 39.184 398.991 39.891
 399.405 c 40.598 399.819 41.312 400.026 42.039 400.026 c 42.074 400.026
 l 42.848 400.026 43.496 399.811 44.016 399.381 c 44.535 398.952 44.938 
398.401 45.227 397.729 c 45.516 397.057 45.719 396.339 45.836 395.573 c 
45.953 394.807 46.012 394.077 46.012 393.381 c 46.012 391.756 45.793 390.096
 45.352 388.401 c 44.91 386.706 44.297 385.065 43.516 383.479 c 43.227 382.885
 42.824 382.182 42.305 381.374 c 41.785 380.565 41.234 379.842 40.652 379.202
 c 40.07 378.561 39.414 378.022 38.688 377.585 c 37.961 377.147 37.23 376.928
 36.496 376.928 c h
36.531 377.784 m 37.242 377.784 37.926 378.163 38.582 378.924 c 39.238 
379.686 39.812 380.612 40.305 381.698 c 40.797 382.784 41.23 383.893 41.605
 385.03 c 41.98 386.167 42.258 387.135 42.438 387.932 c 35.852 387.932 l
 35.516 386.581 35.254 385.413 35.066 384.432 c 34.879 383.452 34.785 382.491
 34.785 381.546 c 34.785 379.038 35.367 377.784 36.531 377.784 c h
36.109 389.069 m 42.719 389.069 l 42.945 390.014 43.129 390.803 43.266 
391.44 c 43.402 392.077 43.52 392.749 43.617 393.452 c 43.715 394.155 43.762
 394.811 43.762 395.421 c 43.762 397.936 43.188 399.194 42.039 399.194 c
 40.672 399.194 39.492 398.092 38.5 395.893 c 37.508 393.694 36.711 391.421
 36.109 389.069 c h
36.109 389.069 m f
49.277 369.229 m 49.09 369.229 48.996 369.323 48.996 369.51 c 48.996 369.604
 49.016 369.674 49.055 369.721 c 52.727 373.307 54.562 378.518 54.562 385.354
 c 54.562 392.19 52.746 397.381 49.113 400.928 c 49.035 400.983 48.996 401.073
 48.996 401.198 c 48.996 401.268 49.023 401.331 49.078 401.389 c 49.133 
401.448 49.199 401.479 49.277 401.479 c 49.57 401.479 l 49.633 401.479 49.688
 401.46 49.734 401.421 c 51.273 400.202 52.559 398.721 53.59 396.979 c 54.621
 395.237 55.375 393.378 55.852 391.401 c 56.328 389.424 56.566 387.409 56.566
 385.354 c 56.566 383.831 56.438 382.331 56.18 380.858 c 55.922 379.385 
55.512 377.932 54.949 376.499 c 54.387 375.065 53.676 373.741 52.816 372.526
 c 51.957 371.311 50.93 370.233 49.734 369.288 c 49.688 369.249 49.633 369.229
 49.57 369.229 c h
49.277 369.229 m f
0 0.447059 0.741176 rg
0 J
q 1 0 0 -1 0 674.026001 cm
110.348 599.883 m 697.598 599.883 l S Q
0.85098 0.32549 0.0980392 rg
q 1 0 0 -1 0 674.026001 cm
110.348 599.883 m 345.25 599.883 l 347.551 583.824 l 349.855 565.473 l 
352.156 554.004 l 354.461 544.828 l 356.762 540.242 l 359.066 531.066 l 
361.367 526.477 l 363.672 519.594 l 365.977 517.301 l 368.277 512.715 l 
370.582 508.125 l 372.883 508.125 l 375.188 503.539 l 377.488 501.242 l 
379.793 496.656 l 382.094 496.656 l 384.398 494.363 l 386.703 492.066 l 
389.004 492.066 l 391.309 489.773 l 395.914 489.773 l 398.215 487.48 l 412.035
 487.48 l 414.336 489.773 l 418.941 489.773 l 421.246 494.363 l 423.547 
494.363 l 425.852 496.656 l 428.156 496.656 l 430.457 501.242 l 432.762 
503.539 l 435.062 505.832 l 437.367 508.125 l 439.668 512.715 l 441.973 
517.301 l 444.273 519.594 l 446.578 524.184 l 448.879 531.066 l 451.184 
535.652 l 453.488 544.828 l 455.789 551.711 l 458.094 565.473 l 460.395 
581.531 l 462.699 599.883 l 697.598 599.883 l S Q
0.929412 0.694118 0.12549 rg
q 1 0 0 -1 0 674.026001 cm
110.348 599.883 m 227.797 599.883 l 230.102 581.531 l 232.406 544.828 l
 234.707 524.184 l 237.012 508.125 l 239.312 494.363 l 241.617 480.598 l
 243.918 471.422 l 246.223 462.246 l 248.523 450.777 l 250.828 443.895 l
 253.129 437.012 l 255.434 430.133 l 257.738 418.66 l 260.039 411.781 l 
262.344 407.191 l 264.645 400.309 l 266.949 393.43 l 269.25 388.84 l 271.555
 381.957 l 273.855 377.371 l 278.465 363.605 l 280.766 361.312 l 283.07 
354.43 l 285.371 349.844 l 287.676 345.254 l 289.977 340.668 l 292.281 333.785
 l 294.582 331.492 l 296.887 324.609 l 299.191 320.023 l 301.492 317.727
 l 303.797 310.848 l 306.098 308.551 l 308.402 303.965 l 310.703 297.082
 l 313.008 294.789 l 315.309 290.199 l 317.613 287.906 l 319.918 281.023
 l 322.219 278.73 l 324.523 274.145 l 326.824 271.848 l 329.129 267.262 
l 331.43 264.969 l 333.734 258.086 l 336.035 255.793 l 338.34 251.203 l 
340.641 248.91 l 342.945 244.32 l 345.25 242.027 l 347.551 239.734 l 349.855
 235.145 l 352.156 232.852 l 354.461 228.266 l 356.762 228.266 l 359.066
 225.969 l 361.367 223.676 l 363.672 219.09 l 365.977 216.793 l 368.277 
214.5 l 370.582 214.5 l 372.883 212.207 l 375.188 207.617 l 377.488 207.617
 l 379.793 205.324 l 382.094 203.031 l 384.398 203.031 l 386.703 200.738
 l 389.004 200.738 l 391.309 198.441 l 393.609 200.738 l 395.914 198.441
 l 398.215 198.441 l 400.52 196.148 l 402.82 198.441 l 405.125 198.441 l
 407.43 196.148 l 409.73 198.441 l 414.336 198.441 l 416.641 200.738 l 421.246
 200.738 l 423.547 203.031 l 425.852 203.031 l 428.156 205.324 l 430.457
 205.324 l 432.762 209.914 l 435.062 212.207 l 437.367 214.5 l 439.668 214.5
 l 441.973 216.793 l 444.273 219.09 l 446.578 223.676 l 448.879 225.969 
l 451.184 225.969 l 453.488 230.559 l 455.789 232.852 l 458.094 235.145 
l 460.395 239.734 l 462.699 242.027 l 465 244.32 l 467.305 248.91 l 469.605
 251.203 l 471.91 255.793 l 474.215 258.086 l 476.516 262.672 l 478.82 267.262
 l 481.121 271.848 l 483.426 274.145 l 485.727 278.73 l 488.031 281.023 
l 490.332 285.613 l 492.637 290.199 l 494.941 294.789 l 497.242 297.082 
l 499.547 301.672 l 501.848 308.551 l 504.152 310.848 l 506.453 315.434 
l 508.758 320.023 l 511.059 324.609 l 513.363 331.492 l 515.668 333.785 
l 517.969 338.375 l 520.273 345.254 l 522.574 347.551 l 524.879 354.43 l
 527.18 361.312 l 529.484 363.605 l 531.785 370.488 l 534.09 375.078 l 536.391
 381.957 l 538.695 388.84 l 541 393.43 l 543.301 398.016 l 545.605 404.898
 l 547.906 411.781 l 550.211 418.66 l 552.512 427.836 l 554.816 434.719 
l 557.117 443.895 l 559.422 450.777 l 561.727 462.246 l 564.027 471.422 
l 566.332 480.598 l 568.633 492.066 l 570.938 505.832 l 573.238 521.891 
l 575.543 542.535 l 577.844 576.945 l 580.148 599.883 l 697.598 599.883 
l S Q
0.494118 0.184314 0.556863 rg
q 1 0 0 -1 0 674.026001 cm
110.348 599.883 m 190.953 599.883 l 193.254 572.355 l 195.559 533.359 l
 197.859 512.715 l 200.164 496.656 l 202.465 480.598 l 204.77 469.129 l 
207.07 455.363 l 209.375 446.188 l 211.68 434.719 l 213.98 425.543 l 216.285
 416.367 l 218.586 409.484 l 220.891 400.309 l 223.191 391.133 l 225.496
 384.254 l 227.797 377.371 l 232.406 363.605 l 234.707 356.727 l 237.012
 352.137 l 239.312 347.551 l 241.617 340.668 l 243.918 333.785 l 246.223
 326.902 l 248.523 322.316 l 250.828 317.727 l 253.129 310.848 l 255.434
 306.258 l 257.738 299.375 l 260.039 297.082 l 262.344 290.199 l 264.645
 283.32 l 266.949 281.023 l 269.25 274.145 l 271.555 269.555 l 273.855 262.672
 l 276.16 260.379 l 278.465 253.496 l 280.766 248.91 l 283.07 244.32 l 285.371
 239.734 l 287.676 235.145 l 289.977 230.559 l 292.281 225.969 l 294.582
 219.09 l 296.887 214.5 l 299.191 212.207 l 301.492 205.324 l 303.797 200.738
 l 306.098 196.148 l 308.402 191.562 l 310.703 186.973 l 313.008 180.09 
l 315.309 177.797 l 317.613 173.211 l 319.918 166.328 l 322.219 161.738 
l 324.523 159.445 l 326.824 154.859 l 329.129 147.977 l 331.43 145.684 l
 333.734 141.094 l 336.035 136.508 l 338.34 131.918 l 340.641 127.332 l 
342.945 122.742 l 345.25 120.449 l 347.551 115.859 l 349.855 113.566 l 352.156
 106.684 l 354.461 104.391 l 356.762 102.098 l 359.066 97.508 l 361.367 
95.215 l 365.977 90.629 l 368.277 88.332 l 370.582 86.039 l 372.883 83.746
 l 375.188 81.453 l 377.488 79.156 l 379.793 76.863 l 382.094 74.57 l 384.398
 74.57 l 386.703 72.277 l 389.004 69.98 l 391.309 72.277 l 393.609 69.98
 l 395.914 69.98 l 398.215 67.688 l 400.52 69.98 l 402.82 67.688 l 405.125
 67.688 l 407.43 69.98 l 409.73 67.688 l 412.035 69.98 l 414.336 69.98 l
 416.641 72.277 l 418.941 69.98 l 421.246 72.277 l 423.547 74.57 l 425.852
 74.57 l 428.156 76.863 l 430.457 79.156 l 432.762 81.453 l 435.062 83.746
 l 437.367 86.039 l 439.668 88.332 l 441.973 90.629 l 444.273 92.922 l 446.578
 95.215 l 448.879 99.805 l 453.488 104.391 l 455.789 108.98 l 458.094 111.273
 l 460.395 115.859 l 462.699 120.449 l 465 125.035 l 467.305 127.332 l 469.605
 131.918 l 471.91 136.508 l 474.215 141.094 l 476.516 145.684 l 478.82 147.977
 l 481.121 154.859 l 483.426 159.445 l 485.727 161.738 l 488.031 166.328
 l 490.332 173.211 l 492.637 177.797 l 494.941 180.09 l 497.242 186.973 
l 499.547 191.562 l 501.848 196.148 l 504.152 200.738 l 506.453 205.324 
l 508.758 209.914 l 511.059 216.793 l 513.363 219.09 l 515.668 225.969 l
 517.969 230.559 l 520.273 232.852 l 522.574 239.734 l 524.879 244.32 l 
527.18 248.91 l 529.484 253.496 l 531.785 260.379 l 534.09 264.969 l 536.391
 269.555 l 538.695 274.145 l 541 281.023 l 543.301 283.32 l 545.605 290.199
 l 547.906 294.789 l 550.211 299.375 l 552.512 306.258 l 554.816 310.848
 l 557.117 317.727 l 559.422 322.316 l 561.727 326.902 l 564.027 333.785
 l 566.332 340.668 l 568.633 347.551 l 570.938 349.844 l 573.238 356.727
 l 575.543 363.605 l 577.844 370.488 l 582.453 384.254 l 584.754 391.133
 l 587.059 400.309 l 589.359 409.484 l 591.664 416.367 l 593.965 425.543
 l 596.27 434.719 l 598.57 443.895 l 600.875 455.363 l 603.18 466.836 l 
605.48 480.598 l 607.785 494.363 l 610.086 510.418 l 612.391 533.359 l 614.691
 567.77 l 616.996 599.883 l 697.598 599.883 l S Q
0.466667 0.67451 0.188235 rg
q 1 0 0 -1 0 674.026001 cm
110.348 599.883 m 177.133 599.883 l 179.438 540.242 l 181.738 515.008 l
 184.043 494.363 l 186.344 478.305 l 188.648 464.539 l 190.953 450.777 l
 193.254 439.309 l 195.559 430.133 l 197.859 420.957 l 200.164 409.484 l
 202.465 402.605 l 204.77 395.723 l 207.07 384.254 l 211.68 370.488 l 213.98
 363.605 l 216.285 356.727 l 218.586 349.844 l 220.891 342.961 l 223.191
 336.078 l 225.496 329.199 l 227.797 324.609 l 230.102 320.023 l 232.406
 313.141 l 234.707 306.258 l 237.012 301.672 l 239.312 294.789 l 241.617
 290.199 l 243.918 285.613 l 246.223 278.73 l 248.523 271.848 l 250.828 
269.555 l 253.129 262.672 l 255.434 258.086 l 257.738 251.203 l 260.039 
246.617 l 262.344 242.027 l 264.645 235.145 l 266.949 230.559 l 269.25 225.969
 l 271.555 221.383 l 273.855 214.5 l 276.16 209.914 l 278.465 203.031 l 
280.766 200.738 l 283.07 193.855 l 285.371 189.266 l 287.676 182.387 l 289.977
 177.797 l 292.281 170.914 l 294.582 166.328 l 296.887 159.445 l 299.191
 154.859 l 301.492 147.977 l 303.797 143.387 l 306.098 138.801 l 308.402
 131.918 l 310.703 127.332 l 313.008 120.449 l 315.309 115.859 l 317.613
 108.98 l 319.918 104.391 l 322.219 99.805 l 324.523 92.922 l 326.824 88.332
 l 329.129 83.746 l 331.43 76.863 l 333.734 72.277 l 336.035 67.688 l 338.34
 63.102 l 340.641 58.512 l 342.945 51.629 l 345.25 49.336 l 347.551 44.75
 l 349.855 42.453 l 352.156 37.867 l 354.461 35.574 l 356.762 33.277 l 359.066
 30.984 l 361.367 28.691 l 363.672 26.398 l 365.977 24.102 l 368.277 21.809
 l 370.582 19.516 l 372.883 17.223 l 375.188 17.223 l 377.488 14.926 l 379.793
 12.633 l 425.852 12.633 l 428.156 14.926 l 430.457 14.926 l 432.762 17.223
 l 435.062 19.516 l 437.367 19.516 l 439.668 21.809 l 441.973 24.102 l 444.273
 26.398 l 446.578 28.691 l 448.879 30.984 l 451.184 33.277 l 453.488 35.574
 l 455.789 40.16 l 458.094 42.453 l 460.395 44.75 l 462.699 49.336 l 465
 53.926 l 467.305 58.512 l 469.605 63.102 l 471.91 67.688 l 474.215 74.57
 l 476.516 79.156 l 478.82 81.453 l 481.121 88.332 l 483.426 92.922 l 485.727
 99.805 l 488.031 104.391 l 490.332 108.98 l 492.637 115.859 l 494.941 120.449
 l 497.242 127.332 l 499.547 134.211 l 501.848 138.801 l 504.152 145.684
 l 506.453 147.977 l 508.758 154.859 l 511.059 159.445 l 513.363 166.328
 l 515.668 170.914 l 517.969 177.797 l 520.273 182.387 l 522.574 189.266
 l 524.879 193.855 l 527.18 200.738 l 529.484 203.031 l 531.785 209.914 
l 534.09 214.5 l 536.391 221.383 l 538.695 225.969 l 541 230.559 l 543.301
 235.145 l 545.605 242.027 l 547.906 246.617 l 550.211 251.203 l 552.512
 255.793 l 554.816 262.672 l 557.117 269.555 l 559.422 271.848 l 561.727
 278.73 l 564.027 283.32 l 566.332 290.199 l 568.633 294.789 l 570.938 299.375
 l 573.238 306.258 l 575.543 313.141 l 577.844 320.023 l 580.148 322.316
 l 582.453 329.199 l 584.754 336.078 l 587.059 342.961 l 589.359 349.844
 l 591.664 356.727 l 593.965 363.605 l 596.27 370.488 l 598.57 377.371 l
 600.875 384.254 l 603.18 393.43 l 605.48 402.605 l 607.785 409.484 l 610.086
 420.957 l 612.391 427.836 l 614.691 439.309 l 616.996 450.777 l 619.297
 462.246 l 623.906 494.363 l 626.207 512.715 l 628.512 537.945 l 630.812
 595.297 l 633.117 599.883 l 697.598 599.883 l S Q
0 0.447059 0.741176 rg
q 1 0 0 -1 0 674.026001 cm
110.348 599.883 m 697.598 599.883 l S Q
0.85098 0.32549 0.0980392 rg
q 1 0 0 -1 0 674.026001 cm
110.348 599.883 m 345.25 599.883 l 347.551 583.824 l 349.855 565.473 l 
352.156 554.004 l 354.461 544.828 l 356.762 540.242 l 359.066 531.066 l 
361.367 526.477 l 363.672 519.594 l 365.977 517.301 l 368.277 512.715 l 
370.582 508.125 l 372.883 508.125 l 375.188 503.539 l 377.488 501.242 l 
379.793 496.656 l 382.094 496.656 l 384.398 494.363 l 386.703 492.066 l 
389.004 492.066 l 391.309 489.773 l 395.914 489.773 l 398.215 487.48 l 412.035
 487.48 l 414.336 489.773 l 418.941 489.773 l 421.246 494.363 l 423.547 
494.363 l 425.852 496.656 l 428.156 496.656 l 430.457 501.242 l 432.762 
503.539 l 435.062 505.832 l 437.367 508.125 l 439.668 512.715 l 441.973 
517.301 l 444.273 519.594 l 446.578 524.184 l 448.879 531.066 l 451.184 
535.652 l 453.488 544.828 l 455.789 551.711 l 458.094 565.473 l 460.395 
581.531 l 462.699 599.883 l 697.598 599.883 l S Q
0.929412 0.694118 0.12549 rg
q 1 0 0 -1 0 674.026001 cm
110.348 599.883 m 227.797 599.883 l 230.102 581.531 l 232.406 544.828 l
 234.707 524.184 l 237.012 508.125 l 239.312 494.363 l 241.617 480.598 l
 243.918 471.422 l 246.223 462.246 l 248.523 450.777 l 250.828 443.895 l
 253.129 437.012 l 255.434 430.133 l 257.738 418.66 l 260.039 411.781 l 
262.344 407.191 l 264.645 400.309 l 266.949 393.43 l 269.25 388.84 l 271.555
 381.957 l 273.855 377.371 l 278.465 363.605 l 280.766 361.312 l 283.07 
354.43 l 285.371 349.844 l 287.676 345.254 l 289.977 340.668 l 292.281 333.785
 l 294.582 331.492 l 296.887 324.609 l 299.191 320.023 l 301.492 317.727
 l 303.797 310.848 l 306.098 308.551 l 308.402 303.965 l 310.703 297.082
 l 313.008 294.789 l 315.309 290.199 l 317.613 287.906 l 319.918 281.023
 l 322.219 278.73 l 324.523 274.145 l 326.824 271.848 l 329.129 267.262 
l 331.43 264.969 l 333.734 258.086 l 336.035 255.793 l 338.34 251.203 l 
340.641 248.91 l 342.945 244.32 l 345.25 242.027 l 347.551 239.734 l 349.855
 235.145 l 352.156 232.852 l 354.461 228.266 l 356.762 228.266 l 359.066
 225.969 l 361.367 223.676 l 363.672 219.09 l 365.977 216.793 l 368.277 
214.5 l 370.582 214.5 l 372.883 212.207 l 375.188 207.617 l 377.488 207.617
 l 379.793 205.324 l 382.094 203.031 l 384.398 203.031 l 386.703 200.738
 l 389.004 200.738 l 391.309 198.441 l 393.609 200.738 l 395.914 198.441
 l 398.215 198.441 l 400.52 196.148 l 402.82 198.441 l 405.125 198.441 l
 407.43 196.148 l 409.73 198.441 l 414.336 198.441 l 416.641 200.738 l 421.246
 200.738 l 423.547 203.031 l 425.852 203.031 l 428.156 205.324 l 430.457
 205.324 l 432.762 209.914 l 435.062 212.207 l 437.367 214.5 l 439.668 214.5
 l 441.973 216.793 l 444.273 219.09 l 446.578 223.676 l 448.879 225.969 
l 451.184 225.969 l 453.488 230.559 l 455.789 232.852 l 458.094 235.145 
l 460.395 239.734 l 462.699 242.027 l 465 244.32 l 467.305 248.91 l 469.605
 251.203 l 471.91 255.793 l 474.215 258.086 l 476.516 262.672 l 478.82 267.262
 l 481.121 271.848 l 483.426 274.145 l 485.727 278.73 l 488.031 281.023 
l 490.332 285.613 l 492.637 290.199 l 494.941 294.789 l 497.242 297.082 
l 499.547 301.672 l 501.848 308.551 l 504.152 310.848 l 506.453 315.434 
l 508.758 320.023 l 511.059 324.609 l 513.363 331.492 l 515.668 333.785 
l 517.969 338.375 l 520.273 345.254 l 522.574 347.551 l 524.879 354.43 l
 527.18 361.312 l 529.484 363.605 l 531.785 370.488 l 534.09 375.078 l 536.391
 381.957 l 538.695 388.84 l 541 393.43 l 543.301 398.016 l 545.605 404.898
 l 547.906 411.781 l 550.211 418.66 l 552.512 427.836 l 554.816 434.719 
l 557.117 443.895 l 559.422 450.777 l 561.727 462.246 l 564.027 471.422 
l 566.332 480.598 l 568.633 492.066 l 570.938 505.832 l 573.238 521.891 
l 575.543 542.535 l 577.844 576.945 l 580.148 599.883 l 697.598 599.883 
l S Q
0.494118 0.184314 0.556863 rg
q 1 0 0 -1 0 674.026001 cm
110.348 599.883 m 190.953 599.883 l 193.254 572.355 l 195.559 533.359 l
 197.859 512.715 l 200.164 496.656 l 202.465 480.598 l 204.77 469.129 l 
207.07 455.363 l 209.375 446.188 l 211.68 434.719 l 213.98 425.543 l 216.285
 416.367 l 218.586 409.484 l 220.891 400.309 l 223.191 391.133 l 225.496
 384.254 l 227.797 377.371 l 232.406 363.605 l 234.707 356.727 l 237.012
 352.137 l 239.312 347.551 l 241.617 340.668 l 243.918 333.785 l 246.223
 326.902 l 248.523 322.316 l 250.828 317.727 l 253.129 310.848 l 255.434
 306.258 l 257.738 299.375 l 260.039 297.082 l 262.344 290.199 l 264.645
 283.32 l 266.949 281.023 l 269.25 274.145 l 271.555 269.555 l 273.855 262.672
 l 276.16 260.379 l 278.465 253.496 l 280.766 248.91 l 283.07 244.32 l 285.371
 239.734 l 287.676 235.145 l 289.977 230.559 l 292.281 225.969 l 294.582
 219.09 l 296.887 214.5 l 299.191 212.207 l 301.492 205.324 l 303.797 200.738
 l 306.098 196.148 l 308.402 191.562 l 310.703 186.973 l 313.008 180.09 
l 315.309 177.797 l 317.613 173.211 l 319.918 166.328 l 322.219 161.738 
l 324.523 159.445 l 326.824 154.859 l 329.129 147.977 l 331.43 145.684 l
 333.734 141.094 l 336.035 136.508 l 338.34 131.918 l 340.641 127.332 l 
342.945 122.742 l 345.25 120.449 l 347.551 115.859 l 349.855 113.566 l 352.156
 106.684 l 354.461 104.391 l 356.762 102.098 l 359.066 97.508 l 361.367 
95.215 l 365.977 90.629 l 368.277 88.332 l 370.582 86.039 l 372.883 83.746
 l 375.188 81.453 l 377.488 79.156 l 379.793 76.863 l 382.094 74.57 l 384.398
 74.57 l 386.703 72.277 l 389.004 69.98 l 391.309 72.277 l 393.609 69.98
 l 395.914 69.98 l 398.215 67.688 l 400.52 69.98 l 402.82 67.688 l 405.125
 67.688 l 407.43 69.98 l 409.73 67.688 l 412.035 69.98 l 414.336 69.98 l
 416.641 72.277 l 418.941 69.98 l 421.246 72.277 l 423.547 74.57 l 425.852
 74.57 l 428.156 76.863 l 430.457 79.156 l 432.762 81.453 l 435.062 83.746
 l 437.367 86.039 l 439.668 88.332 l 441.973 90.629 l 444.273 92.922 l 446.578
 95.215 l 448.879 99.805 l 453.488 104.391 l 455.789 108.98 l 458.094 111.273
 l 460.395 115.859 l 462.699 120.449 l 465 125.035 l 467.305 127.332 l 469.605
 131.918 l 471.91 136.508 l 474.215 141.094 l 476.516 145.684 l 478.82 147.977
 l 481.121 154.859 l 483.426 159.445 l 485.727 161.738 l 488.031 166.328
 l 490.332 173.211 l 492.637 177.797 l 494.941 180.09 l 497.242 186.973 
l 499.547 191.562 l 501.848 196.148 l 504.152 200.738 l 506.453 205.324 
l 508.758 209.914 l 511.059 216.793 l 513.363 219.09 l 515.668 225.969 l
 517.969 230.559 l 520.273 232.852 l 522.574 239.734 l 524.879 244.32 l 
527.18 248.91 l 529.484 253.496 l 531.785 260.379 l 534.09 264.969 l 536.391
 269.555 l 538.695 274.145 l 541 281.023 l 543.301 283.32 l 545.605 290.199
 l 547.906 294.789 l 550.211 299.375 l 552.512 306.258 l 554.816 310.848
 l 557.117 317.727 l 559.422 322.316 l 561.727 326.902 l 564.027 333.785
 l 566.332 340.668 l 568.633 347.551 l 570.938 349.844 l 573.238 356.727
 l 575.543 363.605 l 577.844 370.488 l 582.453 384.254 l 584.754 391.133
 l 587.059 400.309 l 589.359 409.484 l 591.664 416.367 l 593.965 425.543
 l 596.27 434.719 l 598.57 443.895 l 600.875 455.363 l 603.18 466.836 l 
605.48 480.598 l 607.785 494.363 l 610.086 510.418 l 612.391 533.359 l 614.691
 567.77 l 616.996 599.883 l 697.598 599.883 l S Q
0.466667 0.67451 0.188235 rg
q 1 0 0 -1 0 674.026001 cm
110.348 599.883 m 177.133 599.883 l 179.438 540.242 l 181.738 515.008 l
 184.043 494.363 l 186.344 478.305 l 188.648 464.539 l 190.953 450.777 l
 193.254 439.309 l 195.559 430.133 l 197.859 420.957 l 200.164 409.484 l
 202.465 402.605 l 204.77 395.723 l 207.07 384.254 l 211.68 370.488 l 213.98
 363.605 l 216.285 356.727 l 218.586 349.844 l 220.891 342.961 l 223.191
 336.078 l 225.496 329.199 l 227.797 324.609 l 230.102 320.023 l 232.406
 313.141 l 234.707 306.258 l 237.012 301.672 l 239.312 294.789 l 241.617
 290.199 l 243.918 285.613 l 246.223 278.73 l 248.523 271.848 l 250.828 
269.555 l 253.129 262.672 l 255.434 258.086 l 257.738 251.203 l 260.039 
246.617 l 262.344 242.027 l 264.645 235.145 l 266.949 230.559 l 269.25 225.969
 l 271.555 221.383 l 273.855 214.5 l 276.16 209.914 l 278.465 203.031 l 
280.766 200.738 l 283.07 193.855 l 285.371 189.266 l 287.676 182.387 l 289.977
 177.797 l 292.281 170.914 l 294.582 166.328 l 296.887 159.445 l 299.191
 154.859 l 301.492 147.977 l 303.797 143.387 l 306.098 138.801 l 308.402
 131.918 l 310.703 127.332 l 313.008 120.449 l 315.309 115.859 l 317.613
 108.98 l 319.918 104.391 l 322.219 99.805 l 324.523 92.922 l 326.824 88.332
 l 329.129 83.746 l 331.43 76.863 l 333.734 72.277 l 336.035 67.688 l 338.34
 63.102 l 340.641 58.512 l 342.945 51.629 l 345.25 49.336 l 347.551 44.75
 l 349.855 42.453 l 352.156 37.867 l 354.461 35.574 l 356.762 33.277 l 359.066
 30.984 l 361.367 28.691 l 363.672 26.398 l 365.977 24.102 l 368.277 21.809
 l 370.582 19.516 l 372.883 17.223 l 375.188 17.223 l 377.488 14.926 l 379.793
 12.633 l 425.852 12.633 l 428.156 14.926 l 430.457 14.926 l 432.762 17.223
 l 435.062 19.516 l 437.367 19.516 l 439.668 21.809 l 441.973 24.102 l 444.273
 26.398 l 446.578 28.691 l 448.879 30.984 l 451.184 33.277 l 453.488 35.574
 l 455.789 40.16 l 458.094 42.453 l 460.395 44.75 l 462.699 49.336 l 465
 53.926 l 467.305 58.512 l 469.605 63.102 l 471.91 67.688 l 474.215 74.57
 l 476.516 79.156 l 478.82 81.453 l 481.121 88.332 l 483.426 92.922 l 485.727
 99.805 l 488.031 104.391 l 490.332 108.98 l 492.637 115.859 l 494.941 120.449
 l 497.242 127.332 l 499.547 134.211 l 501.848 138.801 l 504.152 145.684
 l 506.453 147.977 l 508.758 154.859 l 511.059 159.445 l 513.363 166.328
 l 515.668 170.914 l 517.969 177.797 l 520.273 182.387 l 522.574 189.266
 l 524.879 193.855 l 527.18 200.738 l 529.484 203.031 l 531.785 209.914 
l 534.09 214.5 l 536.391 221.383 l 538.695 225.969 l 541 230.559 l 543.301
 235.145 l 545.605 242.027 l 547.906 246.617 l 550.211 251.203 l 552.512
 255.793 l 554.816 262.672 l 557.117 269.555 l 559.422 271.848 l 561.727
 278.73 l 564.027 283.32 l 566.332 290.199 l 568.633 294.789 l 570.938 299.375
 l 573.238 306.258 l 575.543 313.141 l 577.844 320.023 l 580.148 322.316
 l 582.453 329.199 l 584.754 336.078 l 587.059 342.961 l 589.359 349.844
 l 591.664 356.727 l 593.965 363.605 l 596.27 370.488 l 598.57 377.371 l
 600.875 384.254 l 603.18 393.43 l 605.48 402.605 l 607.785 409.484 l 610.086
 420.957 l 612.391 427.836 l 614.691 439.309 l 616.996 450.777 l 619.297
 462.246 l 623.906 494.363 l 626.207 512.715 l 628.512 537.945 l 630.812
 595.297 l 633.117 599.883 l 697.598 599.883 l S Q
0 0.447059 0.741176 rg
q 1 0 0 -1 0 674.026001 cm
637.152 88.176 m 667.152 88.176 l S Q
0.85098 0.32549 0.0980392 rg
q 1 0 0 -1 0 674.026001 cm
637.152 123.051 m 667.152 123.051 l S Q
0.929412 0.694118 0.12549 rg
q 1 0 0 -1 0 674.026001 cm
637.152 157.926 m 667.152 157.926 l S Q
0.494118 0.184314 0.556863 rg
q 1 0 0 -1 0 674.026001 cm
637.152 192.801 m 667.152 192.801 l S Q
0 g
574.168 595.026 m 572.723 595.026 571.633 594.311 570.902 592.885 c 570.172
 591.46 569.809 589.323 569.809 586.471 c 569.809 583.62 570.172 581.483
 570.902 580.061 c 571.633 578.639 572.723 577.928 574.168 577.928 c 575.629
 577.928 576.723 578.639 577.449 580.061 c 578.176 581.483 578.539 583.62
 578.539 586.471 c 578.539 589.323 578.176 591.46 577.449 592.885 c 576.723
 594.311 575.629 595.026 574.168 595.026 c h
574.168 597.253 m 576.496 597.253 578.273 596.331 579.504 594.491 c 580.734
 592.651 581.352 589.979 581.352 586.471 c 581.352 582.971 580.734 580.299
 579.504 578.46 c 578.273 576.62 576.496 575.702 574.168 575.702 c 571.84
 575.702 570.059 576.62 568.828 578.46 c 567.598 580.299 566.984 582.971
 566.984 586.471 c 566.984 589.979 567.598 592.651 568.828 594.491 c 570.059
 596.331 571.84 597.253 574.168 597.253 c h
586.465 579.639 m 589.406 579.639 l 589.406 576.1 l 586.465 576.1 l h
601.629 595.026 m 600.184 595.026 599.094 594.311 598.363 592.885 c 597.633
 591.46 597.27 589.323 597.27 586.471 c 597.27 583.62 597.633 581.483 598.363
 580.061 c 599.094 578.639 600.184 577.928 601.629 577.928 c 603.09 577.928
 604.184 578.639 604.91 580.061 c 605.637 581.483 606 583.62 606 586.471
 c 606 589.323 605.637 591.46 604.91 592.885 c 604.184 594.311 603.09 595.026
 601.629 595.026 c h
601.629 597.253 m 603.957 597.253 605.734 596.331 606.965 594.491 c 608.195
 592.651 608.812 589.979 608.812 586.471 c 608.812 582.971 608.195 580.299
 606.965 578.46 c 605.734 576.62 603.957 575.702 601.629 575.702 c 599.301
 575.702 597.52 576.62 596.289 578.46 c 595.059 580.299 594.445 582.971 
594.445 586.471 c 594.445 589.979 595.059 592.651 596.289 594.491 c 597.52
 596.331 599.301 597.253 601.629 597.253 c h
616.352 578.467 m 626.16 578.467 l 626.16 576.1 l 612.965 576.1 l 612.965
 578.467 l 614.035 579.569 615.492 581.049 617.332 582.909 c 619.172 584.768
 620.328 585.967 620.805 586.506 c 621.703 587.522 622.332 588.378 622.688
 589.077 c 623.043 589.776 623.219 590.467 623.219 591.147 c 623.219 592.249
 622.832 593.147 622.059 593.842 c 621.285 594.538 620.277 594.885 619.035
 594.885 c 618.152 594.885 617.223 594.733 616.246 594.428 c 615.27 594.124
 614.223 593.659 613.105 593.034 c 613.105 595.87 l 614.238 596.331 615.297
 596.674 616.281 596.905 c 617.266 597.135 618.164 597.253 618.977 597.253
 c 621.133 597.253 622.852 596.714 624.129 595.639 c 625.406 594.565 626.043
 593.128 626.043 591.323 c 626.043 590.471 625.883 589.663 625.562 588.897
 c 625.242 588.131 624.66 587.229 623.816 586.19 c 623.59 585.924 622.855
 585.147 621.609 583.862 c 620.363 582.577 618.609 580.78 616.352 578.467
 c h
616.352 578.467 m f
574.168 560.151 m 572.723 560.151 571.633 559.436 570.902 558.01 c 570.172
 556.585 569.809 554.448 569.809 551.596 c 569.809 548.745 570.172 546.608
 570.902 545.186 c 571.633 543.764 572.723 543.053 574.168 543.053 c 575.629
 543.053 576.723 543.764 577.449 545.186 c 578.176 546.608 578.539 548.745
 578.539 551.596 c 578.539 554.448 578.176 556.585 577.449 558.01 c 576.723
 559.436 575.629 560.151 574.168 560.151 c h
574.168 562.378 m 576.496 562.378 578.273 561.456 579.504 559.616 c 580.734
 557.776 581.352 555.104 581.352 551.596 c 581.352 548.096 580.734 545.424
 579.504 543.585 c 578.273 541.745 576.496 540.827 574.168 540.827 c 571.84
 540.827 570.059 541.745 568.828 543.585 c 567.598 545.424 566.984 548.096
 566.984 551.596 c 566.984 555.104 567.598 557.776 568.828 559.616 c 570.059
 561.456 571.84 562.378 574.168 562.378 c h
586.465 544.764 m 589.406 544.764 l 589.406 541.225 l 586.465 541.225 l
 h
601.629 560.151 m 600.184 560.151 599.094 559.436 598.363 558.01 c 597.633
 556.585 597.27 554.448 597.27 551.596 c 597.27 548.745 597.633 546.608 
598.363 545.186 c 599.094 543.764 600.184 543.053 601.629 543.053 c 603.09
 543.053 604.184 543.764 604.91 545.186 c 605.637 546.608 606 548.745 606
 551.596 c 606 554.448 605.637 556.585 604.91 558.01 c 604.184 559.436 603.09
 560.151 601.629 560.151 c h
601.629 562.378 m 603.957 562.378 605.734 561.456 606.965 559.616 c 608.195
 557.776 608.812 555.104 608.812 551.596 c 608.812 548.096 608.195 545.424
 606.965 543.585 c 605.734 541.745 603.957 540.827 601.629 540.827 c 599.301
 540.827 597.52 541.745 596.289 543.585 c 595.059 545.424 594.445 548.096
 594.445 551.596 c 594.445 555.104 595.059 557.776 596.289 559.616 c 597.52
 561.456 599.301 562.378 601.629 562.378 c h
613.949 562.003 m 624.988 562.003 l 624.988 559.635 l 616.527 559.635 l
 616.527 554.538 l 616.934 554.678 617.344 554.784 617.754 554.854 c 618.164
 554.924 618.57 554.96 618.977 554.96 c 621.297 554.96 623.137 554.323 624.492
 553.053 c 625.848 551.784 626.523 550.065 626.523 547.893 c 626.523 545.659
 625.828 543.921 624.438 542.682 c 623.047 541.444 621.082 540.827 618.543
 540.827 c 617.676 540.827 616.789 540.901 615.883 541.049 c 614.977 541.198
 614.043 541.421 613.082 541.717 c 613.082 544.542 l 613.918 544.081 614.781
 543.737 615.672 543.514 c 616.562 543.292 617.504 543.182 618.496 543.182
 c 620.098 543.182 621.367 543.604 622.305 544.452 c 623.242 545.299 623.711
 546.448 623.711 547.893 c 623.711 549.339 623.242 550.483 622.305 551.327
 c 621.367 552.171 620.098 552.592 618.496 552.592 c 617.738 552.592 616.988
 552.506 616.242 552.339 c 615.496 552.171 614.73 551.913 613.949 551.561
 c h
613.949 562.003 m f
574.168 525.276 m 572.723 525.276 571.633 524.561 570.902 523.135 c 570.172
 521.71 569.809 519.573 569.809 516.721 c 569.809 513.87 570.172 511.733
 570.902 510.311 c 571.633 508.889 572.723 508.178 574.168 508.178 c 575.629
 508.178 576.723 508.889 577.449 510.311 c 578.176 511.733 578.539 513.87
 578.539 516.721 c 578.539 519.573 578.176 521.71 577.449 523.135 c 576.723
 524.561 575.629 525.276 574.168 525.276 c h
574.168 527.503 m 576.496 527.503 578.273 526.581 579.504 524.741 c 580.734
 522.901 581.352 520.229 581.352 516.721 c 581.352 513.221 580.734 510.549
 579.504 508.71 c 578.273 506.87 576.496 505.952 574.168 505.952 c 571.84
 505.952 570.059 506.87 568.828 508.71 c 567.598 510.549 566.984 513.221
 566.984 516.721 c 566.984 520.229 567.598 522.901 568.828 524.741 c 570.059
 526.581 571.84 527.503 574.168 527.503 c h
586.465 509.889 m 589.406 509.889 l 589.406 506.35 l 586.465 506.35 l h
601.629 525.276 m 600.184 525.276 599.094 524.561 598.363 523.135 c 597.633
 521.71 597.27 519.573 597.27 516.721 c 597.27 513.87 597.633 511.733 598.363
 510.311 c 599.094 508.889 600.184 508.178 601.629 508.178 c 603.09 508.178
 604.184 508.889 604.91 510.311 c 605.637 511.733 606 513.87 606 516.721
 c 606 519.573 605.637 521.71 604.91 523.135 c 604.184 524.561 603.09 525.276
 601.629 525.276 c h
601.629 527.503 m 603.957 527.503 605.734 526.581 606.965 524.741 c 608.195
 522.901 608.812 520.229 608.812 516.721 c 608.812 513.221 608.195 510.549
 606.965 508.71 c 605.734 506.87 603.957 505.952 601.629 505.952 c 599.301
 505.952 597.52 506.87 596.289 508.71 c 595.059 510.549 594.445 513.221 
594.445 516.721 c 594.445 520.229 595.059 522.901 596.289 524.741 c 597.52
 526.581 599.301 527.503 601.629 527.503 c h
619.938 516.217 m 618.602 516.217 617.551 515.858 616.785 515.143 c 616.02
 514.428 615.637 513.448 615.637 512.198 c 615.637 510.94 616.02 509.956
 616.785 509.245 c 617.551 508.534 618.602 508.178 619.938 508.178 c 621.273
 508.178 622.328 508.538 623.098 509.256 c 623.867 509.975 624.25 510.956
 624.25 512.198 c 624.25 513.448 623.867 514.428 623.102 515.143 c 622.336
 515.858 621.281 516.217 619.938 516.217 c h
617.125 517.413 m 615.922 517.71 614.984 518.268 614.312 519.092 c 613.641
 519.917 613.305 520.924 613.305 522.112 c 613.305 523.776 613.895 525.089
 615.074 526.053 c 616.254 527.018 617.875 527.503 619.938 527.503 c 622.008
 527.503 623.633 527.018 624.812 526.053 c 625.992 525.089 626.582 523.776
 626.582 522.112 c 626.582 520.924 626.246 519.917 625.57 519.092 c 624.895
 518.268 623.957 517.71 622.762 517.413 c 624.121 517.1 625.18 516.483 625.934
 515.565 c 626.688 514.647 627.062 513.526 627.062 512.198 c 627.062 510.182
 626.449 508.635 625.219 507.561 c 623.988 506.487 622.227 505.952 619.938
 505.952 c 617.648 505.952 615.891 506.487 614.66 507.561 c 613.43 508.635
 612.812 510.182 612.812 512.198 c 612.812 513.526 613.195 514.647 613.957
 515.565 c 614.719 516.483 615.773 517.1 617.125 517.413 c h
616.094 521.854 m 616.094 520.776 616.434 519.936 617.109 519.335 c 617.785
 518.733 618.727 518.432 619.938 518.432 c 621.141 518.432 622.086 518.733
 622.77 519.335 c 623.453 519.936 623.793 520.776 623.793 521.854 c 623.793
 522.932 623.453 523.772 622.77 524.374 c 622.086 524.975 621.141 525.276
 619.938 525.276 c 618.727 525.276 617.785 524.975 617.109 524.374 c 616.434
 523.772 616.094 522.932 616.094 521.854 c h
616.094 521.854 m f
574.168 490.401 m 572.723 490.401 571.633 489.686 570.902 488.26 c 570.172
 486.835 569.809 484.698 569.809 481.846 c 569.809 478.995 570.172 476.858
 570.902 475.436 c 571.633 474.014 572.723 473.303 574.168 473.303 c 575.629
 473.303 576.723 474.014 577.449 475.436 c 578.176 476.858 578.539 478.995
 578.539 481.846 c 578.539 484.698 578.176 486.835 577.449 488.26 c 576.723
 489.686 575.629 490.401 574.168 490.401 c h
574.168 492.628 m 576.496 492.628 578.273 491.706 579.504 489.866 c 580.734
 488.026 581.352 485.354 581.352 481.846 c 581.352 478.346 580.734 475.674
 579.504 473.835 c 578.273 471.995 576.496 471.077 574.168 471.077 c 571.84
 471.077 570.059 471.995 568.828 473.835 c 567.598 475.674 566.984 478.346
 566.984 481.846 c 566.984 485.354 567.598 488.026 568.828 489.866 c 570.059
 491.706 571.84 492.628 574.168 492.628 c h
586.465 475.014 m 589.406 475.014 l 589.406 471.475 l 586.465 471.475 l
 h
596.109 473.842 m 600.703 473.842 l 600.703 489.686 l 595.699 488.69 l 
595.699 491.245 l 600.668 492.253 l 603.48 492.253 l 603.48 473.842 l 608.074
 473.842 l 608.074 471.475 l 596.109 471.475 l h
614.418 473.842 m 619.012 473.842 l 619.012 489.686 l 614.008 488.69 l 
614.008 491.245 l 618.977 492.253 l 621.789 492.253 l 621.789 473.842 l 
626.383 473.842 l 626.383 471.475 l 614.418 471.475 l h
614.418 473.842 m f
574.168 455.526 m 572.723 455.526 571.633 454.811 570.902 453.385 c 570.172
 451.96 569.809 449.823 569.809 446.971 c 569.809 444.12 570.172 441.983
 570.902 440.561 c 571.633 439.139 572.723 438.428 574.168 438.428 c 575.629
 438.428 576.723 439.139 577.449 440.561 c 578.176 441.983 578.539 444.12
 578.539 446.971 c 578.539 449.823 578.176 451.96 577.449 453.385 c 576.723
 454.811 575.629 455.526 574.168 455.526 c h
574.168 457.753 m 576.496 457.753 578.273 456.831 579.504 454.991 c 580.734
 453.151 581.352 450.479 581.352 446.971 c 581.352 443.471 580.734 440.799
 579.504 438.96 c 578.273 437.12 576.496 436.202 574.168 436.202 c 571.84
 436.202 570.059 437.12 568.828 438.96 c 567.598 440.799 566.984 443.471
 566.984 446.971 c 566.984 450.479 567.598 453.151 568.828 454.991 c 570.059
 456.831 571.84 457.753 574.168 457.753 c h
586.465 440.139 m 589.406 440.139 l 589.406 436.6 l 586.465 436.6 l h
596.109 438.967 m 600.703 438.967 l 600.703 454.811 l 595.699 453.815 l
 595.699 456.37 l 600.668 457.378 l 603.48 457.378 l 603.48 438.967 l 608.074
 438.967 l 608.074 436.6 l 596.109 436.6 l h
622.445 447.803 m 623.789 447.514 624.84 446.913 625.598 446.003 c 626.355
 445.092 626.734 443.971 626.734 442.635 c 626.734 440.589 626.031 439.003
 624.621 437.881 c 623.211 436.76 621.203 436.202 618.602 436.202 c 617.727
 436.202 616.828 436.288 615.906 436.46 c 614.984 436.631 614.031 436.885
 613.047 437.221 c 613.047 439.94 l 613.828 439.487 614.684 439.143 615.613
 438.909 c 616.543 438.674 617.512 438.557 618.52 438.557 c 620.285 438.557
 621.629 438.905 622.551 439.604 c 623.473 440.303 623.934 441.315 623.934
 442.635 c 623.934 443.862 623.504 444.819 622.645 445.51 c 621.785 446.202
 620.59 446.549 619.059 446.549 c 616.645 446.549 l 616.645 448.858 l 619.176
 448.858 l 620.559 448.858 621.617 449.135 622.348 449.69 c 623.078 450.245
 623.441 451.042 623.441 452.081 c 623.441 453.143 623.066 453.96 622.312
 454.53 c 621.559 455.1 620.473 455.385 619.059 455.385 c 618.293 455.385
 617.469 455.299 616.586 455.131 c 615.703 454.964 614.734 454.706 613.68
 454.354 c 613.68 456.862 l 614.742 457.159 615.742 457.381 616.676 457.53
 c 617.609 457.678 618.488 457.753 619.316 457.753 c 621.449 457.753 623.137
 457.268 624.379 456.299 c 625.621 455.331 626.242 454.018 626.242 452.362
 c 626.242 451.214 625.914 450.241 625.254 449.448 c 624.594 448.655 623.656
 448.108 622.445 447.803 c h
622.445 447.803 m f
0.466667 0.67451 0.188235 rg
q 1 0 0 -1 0 674.026001 cm
637.152 227.676 m 667.152 227.676 l S Q
0.14902 g
3.268762 w
0 j
q 0.872622 0 0 -1 0 674.026001 cm
644.367 26.527 125.551 216.281 re S Q
0 g
577.219 628.092 m 577.23 628.112 l 577.27 628.151 l 577.293 628.182 l 577.301
 628.194 l 577.324 628.217 l 577.332 628.233 l 577.352 628.256 l 577.367
 628.276 l 577.383 628.299 l 577.402 628.319 l 577.426 628.358 l 577.434
 628.378 l 577.445 628.397 l 577.453 628.417 l 577.465 628.428 l 577.469
 628.44 l 577.477 628.46 l 577.484 628.471 l 577.484 628.483 l 577.488 628.499
 l 577.496 628.51 l 577.496 628.53 l 577.504 628.542 l 577.504 628.6 l 577.504
 628.756 577.375 628.917 577.285 629.042 c 570.816 638.381 l 578.098 638.381
 l 583.43 638.381 585.012 637.249 585.676 632.26 c 586.457 632.26 l 585.574
 639.366 l 568.066 639.366 l 567.312 639.366 567.258 639.366 567.258 638.628
 c 575.109 627.214 l 567.598 618.663 l 567.281 618.323 567.281 618.256 567.281
 618.163 c 567.281 617.815 567.598 617.815 568.066 617.815 c 585.574 617.815
 l 586.457 625.26 l 585.676 625.26 l 585.102 619.995 582.953 619.139 578.008
 619.139 c 569.301 619.139 l h
577.219 628.092 m f*
601.035 619.151 m 600.926 619.276 l 600.824 619.397 l 600.723 619.51 l 
600.629 619.62 l 600.449 619.823 l 600.367 619.917 l 600.293 620.006 l 600.211
 620.092 l 600.133 620.178 l 600.066 620.26 l 599.996 620.335 l 599.855 
620.475 l 599.793 620.546 l 599.73 620.608 l 599.602 620.729 l 599.477 620.846
 l 599.355 620.956 l 599.23 621.061 l 599.102 621.163 l 598.961 621.272 
l 598.895 621.323 l 598.824 621.374 l 598.746 621.432 l 598.672 621.487 
l 597.324 622.464 595.918 622.831 594.699 622.831 c 591.961 622.831 589.984
 620.495 589.984 617.846 c 590.598 617.846 l 590.598 619.975 592.312 621.62
 594.348 621.62 c 596.406 621.62 597.809 619.944 599.926 617.389 c 599.047
 615.952 597.125 613.717 594.434 613.717 c 592.156 613.717 590.598 615.725
 590.598 617.846 c 589.984 617.846 l 589.984 615.268 591.871 612.889 594.633
 612.889 c 597.695 612.889 599.848 615.401 600.641 616.565 c 601.805 615.198
 602.16 614.827 602.992 614.229 c 604.34 613.26 605.75 612.889 606.969 612.889
 c 609.703 612.889 611.691 615.225 611.691 617.87 c 611.078 617.87 l 611.078
 615.756 609.355 614.092 607.328 614.092 c 605.27 614.092 603.852 615.776
 601.738 618.339 c 602.629 619.764 604.547 621.999 607.238 621.999 c 609.5
 621.999 611.078 619.995 611.078 617.87 c 611.691 617.87 l 611.691 620.456
 609.793 622.831 607.043 622.831 c 603.973 622.831 601.824 620.315 601.035
 619.151 c h
601.035 619.151 m f*
Q Q
showpage
%%Trailer
end restore
%%EOF
